http://195.154.237.18:9000/47.Meters.Down.2017.PL.720p.BDRiP.x264-PSiG/psig-47md.2017.pl.720p.bdrip.x264.mkv
http://195.154.237.18:9000/Atomic.Blonde.2017.MULTi.720p.BluRay.x264-PSiG/psig-ab.2017.multi.720p.br.x264.mkv
http://195.154.237.18:9000/Beauty.and.the.Beast.2017.PL.BDRiP.x264-PSiG/psig-batb.2017.pl.bdrip.x264.mkv
http://195.154.237.18:9000/Gwiazdy.2017.PL.DVDRiP.x264-PSiG/psig-gwiazdy.2017.pl.dvdrip.x264.mkv
http://195.154.237.18:9000/Lego.DC.Comics.Superheroes.Justice.League.Gotham.City.Breakout.2016.MULTi.1080p.BluRay.x264-PSiG/psig-lego.gcb.2016.multi.1080p.br.x264.mkv
http://195.154.237.18:9000/Pirates.of.the.Caribbean.Dead.Men.Tell.No.Tales.2017.MULTi.1080p.BluRay.x264-PSiG/psig-potcdmtnt.2017.multi.1080p.br.x264.mkv
http://195.154.237.18:9000/Rock.Dog.2016.PLDUB.720p.BluRay.x264-PSiG/psig-rd.2016.pldub.720p.br.x264.mkv
http://195.154.237.18:9000/Rock.Dog.2016.PLDUB.BDRiP.x264-PSiG/psig-rd.2016.pldub.bdrip.x264.mkv
http://195.154.237.18:9000/Simulant.2023.MULTi.1080p.AMZN.WEB-DL.DDP5.1.H.264-PSiG/Simulant.2023.MULTi.1080p.AMZN.WEB-DL.DDP5.1.H.264-PSiG.mkv
http://195.154.237.18:9000/The.Hero.2017.PL.720p.BDRiP.x264-PSiG/psig-th.2017.pl.720p.bdrip.x264.mkv
http://195.154.237.18:9000/Valerian.and.the.City.of.a.Thousand.Planets.2017.MULTi.720p.BluRay.x264-PSiG/psig-valerian.2017.multi.720p.br.x264.mkv
