http://rosetta.whatbox.ca:12723/Berserk/(G_P) Berserk 01 (1080p, 10-bit)(3638ECC0).mp4
http://rosetta.whatbox.ca:12723/Berserk/(G_P) Berserk 02 (1080p, 10-bit)(4B8176D6).mp4
http://rosetta.whatbox.ca:12723/Berserk/(G_P) Berserk 03 (1080p, 10-bit)(8C6A0A1D).mp4
http://rosetta.whatbox.ca:12723/Berserk/(G_P) Berserk 04 (1080p, 10-bit)(A434C977).mp4
http://rosetta.whatbox.ca:12723/Berserk/(G_P) Berserk 05 (1080p, 10-bit)(69CF8DFF).mp4
http://rosetta.whatbox.ca:12723/Berserk/(G_P) Berserk 06 (1080p, 10-bit)(9E96CD0B).mp4
http://rosetta.whatbox.ca:12723/Berserk/(G_P) Berserk 07 (1080p, 10-bit)(24B18805).mp4
http://rosetta.whatbox.ca:12723/Berserk/(G_P) Berserk 08 (1080p, 10-bit)(0F1111D5).mp4
http://rosetta.whatbox.ca:12723/Berserk/(G_P) Berserk 09 (1080p, 10-bit)(90CA7C5B).mp4
http://rosetta.whatbox.ca:12723/Berserk/(G_P) Berserk 10 (1080p, 10-bit)(45080775).mp4
http://rosetta.whatbox.ca:12723/Berserk/(G_P) Berserk 11 (1080p, 10-bit)(C41A7FC2).mp4
http://rosetta.whatbox.ca:12723/Berserk/(G_P) Berserk 12 (1080p, 10-bit)(B2580400).mp4
http://rosetta.whatbox.ca:12723/Berserk/(G_P) Berserk 13 (1080p, 10-bit)(94457EAD).mp4
http://rosetta.whatbox.ca:12723/Berserk/(G_P) Berserk 14 (1080p, 10-bit)(F2BC9D7F).mp4
http://rosetta.whatbox.ca:12723/Berserk/(G_P) Berserk 15 (1080p, 10-bit)(0A527CE4).mp4
http://rosetta.whatbox.ca:12723/Berserk/(G_P) Berserk 16 (1080p, 10-bit)(78A223E6).mp4
http://rosetta.whatbox.ca:12723/Berserk/(G_P) Berserk 17 (1080p, 10-bit)(32310CF7).mp4
http://rosetta.whatbox.ca:12723/Berserk/(G_P) Berserk 18 (1080p, 10-bit)(5B4B0E6C).mp4
http://rosetta.whatbox.ca:12723/Berserk/(G_P) Berserk 19 (1080p, 10-bit)(FCA1944A).mp4
http://rosetta.whatbox.ca:12723/Berserk/(G_P) Berserk 20 (1080p, 10-bit)(574A3CA0).mp4
http://rosetta.whatbox.ca:12723/Berserk/(G_P) Berserk 21 (1080p, 10-bit)(D8D15C3C).mp4
http://rosetta.whatbox.ca:12723/Berserk/(G_P) Berserk 22 (1080p, 10-bit)(07A51DC2).mp4
http://rosetta.whatbox.ca:12723/Berserk/(G_P) Berserk 23 (1080p, 10-bit)(01354994).mp4
http://rosetta.whatbox.ca:12723/Berserk/(G_P) Berserk 24 (1080p, 10-bit)(5D79064C).mp4
http://rosetta.whatbox.ca:12723/Berserk/(G_P) Berserk 25 (1080p, 10-bit)(8E0A8E13).mp4
http://rosetta.whatbox.ca:12723/Big Order/Big Order - 01.mp4
http://rosetta.whatbox.ca:12723/Big Order/Big Order - 02.mp4
http://rosetta.whatbox.ca:12723/Big Order/Big Order - 03.mp4
http://rosetta.whatbox.ca:12723/Big Order/Big Order - 04.mp4
http://rosetta.whatbox.ca:12723/Big Order/Big Order - 05.mp4
http://rosetta.whatbox.ca:12723/Big Order/Big Order - 06.mp4
http://rosetta.whatbox.ca:12723/Big Order/Big Order - 07.mp4
http://rosetta.whatbox.ca:12723/Big Order/Big Order - 08.mp4
http://rosetta.whatbox.ca:12723/Big Order/Big Order - 09.mp4
http://rosetta.whatbox.ca:12723/Big Order/Big Order - 10.mp4
http://rosetta.whatbox.ca:12723/Clannad [BD]/Clannad_01.mp4
http://rosetta.whatbox.ca:12723/Clannad [BD]/Clannad_02.mp4
http://rosetta.whatbox.ca:12723/Clannad [BD]/Clannad_03.mp4
http://rosetta.whatbox.ca:12723/Clannad [BD]/Clannad_04.mp4
http://rosetta.whatbox.ca:12723/Clannad [BD]/Clannad_05.mp4
http://rosetta.whatbox.ca:12723/Clannad [BD]/Clannad_06.mp4
http://rosetta.whatbox.ca:12723/Clannad [BD]/Clannad_07.mp4
http://rosetta.whatbox.ca:12723/Clannad [BD]/Clannad_08.mp4
http://rosetta.whatbox.ca:12723/Clannad [BD]/Clannad_09.mp4
http://rosetta.whatbox.ca:12723/Clannad [BD]/Clannad_10.mp4
http://rosetta.whatbox.ca:12723/Clannad [BD]/Clannad_11.mp4
http://rosetta.whatbox.ca:12723/Clannad [BD]/Clannad_12.mp4
http://rosetta.whatbox.ca:12723/Clannad [BD]/Clannad_13.mp4
http://rosetta.whatbox.ca:12723/Clannad [BD]/Clannad_14.mp4
http://rosetta.whatbox.ca:12723/Clannad [BD]/Clannad_15.mp4
http://rosetta.whatbox.ca:12723/Clannad [BD]/Clannad_16.mp4
http://rosetta.whatbox.ca:12723/Clannad [BD]/Clannad_17.mp4
http://rosetta.whatbox.ca:12723/Clannad [BD]/Clannad_18.mp4
http://rosetta.whatbox.ca:12723/Clannad [BD]/Clannad_19.mp4
http://rosetta.whatbox.ca:12723/Clannad [BD]/Clannad_20.mp4
http://rosetta.whatbox.ca:12723/Clannad [BD]/Clannad_21.mp4
http://rosetta.whatbox.ca:12723/Clannad [BD]/Clannad_22.mp4
http://rosetta.whatbox.ca:12723/Clannad [BD]/Clannad_23.mp4
http://rosetta.whatbox.ca:12723/Clannad [BD]/Clannad_24.mp4
http://rosetta.whatbox.ca:12723/Clannad After Story/[Doki] Clannad After Story - 01 (1920x1080 Hi10P BD FLAC) [1AA8D908].mp4
http://rosetta.whatbox.ca:12723/Clannad After Story/[Doki] Clannad After Story - 02v2 (1920x1080 Hi10P BD FLAC) [72E85145].mp4
http://rosetta.whatbox.ca:12723/Clannad After Story/[Doki] Clannad After Story - 03 (1920x1080 Hi10P BD FLAC) [A8381124].mp4
http://rosetta.whatbox.ca:12723/Clannad After Story/[Doki] Clannad After Story - 04 (1920x1080 Hi10P BD FLAC) [366134EF].mp4
http://rosetta.whatbox.ca:12723/Clannad After Story/[Doki] Clannad After Story - 05 (1920x1080 Hi10P BD FLAC) [CCFA914E].mp4
http://rosetta.whatbox.ca:12723/Clannad After Story/[Doki] Clannad After Story - 06 (1920x1080 Hi10P BD FLAC) [AC7C8353].mp4
http://rosetta.whatbox.ca:12723/Clannad After Story/[Doki] Clannad After Story - 07 (1920x1080 Hi10P BD FLAC) [83AE908A].mp4
http://rosetta.whatbox.ca:12723/Clannad After Story/[Doki] Clannad After Story - 08 (1920x1080 Hi10P BD FLAC) [5CE1A998].mp4
http://rosetta.whatbox.ca:12723/Clannad After Story/[Doki] Clannad After Story - 09 (1920x1080 Hi10P BD FLAC) [32BF2A64].mp4
http://rosetta.whatbox.ca:12723/Clannad After Story/[Doki] Clannad After Story - 10 (1920x1080 Hi10P BD FLAC) [228CD257].mp4
http://rosetta.whatbox.ca:12723/Clannad After Story/[Doki] Clannad After Story - 11 (1920x1080 Hi10P BD FLAC) [7606618F].mp4
http://rosetta.whatbox.ca:12723/Clannad After Story/[Doki] Clannad After Story - 12 (1920x1080 Hi10P BD FLAC) [0FF3DFBC].mp4
http://rosetta.whatbox.ca:12723/Clannad After Story/[Doki] Clannad After Story - 13 (1920x1080 Hi10P BD FLAC) [246D2FD2].mp4
http://rosetta.whatbox.ca:12723/Clannad After Story/[Doki] Clannad After Story - 14 (1920x1080 Hi10P BD FLAC) [B9B46085].mp4
http://rosetta.whatbox.ca:12723/Clannad After Story/[Doki] Clannad After Story - 15 (1920x1080 Hi10P BD FLAC) [F1DCBDF7].mp4
http://rosetta.whatbox.ca:12723/Clannad After Story/[Doki] Clannad After Story - 16 (1920x1080 Hi10P BD FLAC) [5EA74032].mp4
http://rosetta.whatbox.ca:12723/Clannad After Story/[Doki] Clannad After Story - 17 (1920x1080 Hi10P BD FLAC) [3C326FA9].mp4
http://rosetta.whatbox.ca:12723/Clannad After Story/[Doki] Clannad After Story - 18 (1920x1080 Hi10P BD FLAC) [E79B5E57].mp4
http://rosetta.whatbox.ca:12723/Clannad After Story/[Doki] Clannad After Story - 19 (1920x1080 Hi10P BD FLAC) [F10A608D].mp4
http://rosetta.whatbox.ca:12723/Clannad After Story/[Doki] Clannad After Story - 20 (1920x1080 Hi10P BD FLAC) [BF61AC00].mp4
http://rosetta.whatbox.ca:12723/Clannad After Story/[Doki] Clannad After Story - 21 (1920x1080 Hi10P BD FLAC) [5E153762].mp4
http://rosetta.whatbox.ca:12723/Clannad After Story/[Doki] Clannad After Story - 22 (1920x1080 Hi10P BD FLAC) [C5180E53].mp4
http://rosetta.whatbox.ca:12723/Clannad After Story/[Doki] Clannad After Story - 23 (1920x1080 Hi10P BD FLAC) [BE34D782].mp4
http://rosetta.whatbox.ca:12723/Clannad After Story/[Doki] Clannad After Story - Another World, Kyou Chapter (1920x1080 Hi10P BD FLAC) [5F96064C].mp4
http://rosetta.whatbox.ca:12723/Clannad After Story/[Doki] Clannad After Story - NCED A (1920x1080 Hi10P BD FLAC) [DB4AE844].mp4
http://rosetta.whatbox.ca:12723/Clannad After Story/[Doki] Clannad After Story - NCED B (1920x1080 Hi10P BD FLAC) [A279C28D].mp4
http://rosetta.whatbox.ca:12723/Clannad After Story/[Doki] Clannad After Story - NCED C (1920x1080 Hi10P BD FLAC) [350B84E7].mp4
http://rosetta.whatbox.ca:12723/Clannad After Story/[Doki] Clannad After Story - NCED D (1920x1080 Hi10P BD FLAC) [A06D04E0].mp4
http://rosetta.whatbox.ca:12723/Clannad After Story/[Doki] Clannad After Story - NCOP (1920x1080 Hi10P BD FLAC) [189FFBE1].mp4
http://rosetta.whatbox.ca:12723/Clannad After Story/[Doki] Clannad After Story - Recap (1920x1080 Hi10P BD FLAC) [C7E3C7B0].mp4
http://rosetta.whatbox.ca:12723/Detective Conan/Season 01/Case Closed - 001 - The Big Shrink   [DarkDream].mp4
http://rosetta.whatbox.ca:12723/Detective Conan/Season 01/Case Closed - 002 - The Kidnapped Debutante   [DarkDream].mp4
http://rosetta.whatbox.ca:12723/Detective Conan/Season 01/Case Closed - 003 - Beware Of Idols   [DarkDream].mp4
http://rosetta.whatbox.ca:12723/Detective Conan/Season 01/Case Closed - 004 - Fish Marks The Spot   [DarkDream].mp4
http://rosetta.whatbox.ca:12723/Detective Conan/Season 01/Case Closed - 005 - The Time Bomb Express   [DarkDream].mp4
http://rosetta.whatbox.ca:12723/Detective Conan/Season 01/Case Closed - 006 - Tragic Valentine   [DarkDream].mp4
http://rosetta.whatbox.ca:12723/Detective Conan/Season 01/Case Closed - 007 - The Case Of The Mysterious Gifts   [DarkDream].mp4
http://rosetta.whatbox.ca:12723/Detective Conan/Season 01/Case Closed - 008 - The Art Museum Murder Case   [DarkDream].mp4
http://rosetta.whatbox.ca:12723/Detective Conan/Season 01/Case Closed - 009 - Festival Fiasco   [DarkDream].mp4
http://rosetta.whatbox.ca:12723/Detective Conan/Season 01/Case Closed - 010 - Deadly Game   [DarkDream].mp4
http://rosetta.whatbox.ca:12723/Detective Conan/Season 01/Case Closed - 011 - The Moonlight Sonata Murder Case (Part 1)   [DarkDream].mp4
http://rosetta.whatbox.ca:12723/Detective Conan/Season 01/Case Closed - 012 - The Moonlight Sonata Murder Case (Part 2)   [DarkDream].mp4
http://rosetta.whatbox.ca:12723/Detective Conan/Season 01/Case Closed - 013 - Kidnapped Amy   [DarkDream].mp4
http://rosetta.whatbox.ca:12723/Detective Conan/Season 01/Case Closed - 014 - Mystery Mastermind   [DarkDream].mp4
http://rosetta.whatbox.ca:12723/Detective Conan/Season 01/Case Closed - 015 - The Shooter   [DarkDream].mp4
http://rosetta.whatbox.ca:12723/Detective Conan/Season 01/Case Closed - 016 - The Two Faced Brother   [DarkDream].mp4
http://rosetta.whatbox.ca:12723/Detective Conan/Season 01/Case Closed - 017 - The Loan Repaid   [DarkDream].mp4
http://rosetta.whatbox.ca:12723/Detective Conan/Season 01/Case Closed - 018 - The Case Of The Hi-Jacked Department Store   [DarkDream].mp4
http://rosetta.whatbox.ca:12723/Detective Conan/Season 01/Case Closed - 019 - Wedding Day Blues   [DarkDream].mp4
http://rosetta.whatbox.ca:12723/Detective Conan/Season 01/Case Closed - 020 - Fashion Sense   [DarkDream].mp4
http://rosetta.whatbox.ca:12723/Detective Conan/Season 01/Case Closed - 021 - The Disappearing Act   [DarkDream].mp4
http://rosetta.whatbox.ca:12723/Detective Conan/Season 01/Case Closed - 022 - Lights, Camera... Murder   [DarkDream].mp4
http://rosetta.whatbox.ca:12723/Detective Conan/Season 01/Case Closed - 023 - Smooth Sailing (Part 1)   [DarkDream].mp4
http://rosetta.whatbox.ca:12723/Detective Conan/Season 01/Case Closed - 024 - Smooth Sailing (Part 2)   [DarkDream].mp4
http://rosetta.whatbox.ca:12723/Detective Conan/Season 01/Case Closed - 025 - Better Off Forgotten   [DarkDream].mp4
http://rosetta.whatbox.ca:12723/Detective Conan/Season 01/Case Closed - 026 - The Counterfeit Ransom Kidnapping   [DarkDream].mp4
http://rosetta.whatbox.ca:12723/Domestic Girlfriend mp4/Domestic.Girlfriend.S01E01.1080p.Blu-Ray.10-Bit.Dual-Audio.DTS-HD.x265-iAHD.mp4
http://rosetta.whatbox.ca:12723/Domestic Girlfriend mp4/Domestic.Girlfriend.S01E02.1080p.Blu-Ray.10-Bit.Dual-Audio.DTS-HD.x265-iAHD.mp4
http://rosetta.whatbox.ca:12723/Domestic Girlfriend mp4/Domestic.Girlfriend.S01E03.1080p.Blu-Ray.10-Bit.Dual-Audio.DTS-HD.x265-iAHD.mp4
http://rosetta.whatbox.ca:12723/Domestic Girlfriend mp4/Domestic.Girlfriend.S01E04.1080p.Blu-Ray.10-Bit.Dual-Audio.DTS-HD.x265-iAHD.mp4
http://rosetta.whatbox.ca:12723/Domestic Girlfriend mp4/Domestic.Girlfriend.S01E05.1080p.Blu-Ray.10-Bit.Dual-Audio.DTS-HD.x265-iAHD.mp4
http://rosetta.whatbox.ca:12723/Domestic Girlfriend mp4/Domestic.Girlfriend.S01E06.1080p.Blu-Ray.10-Bit.Dual-Audio.DTS-HD.x265-iAHD.mp4
http://rosetta.whatbox.ca:12723/Domestic Girlfriend mp4/Domestic.Girlfriend.S01E07.1080p.Blu-Ray.10-Bit.Dual-Audio.DTS-HD.x265-iAHD.mp4
http://rosetta.whatbox.ca:12723/Domestic Girlfriend mp4/Domestic.Girlfriend.S01E08.1080p.Blu-Ray.10-Bit.Dual-Audio.DTS-HD.x265-iAHD.mp4
http://rosetta.whatbox.ca:12723/Domestic Girlfriend mp4/Domestic.Girlfriend.S01E09.1080p.Blu-Ray.10-Bit.Dual-Audio.DTS-HD.x265-iAHD.mp4
http://rosetta.whatbox.ca:12723/Domestic Girlfriend mp4/Domestic.Girlfriend.S01E10.1080p.Blu-Ray.10-Bit.Dual-Audio.DTS-HD.x265-iAHD.mp4
http://rosetta.whatbox.ca:12723/Domestic Girlfriend mp4/Domestic.Girlfriend.S01E11.1080p.Blu-Ray.10-Bit.Dual-Audio.DTS-HD.x265-iAHD.mp4
http://rosetta.whatbox.ca:12723/Domestic Girlfriend mp4/Domestic.Girlfriend.S01E12.1080p.Blu-Ray.10-Bit.Dual-Audio.DTS-HD.x265-iAHD.mp4
http://rosetta.whatbox.ca:12723/geminiaaliyahmix.mp4
http://rosetta.whatbox.ca:12723/Made in Abyss - Dawn of the Deep Soul/[Asenshi-MTBB] Made in Abyss - Dawn of the Deep Soul [BD 1080p AAC] [211CA9DE].mp4
http://rosetta.whatbox.ca:12723/Made in Abyss/[voss] Made in Abyss - 01 [BD,1080p,x264,FLAC] [00000001].mp4
http://rosetta.whatbox.ca:12723/Made in Abyss/[voss] Made in Abyss - 02 [BD,1080p,x264,FLAC] [00000002].mp4
http://rosetta.whatbox.ca:12723/Made in Abyss/[voss] Made in Abyss - 03 [BD,1080p,x264,FLAC] [00000003].mp4
http://rosetta.whatbox.ca:12723/Made in Abyss/[voss] Made in Abyss - 04 [BD,1080p,x264,FLAC] [00000004].mp4
http://rosetta.whatbox.ca:12723/Made in Abyss/[voss] Made in Abyss - 05 [BD,1080p,x264,FLAC] [00000005].mp4
http://rosetta.whatbox.ca:12723/Made in Abyss/[voss] Made in Abyss - 06 [BD,1080p,x264,FLAC] [00000006].mp4
http://rosetta.whatbox.ca:12723/Made in Abyss/[voss] Made in Abyss - 07 [BD,1080p,x264,FLAC] [00000007].mp4
http://rosetta.whatbox.ca:12723/Made in Abyss/[voss] Made in Abyss - 08 [BD,1080p,x264,FLAC] [00000008].mp4
http://rosetta.whatbox.ca:12723/Made in Abyss/[voss] Made in Abyss - 09 [BD,1080p,x264,FLAC] [00000009].mp4
http://rosetta.whatbox.ca:12723/Made in Abyss/[voss] Made in Abyss - 10 [BD,1080p,x264,FLAC] [00000010].mp4
http://rosetta.whatbox.ca:12723/Made in Abyss/[voss] Made in Abyss - 11 [BD,1080p,x264,FLAC] [00000011].mp4
http://rosetta.whatbox.ca:12723/Made in Abyss/[voss] Made in Abyss - 12 [BD,1080p,x264,FLAC] [00000012].mp4
http://rosetta.whatbox.ca:12723/Made in Abyss/[voss] Made in Abyss - 13 [BD,1080p,x264,FLAC] [00000013].mp4
http://rosetta.whatbox.ca:12723/Monogatari 01 Bakemonogatari/[ANE] Bakemonogatari - Ep01 [BDRip 1080p x264 FLAC].mp4
http://rosetta.whatbox.ca:12723/Monogatari 01 Bakemonogatari/[ANE] Bakemonogatari - Ep02 [BDRip 1080p x264 FLAC].mp4
http://rosetta.whatbox.ca:12723/Monogatari 01 Bakemonogatari/[ANE] Bakemonogatari - Ep03 [BDRip 1080p x264 FLAC].mp4
http://rosetta.whatbox.ca:12723/Monogatari 01 Bakemonogatari/[ANE] Bakemonogatari - Ep04 [BDRip 1080p x264 FLAC].mp4
http://rosetta.whatbox.ca:12723/Monogatari 01 Bakemonogatari/[ANE] Bakemonogatari - Ep05 [BDRip 1080p x264 FLAC].mp4
http://rosetta.whatbox.ca:12723/Monogatari 01 Bakemonogatari/[ANE] Bakemonogatari - Ep06 [BDRip 1080p x264 FLAC].mp4
http://rosetta.whatbox.ca:12723/Monogatari 01 Bakemonogatari/[ANE] Bakemonogatari - Ep07 [BDRip 1080p x264 FLAC].mp4
http://rosetta.whatbox.ca:12723/Monogatari 01 Bakemonogatari/[ANE] Bakemonogatari - Ep08 [BDRip 1080p x264 FLAC].mp4
http://rosetta.whatbox.ca:12723/Monogatari 01 Bakemonogatari/[ANE] Bakemonogatari - Ep09 [BDRip 1080p x264 FLAC].mp4
http://rosetta.whatbox.ca:12723/Monogatari 01 Bakemonogatari/[ANE] Bakemonogatari - Ep10 [BDRip 1080p x264 FLAC].mp4
http://rosetta.whatbox.ca:12723/Monogatari 01 Bakemonogatari/[ANE] Bakemonogatari - Ep11 [BDRip 1080p x264 FLAC].mp4
http://rosetta.whatbox.ca:12723/Monogatari 01 Bakemonogatari/[ANE] Bakemonogatari - Ep12 [BDRip 1080p x264 FLAC].mp4
http://rosetta.whatbox.ca:12723/Monogatari 01 Bakemonogatari/[ANE] Bakemonogatari - Ep13 [BDRip 1080p x264 FLAC].mp4
http://rosetta.whatbox.ca:12723/Monogatari 01 Bakemonogatari/[ANE] Bakemonogatari - Ep14 [BDRip 1080p x264 FLAC].mp4
http://rosetta.whatbox.ca:12723/Monogatari 01 Bakemonogatari/[ANE] Bakemonogatari - Ep15 [BDRip 1080p x264 FLAC].mp4
http://rosetta.whatbox.ca:12723/Monogatari 02 Kizumonogatari/[Edo] Kizumonogatari I - Tekketsu-hen v2 (1080).mp4
http://rosetta.whatbox.ca:12723/Monogatari 02 Kizumonogatari/[Edo] Kizumonogatari II - Nekketsu-hen v2 (1080).mp4
http://rosetta.whatbox.ca:12723/Monogatari 02 Kizumonogatari/[Edo] Kizumonogatari III - Reiketsu-hen v2 (1080).mp4
http://rosetta.whatbox.ca:12723/Monogatari 03 Nisemonogatari/[Coalgirls]_Nisemonogatari_01_(1920x1080_Blu-ray_FLAC)_[EB420C97].mp4
http://rosetta.whatbox.ca:12723/Monogatari 03 Nisemonogatari/[Coalgirls]_Nisemonogatari_02_(1920x1080_Blu-ray_FLAC)_[F338F8D9].mp4
http://rosetta.whatbox.ca:12723/Monogatari 03 Nisemonogatari/[Coalgirls]_Nisemonogatari_03_(1920x1080_Blu-ray_FLAC)_[590605FD].mp4
http://rosetta.whatbox.ca:12723/Monogatari 03 Nisemonogatari/[Coalgirls]_Nisemonogatari_04_(1920x1080_Blu-ray_FLAC)_[C98CEAB7].mp4
http://rosetta.whatbox.ca:12723/Monogatari 03 Nisemonogatari/[Coalgirls]_Nisemonogatari_05_(1920x1080_Blu-ray_FLAC)_[A1245CF7].mp4
http://rosetta.whatbox.ca:12723/Monogatari 03 Nisemonogatari/[Coalgirls]_Nisemonogatari_06_(1920x1080_Blu-ray_FLAC)_[D1A9B617].mp4
http://rosetta.whatbox.ca:12723/Monogatari 03 Nisemonogatari/[Coalgirls]_Nisemonogatari_07_(1920x1080_Blu-ray_FLAC)_[2897E838].mp4
http://rosetta.whatbox.ca:12723/Monogatari 03 Nisemonogatari/[Coalgirls]_Nisemonogatari_08_(1920x1080_Blu-ray_FLAC)_[3ACAEA65].mp4
http://rosetta.whatbox.ca:12723/Monogatari 03 Nisemonogatari/[Coalgirls]_Nisemonogatari_09_(1920x1080_Blu-ray_FLAC)_[749F6333].mp4
http://rosetta.whatbox.ca:12723/Monogatari 03 Nisemonogatari/[Coalgirls]_Nisemonogatari_10_(1920x1080_Blu-ray_FLAC)_[50FF5490].mp4
http://rosetta.whatbox.ca:12723/Monogatari 03 Nisemonogatari/[Coalgirls]_Nisemonogatari_11_(1920x1080_Blu-ray_FLAC)_[19706E46].mp4
http://rosetta.whatbox.ca:12723/Monogatari 03 Nisemonogatari/[Coalgirls]_Nisemonogatari_ED1_(1920x1080_Blu-ray_FLAC)_[F2B3DC41].mp4
http://rosetta.whatbox.ca:12723/Monogatari 03 Nisemonogatari/[Coalgirls]_Nisemonogatari_ED2_(1920x1080_Blu-ray_FLAC)_[4F06E032].mp4
http://rosetta.whatbox.ca:12723/Monogatari 03 Nisemonogatari/[Coalgirls]_Nisemonogatari_ED3_(1920x1080_Blu-ray_FLAC)_[87F939A3].mp4
http://rosetta.whatbox.ca:12723/Monogatari 03 Nisemonogatari/[Coalgirls]_Nisemonogatari_OP1a_(1920x1080_Blu-ray_FLAC)_[B3AD8BB2].mp4
http://rosetta.whatbox.ca:12723/Monogatari 03 Nisemonogatari/[Coalgirls]_Nisemonogatari_OP1b_(1920x1080_Blu-ray_FLAC)_[FDE71249].mp4
http://rosetta.whatbox.ca:12723/Monogatari 03 Nisemonogatari/[Coalgirls]_Nisemonogatari_OP2_(1920x1080_Blu-ray_FLAC)_[B978241D].mp4
http://rosetta.whatbox.ca:12723/Monogatari 03 Nisemonogatari/[Coalgirls]_Nisemonogatari_OP3_(1920x1080_Blu-ray_FLAC)_[948BD021].mp4
http://rosetta.whatbox.ca:12723/Monogatari 04 Nekomonogatari/[Coalgirls]_Nekomonogatari_01_(1920x1080_Blu-ray_FLAC)_[5DEC5B88].mp4
http://rosetta.whatbox.ca:12723/Monogatari 04 Nekomonogatari/[Coalgirls]_Nekomonogatari_02_(1920x1080_Blu-ray_FLAC)_[EF7839D9].mp4
http://rosetta.whatbox.ca:12723/Monogatari 04 Nekomonogatari/[Coalgirls]_Nekomonogatari_03_(1920x1080_Blu-ray_FLAC)_[9C0A49B3].mp4
http://rosetta.whatbox.ca:12723/Monogatari 04 Nekomonogatari/[Coalgirls]_Nekomonogatari_04_(1920x1080_Blu-ray_FLAC)_[31994705].mp4
http://rosetta.whatbox.ca:12723/Monogatari 05 - Monogatari Series Second Season/[Coalgirls]_Monogatari_Series_Second_Season_01_(1920x1080_Blu-ray_FLAC)_[374424D1].mp4
http://rosetta.whatbox.ca:12723/Monogatari 05 - Monogatari Series Second Season/[Coalgirls]_Monogatari_Series_Second_Season_02_(1920x1080_Blu-ray_FLAC)_[4EAAEFD4].mp4
http://rosetta.whatbox.ca:12723/Monogatari 05 - Monogatari Series Second Season/[Coalgirls]_Monogatari_Series_Second_Season_03_(1920x1080_Blu-ray_FLAC)_[1E718FA4].mp4
http://rosetta.whatbox.ca:12723/Monogatari 05 - Monogatari Series Second Season/[Coalgirls]_Monogatari_Series_Second_Season_04_(1920x1080_Blu-ray_FLAC)_[0DE63002].mp4
http://rosetta.whatbox.ca:12723/Monogatari 05 - Monogatari Series Second Season/[Coalgirls]_Monogatari_Series_Second_Season_05_(1920x1080_Blu-ray_FLAC)_[8A63010B].mp4
http://rosetta.whatbox.ca:12723/Monogatari 05 - Monogatari Series Second Season/[Coalgirls]_Monogatari_Series_Second_Season_07_(1920x1080_Blu-ray_FLAC)_[09077F8C].mp4
http://rosetta.whatbox.ca:12723/Monogatari 05 - Monogatari Series Second Season/[Coalgirls]_Monogatari_Series_Second_Season_08_(1920x1080_Blu-ray_FLAC)_[960BE928].mp4
http://rosetta.whatbox.ca:12723/Monogatari 05 - Monogatari Series Second Season/[Coalgirls]_Monogatari_Series_Second_Season_09_(1920x1080_Blu-ray_FLAC)_[12B82782].mp4
http://rosetta.whatbox.ca:12723/Monogatari 05 - Monogatari Series Second Season/[Coalgirls]_Monogatari_Series_Second_Season_10_(1920x1080_Blu-ray_FLAC)_[6DC52862].mp4
http://rosetta.whatbox.ca:12723/Monogatari 05 - Monogatari Series Second Season/[Coalgirls]_Monogatari_Series_Second_Season_12_(1920x1080_Blu-ray_FLAC)_[9D90DFF4].mp4
http://rosetta.whatbox.ca:12723/Monogatari 05 - Monogatari Series Second Season/[Coalgirls]_Monogatari_Series_Second_Season_13_(1920x1080_Blu-ray_FLAC)_[4C72A9EE].mp4
http://rosetta.whatbox.ca:12723/Monogatari 05 - Monogatari Series Second Season/[Coalgirls]_Monogatari_Series_Second_Season_14_(1920x1080_Blu-ray_FLAC)_[63BB25EA].mp4
http://rosetta.whatbox.ca:12723/Monogatari 05 - Monogatari Series Second Season/[Coalgirls]_Monogatari_Series_Second_Season_15_(1920x1080_Blu-ray_FLAC)_[DF334201].mp4
http://rosetta.whatbox.ca:12723/Monogatari 05 - Monogatari Series Second Season/[Coalgirls]_Monogatari_Series_Second_Season_17_(1920x1080_Blu-ray_FLAC)_[0F8AC59D].mp4
http://rosetta.whatbox.ca:12723/Monogatari 05 - Monogatari Series Second Season/[Coalgirls]_Monogatari_Series_Second_Season_18_(1920x1080_Blu-ray_FLAC)_[636E3573].mp4
http://rosetta.whatbox.ca:12723/Monogatari 05 - Monogatari Series Second Season/[Coalgirls]_Monogatari_Series_Second_Season_19_(1920x1080_Blu-ray_FLAC)_[6212B825].mp4
http://rosetta.whatbox.ca:12723/Monogatari 05 - Monogatari Series Second Season/[Coalgirls]_Monogatari_Series_Second_Season_20_(1920x1080_Blu-ray_FLAC)_[F0BAD19C].mp4
http://rosetta.whatbox.ca:12723/Monogatari 05 - Monogatari Series Second Season/[Coalgirls]_Monogatari_Series_Second_Season_21_(1920x1080_Blu-ray_FLAC)_[A5354798].mp4
http://rosetta.whatbox.ca:12723/Monogatari 05 - Monogatari Series Second Season/[Coalgirls]_Monogatari_Series_Second_Season_22_(1920x1080_Blu-ray_FLAC)_[4EADAF4C].mp4
http://rosetta.whatbox.ca:12723/Monogatari 05 - Monogatari Series Second Season/[Coalgirls]_Monogatari_Series_Second_Season_23_(1920x1080_Blu-ray_FLAC)_[B7D43922].mp4
http://rosetta.whatbox.ca:12723/Monogatari 05 - Monogatari Series Second Season/[Coalgirls]_Monogatari_Series_Second_Season_24_(1920x1080_Blu-ray_FLAC)_[0E544286].mp4
http://rosetta.whatbox.ca:12723/Monogatari 05 - Monogatari Series Second Season/[Coalgirls]_Monogatari_Series_Second_Season_25_(1920x1080_Blu-ray_FLAC)_[33FB7276].mp4
http://rosetta.whatbox.ca:12723/Monogatari 05 - Monogatari Series Second Season/[Coalgirls]_Monogatari_Series_Second_Season_26_(1920x1080_Blu-ray_FLAC)_[98FA4A17].mp4
http://rosetta.whatbox.ca:12723/Monogatari 05 - Monogatari Series Second Season/[Coalgirls]_Monogatari_Series_Second_Season_ED1a_(1920x1080_Blu-ray_FLAC)_[948275AF].mp4
http://rosetta.whatbox.ca:12723/Monogatari 05 - Monogatari Series Second Season/[Coalgirls]_Monogatari_Series_Second_Season_ED1b_(1920x1080_Blu-ray_FLAC)_[5CB5B6EF].mp4
http://rosetta.whatbox.ca:12723/Monogatari 05 - Monogatari Series Second Season/[Coalgirls]_Monogatari_Series_Second_Season_ED2a_(1920x1080_Blu-ray_FLAC)_[FE174631].mp4
http://rosetta.whatbox.ca:12723/Monogatari 05 - Monogatari Series Second Season/[Coalgirls]_Monogatari_Series_Second_Season_ED2b_(1920x1080_Blu-ray_FLAC)_[6C9A71DE].mp4
http://rosetta.whatbox.ca:12723/Monogatari 05 - Monogatari Series Second Season/[Coalgirls]_Monogatari_Series_Second_Season_ED3_(1920x1080_Blu-ray_FLAC)_[C1ECC6BC].mp4
http://rosetta.whatbox.ca:12723/Monogatari 05 - Monogatari Series Second Season/[Coalgirls]_Monogatari_Series_Second_Season_ED4_(1920x1080_Blu-ray_FLAC)_[6D0CA8FF].mp4
http://rosetta.whatbox.ca:12723/Monogatari 05 - Monogatari Series Second Season/[Coalgirls]_Monogatari_Series_Second_Season_OP1a_(1920x1080_Blu-ray_FLAC)_[D306F77E].mp4
http://rosetta.whatbox.ca:12723/Monogatari 05 - Monogatari Series Second Season/[Coalgirls]_Monogatari_Series_Second_Season_OP1b_(1920x1080_Blu-ray_FLAC)_[43804AE0].mp4
http://rosetta.whatbox.ca:12723/Monogatari 05 - Monogatari Series Second Season/[Coalgirls]_Monogatari_Series_Second_Season_OP2_(1920x1080_Blu-ray_FLAC)_[63B03DF9].mp4
http://rosetta.whatbox.ca:12723/Monogatari 05 - Monogatari Series Second Season/[Coalgirls]_Monogatari_Series_Second_Season_OP3_(1920x1080_Blu-ray_FLAC)_[F776438F].mp4
http://rosetta.whatbox.ca:12723/Monogatari 05 - Monogatari Series Second Season/[Coalgirls]_Monogatari_Series_Second_Season_OP5a_(1920x1080_Blu-ray_FLAC)_[B915E97A].mp4
http://rosetta.whatbox.ca:12723/Monogatari 05 - Monogatari Series Second Season/[Coalgirls]_Monogatari_Series_Second_Season_OP5b_(1920x1080_Blu-ray_FLAC)_[A7F2B8DB].mp4
http://rosetta.whatbox.ca:12723/Monogatari 05 - Monogatari Series Second Season/[Coalgirls]_Monogatari_Series_Second_Season_OP6_(1920x1080_Blu-ray_FLAC)_[5BC718F7].mp4
http://rosetta.whatbox.ca:12723/Monogatari 06 Hanamonogatari/[Coalgirls]_Monogatari_Series_Second_Season_27_(1920x1080_Blu-ray_FLAC)_[2651229A].mp4
http://rosetta.whatbox.ca:12723/Monogatari 06 Hanamonogatari/[Coalgirls]_Monogatari_Series_Second_Season_28_(1920x1080_Blu-ray_FLAC)_[88C83F38].mp4
http://rosetta.whatbox.ca:12723/Monogatari 06 Hanamonogatari/[Coalgirls]_Monogatari_Series_Second_Season_29_(1920x1080_Blu-ray_FLAC)_[8EA770C7].mp4
http://rosetta.whatbox.ca:12723/Monogatari 06 Hanamonogatari/[Coalgirls]_Monogatari_Series_Second_Season_30_(1920x1080_Blu-ray_FLAC)_[52E7F116].mp4
http://rosetta.whatbox.ca:12723/Monogatari 06 Hanamonogatari/[Coalgirls]_Monogatari_Series_Second_Season_31_(1920x1080_Blu-ray_FLAC)_[C53ED3F1].mp4
http://rosetta.whatbox.ca:12723/Monogatari 07 Tsukimonogatari/[Coalgirls]_Tsukimonogatari_01_(1920x1080_Blu-ray_FLAC)_[28C653A4].mp4
http://rosetta.whatbox.ca:12723/Monogatari 07 Tsukimonogatari/[Coalgirls]_Tsukimonogatari_02_(1920x1080_Blu-ray_FLAC)_[D5F97B17].mp4
http://rosetta.whatbox.ca:12723/Monogatari 07 Tsukimonogatari/[Coalgirls]_Tsukimonogatari_03_(1920x1080_Blu-ray_FLAC)_[7152298A].mp4
http://rosetta.whatbox.ca:12723/Monogatari 07 Tsukimonogatari/[Coalgirls]_Tsukimonogatari_04_(1920x1080_Blu-ray_FLAC)_[ACDA2D7D].mp4
http://rosetta.whatbox.ca:12723/Monogatari 08 Owarimonogatari/[Coalgirls]_Owarimonogatari_01_(1920x1080_Blu-ray_FLAC)_[D812C218].mp4
http://rosetta.whatbox.ca:12723/Monogatari 08 Owarimonogatari/[Coalgirls]_Owarimonogatari_02_(1920x1080_Blu-ray_FLAC)_[EC9E18B3].mp4
http://rosetta.whatbox.ca:12723/Monogatari 08 Owarimonogatari/[Coalgirls]_Owarimonogatari_03_(1920x1080_Blu-ray_FLAC)_[92FAE066].mp4
http://rosetta.whatbox.ca:12723/Monogatari 08 Owarimonogatari/[Coalgirls]_Owarimonogatari_04_(1920x1080_Blu-ray_FLAC)_[6912E5A0].mp4
http://rosetta.whatbox.ca:12723/Monogatari 08 Owarimonogatari/[Coalgirls]_Owarimonogatari_05_(1920x1080_Blu-ray_FLAC)_[7829F2C1].mp4
http://rosetta.whatbox.ca:12723/Monogatari 08 Owarimonogatari/[Coalgirls]_Owarimonogatari_06_(1920x1080_Blu-ray_FLAC)_[F8AB2456].mp4
http://rosetta.whatbox.ca:12723/Monogatari 08 Owarimonogatari/[Coalgirls]_Owarimonogatari_07_(1920x1080_Blu-ray_FLAC)_[1B986B36].mp4
http://rosetta.whatbox.ca:12723/Monogatari 08 Owarimonogatari/[Coalgirls]_Owarimonogatari_08_(1920x1080_Blu-ray_FLAC)_[A25237BA].mp4
http://rosetta.whatbox.ca:12723/Monogatari 08 Owarimonogatari/[Coalgirls]_Owarimonogatari_09_(1920x1080_Blu-ray_FLAC)_[993E87B6].mp4
http://rosetta.whatbox.ca:12723/Monogatari 08 Owarimonogatari/[Coalgirls]_Owarimonogatari_10_(1920x1080_Blu-ray_FLAC)_[ED592D45].mp4
http://rosetta.whatbox.ca:12723/Monogatari 08 Owarimonogatari/[Coalgirls]_Owarimonogatari_11_(1920x1080_Blu-ray_FLAC)_[3394147A].mp4
http://rosetta.whatbox.ca:12723/Monogatari 08 Owarimonogatari/[Coalgirls]_Owarimonogatari_12_(1920x1080_Blu-ray_FLAC)_[8A1C429A].mp4
http://rosetta.whatbox.ca:12723/Monogatari 08 Owarimonogatari/[Coalgirls]_Owarimonogatari_13_(1920x1080_Blu-ray_FLAC)_[0B7532D4].mp4
http://rosetta.whatbox.ca:12723/Monogatari 08 Owarimonogatari/[Coalgirls]_Owarimonogatari_ED1_(1920x1080_Blu-ray_FLAC)_[D6E74D36].mp4
http://rosetta.whatbox.ca:12723/Monogatari 08 Owarimonogatari/[Coalgirls]_Owarimonogatari_ED2_(1920x1080_Blu-ray_FLAC)_[8C9C3336].mp4
http://rosetta.whatbox.ca:12723/Monogatari 08 Owarimonogatari/[Coalgirls]_Owarimonogatari_OP1_(1920x1080_Blu-ray_FLAC)_[E820658F].mp4
http://rosetta.whatbox.ca:12723/Monogatari 08 Owarimonogatari/[Coalgirls]_Owarimonogatari_OP2_(1920x1080_Blu-ray_FLAC)_[8B573C0F].mp4
http://rosetta.whatbox.ca:12723/Monogatari 08 Owarimonogatari/[Coalgirls]_Owarimonogatari_OP3_(1920x1080_Blu-ray_FLAC)_[F036A740].mp4
http://rosetta.whatbox.ca:12723/Monogatari 08 Owarimonogatari/[Coalgirls]_Owarimonogatari_OP4_(1920x1080_Blu-ray_FLAC)_[A93155E4].mp4
http://rosetta.whatbox.ca:12723/Monogatari 09 Koyomimonogatari/[Sajamba] Koyomimonogatari - 01  (BD 1920x1080 x264 FLAC).mp4
http://rosetta.whatbox.ca:12723/Monogatari 09 Koyomimonogatari/[Sajamba] Koyomimonogatari - 02  (BD 1920x1080 x264 FLAC).mp4
http://rosetta.whatbox.ca:12723/Monogatari 09 Koyomimonogatari/[Sajamba] Koyomimonogatari - 03  (BD 1920x1080 x264 FLAC).mp4
http://rosetta.whatbox.ca:12723/Monogatari 09 Koyomimonogatari/[Sajamba] Koyomimonogatari - 04  (BD 1920x1080 x264 FLAC).mp4
http://rosetta.whatbox.ca:12723/Monogatari 09 Koyomimonogatari/[Sajamba] Koyomimonogatari - 05  (BD 1920x1080 x264 FLAC).mp4
http://rosetta.whatbox.ca:12723/Monogatari 09 Koyomimonogatari/[Sajamba] Koyomimonogatari - 06  (BD 1920x1080 x264 FLAC).mp4
http://rosetta.whatbox.ca:12723/Monogatari 09 Koyomimonogatari/[Sajamba] Koyomimonogatari - 07  (BD 1920x1080 x264 FLAC).mp4
http://rosetta.whatbox.ca:12723/Monogatari 09 Koyomimonogatari/[Sajamba] Koyomimonogatari - 08  (BD 1920x1080 x264 FLAC).mp4
http://rosetta.whatbox.ca:12723/Monogatari 09 Koyomimonogatari/[Sajamba] Koyomimonogatari - 09  (BD 1920x1080 x264 FLAC).mp4
http://rosetta.whatbox.ca:12723/Monogatari 09 Koyomimonogatari/[Sajamba] Koyomimonogatari - 10  (BD 1920x1080 x264 FLAC).mp4
http://rosetta.whatbox.ca:12723/Monogatari 09 Koyomimonogatari/[Sajamba] Koyomimonogatari - 11  (BD 1920x1080 x264 FLAC).mp4
http://rosetta.whatbox.ca:12723/Monogatari 09 Koyomimonogatari/[Sajamba] Koyomimonogatari - 12  (BD 1920x1080 x264 FLAC).mp4
http://rosetta.whatbox.ca:12723/Monogatari 10 Owarimonogatari 2nd Season/Owarimonogatari ~Hitagi Rendezvous~ (BDRip 1920x1080 x264 FLAC).mp4
http://rosetta.whatbox.ca:12723/Monogatari 10 Owarimonogatari 2nd Season/Owarimonogatari ~Mayoi Hell ~ (BDRip 1920x1080 x264 FLAC).mp4
http://rosetta.whatbox.ca:12723/Monogatari 10 Owarimonogatari 2nd Season/Owarimonogatari ~Ougi Dark ~ (BDRip 1920x1080 x264 FLAC).mp4
http://rosetta.whatbox.ca:12723/Monogatari 11 Zoku Owarimonogatari the Movie/[MTBB] Zoku Owarimonogatari the Movie [7F37267E].mp4
http://rosetta.whatbox.ca:12723/Steins;Gate Movie/[WhyNot] Steins;Gate - Fuka Ryouiki no Déjà vu [BD 1080p FLAC][10485960].mp4
http://rosetta.whatbox.ca:12723/Steins;Gate/[WhyNot] Steins;Gate - 25 [BD 720p AAC][5AAF0DA8].mp4
http://rosetta.whatbox.ca:12723/Yosuga no Sora/Yosuga_no_Sora_01.mp4
http://rosetta.whatbox.ca:12723/Yosuga no Sora/Yosuga_no_Sora_02.mp4
http://rosetta.whatbox.ca:12723/Yosuga no Sora/Yosuga_no_Sora_03.mp4
http://rosetta.whatbox.ca:12723/Yosuga no Sora/Yosuga_no_Sora_04.mp4
http://rosetta.whatbox.ca:12723/Yosuga no Sora/Yosuga_no_Sora_05.mp4
http://rosetta.whatbox.ca:12723/Yosuga no Sora/Yosuga_no_Sora_06.mp4
http://rosetta.whatbox.ca:12723/Yosuga no Sora/Yosuga_no_Sora_07.mp4
http://rosetta.whatbox.ca:12723/Yosuga no Sora/Yosuga_no_Sora_08.mp4
http://rosetta.whatbox.ca:12723/Yosuga no Sora/Yosuga_no_Sora_09.mp4
http://rosetta.whatbox.ca:12723/Yosuga no Sora/Yosuga_no_Sora_10.mp4
http://rosetta.whatbox.ca:12723/Yosuga no Sora/Yosuga_no_Sora_11.mp4
http://rosetta.whatbox.ca:12723/Yosuga no Sora/Yosuga_no_Sora_12.mp4
