http://54.37.91.120:49156/hunteralogist/Doctor.Strange.in.the.Multiverse.of.Madness.2022.1080p.WEB-DL.DDP5.1.Atmos.H.264-EVO.mkv
http://54.37.91.120:49156/hunteralogist/Euphoria S02 web 10bit hevc-d3g/Euphoria.S02E01.Trying.to.Get.to.Heaven.Before.They.Close.the.Door.1080p.WEBRiip.10Bit.DD5.1.H265-d3g.mkv
http://54.37.91.120:49156/hunteralogist/Euphoria S02 web 10bit hevc-d3g/Euphoria.S02E02.Out.of.Touch.1080p.WEBRiip.10Bit.DD5.1.H265-d3g.mkv
http://54.37.91.120:49156/hunteralogist/Euphoria S02 web 10bit hevc-d3g/Euphoria.S02E03.Ruminations.Big.and.Little.Bullys.1080p.WEBRiip.10Bit.DD5.1.H265-d3g.mkv
http://54.37.91.120:49156/hunteralogist/Euphoria S02 web 10bit hevc-d3g/Euphoria.S02E04.You.Who.Cannot.See.Think.of.Those.Who.Can.1080p.WEBRiip.10Bit.DD5.1.H265-d3g.mkv
http://54.37.91.120:49156/hunteralogist/Euphoria S02 web 10bit hevc-d3g/Euphoria.S02E05.Stand.Still.Like.the.Hummingbird.1080p.WEBRiip.10Bit.DD5.1.H265-d3g.mkv
http://54.37.91.120:49156/hunteralogist/Euphoria S02 web 10bit hevc-d3g/Euphoria.S02E06.A.Thousand.Little.Trees.of.Blood.1080p.WEBRiip.10Bit.DD5.1.H265-d3g.mkv
http://54.37.91.120:49156/hunteralogist/Euphoria S02 web 10bit hevc-d3g/Euphoria.S02E07.The.Theater.and.Its.Double.1080p.WEBRiip.10Bit.DD5.1.H265-d3g.mkv
http://54.37.91.120:49156/hunteralogist/Euphoria S02 web 10bit hevc-d3g/Euphoria.S02E08.All.My.Life.My.Heart.Has.Yearned.for.a.Thing.I.Cannot.Name.1080p.WEBRiip.10Bit.DD5.1.H265-d3g.mkv
http://54.37.91.120:49156/hunteralogist/House.of.Gucci.2021.1080p.AMZN.WEB-DL.DDP5.1.H264-CMRG/House.of.Gucci.2021.1080p.AMZN.WEB-DL.DDP5.1.H264-CMRG.mkv
http://54.37.91.120:49156/hunteralogist/House.of.the.Dragon.S01E02.1080p.HEVC.x265-MeGusta/House.of.the.Dragon.S01E02.1080p.HEVC.x265-MeGusta.mkv
http://54.37.91.120:49156/hunteralogist/House.of.the.Dragon.S01E03.1080p.HEVC.x265-MeGusta/House.of.the.Dragon.S01E03.1080p.HEVC.x265-MeGusta.mkv
http://54.37.91.120:49156/hunteralogist/House.of.the.Dragon.S01E04.1080p.HEVC.x265-MeGusta/House.of.the.Dragon.S01E04.1080p.HEVC.x265-MeGusta.mkv
http://54.37.91.120:49156/hunteralogist/House.of.the.Dragon.S01E05.1080p.HEVC.x265-MeGusta/House.of.the.Dragon.S01E05.1080p.HEVC.x265-MeGusta.mkv
http://54.37.91.120:49156/hunteralogist/House.of.the.Dragon.S01E06.The.Princess.and.the.Queen.1080p.HMAX.WEBRip.DD5.1.X.264-EVO/House.of.the.Dragon.S01E06.The.Princess.and.the.Queen.1080p.HMAX.WEBRip.DD5.1.X.264-EVO.mkv
http://54.37.91.120:49156/hunteralogist/House.of.the.Dragon.S01E07.1080p.HMAX.WEB-DL.DDP5.1.Atmos.x264-CMRG.mkv
http://54.37.91.120:49156/hunteralogist/House.of.the.Dragon.S01E08.1080p.HEVC.x265-MeGusta/House.of.the.Dragon.S01E08.1080p.HEVC.x265-MeGusta.mkv
http://54.37.91.120:49156/hunteralogist/House.of.the.Dragon.S01E09.1080p.HEVC.x265-MeGusta/House.of.the.Dragon.S01E09.1080p.HEVC.x265-MeGusta.mkv
http://54.37.91.120:49156/hunteralogist/House.of.the.Dragon.S01E10.720p.HEVC.x265-MeGusta/House.of.the.Dragon.S01E10.720p.HEVC.x265-MeGusta.mkv
http://54.37.91.120:49156/hunteralogist/Inside.the.Mind.of.a.Cat.2022.1080p.WEB.h264-KOGi/Inside.the.Mind.of.a.Cat.2022.1080p.WEB.h264-KOGi.mkv
http://54.37.91.120:49156/hunteralogist/Modern.Family.S06.720p.HDTV.x264-Scene/Modern.Family.S06E01.720p.HDTV.x264-KILLERS.mkv
http://54.37.91.120:49156/hunteralogist/Modern.Family.S06.720p.HDTV.x264-Scene/Modern.Family.S06E02.720p.HDTV.x264-KILLERS.mkv
http://54.37.91.120:49156/hunteralogist/Modern.Family.S06.720p.HDTV.x264-Scene/Modern.Family.S06E03.720p.HDTV.x264-KILLERS.mkv
http://54.37.91.120:49156/hunteralogist/Modern.Family.S06.720p.HDTV.x264-Scene/Modern.Family.S06E04.720p.HDTV.x264-KILLERS.mkv
http://54.37.91.120:49156/hunteralogist/Modern.Family.S06.720p.HDTV.x264-Scene/Modern.Family.S06E05.720p.HDTV.x264-KILLERS.mkv
http://54.37.91.120:49156/hunteralogist/Modern.Family.S06.720p.HDTV.x264-Scene/Modern.Family.S06E06.720p.HDTV.x264-KILLERS.mkv
http://54.37.91.120:49156/hunteralogist/Modern.Family.S06.720p.HDTV.x264-Scene/Modern.Family.S06E07.720p.HDTV.x264-KILLERS.mkv
http://54.37.91.120:49156/hunteralogist/Modern.Family.S06.720p.HDTV.x264-Scene/Modern.Family.S06E08.720p.HDTV.x264-KILLERS.mkv
http://54.37.91.120:49156/hunteralogist/Modern.Family.S06.720p.HDTV.x264-Scene/Modern.Family.S06E09.720p.HDTV.x264-KILLERS.mkv
http://54.37.91.120:49156/hunteralogist/Modern.Family.S06.720p.HDTV.x264-Scene/Modern.Family.S06E10.720p.HDTV.x264-KILLERS.mkv
http://54.37.91.120:49156/hunteralogist/Modern.Family.S06.720p.HDTV.x264-Scene/Modern.Family.S06E11.720p.HDTV.x264-KILLERS.mkv
http://54.37.91.120:49156/hunteralogist/Modern.Family.S06.720p.HDTV.x264-Scene/Modern.Family.S06E12.REPACK.720p.HDTV.x264-IMMERSE.mkv
http://54.37.91.120:49156/hunteralogist/Modern.Family.S06.720p.HDTV.x264-Scene/Modern.Family.S06E13.720p.HDTV.x264-KILLERS.mkv
http://54.37.91.120:49156/hunteralogist/Modern.Family.S06.720p.HDTV.x264-Scene/Modern.Family.S06E14.720p.HDTV.X264-DIMENSION.mkv
http://54.37.91.120:49156/hunteralogist/Modern.Family.S06.720p.HDTV.x264-Scene/Modern.Family.S06E15.720p.HDTV.X264-DIMENSION.mkv
http://54.37.91.120:49156/hunteralogist/Modern.Family.S06.720p.HDTV.x264-Scene/Modern.Family.S06E16.720p.HDTV.X264-DIMENSION.mkv
http://54.37.91.120:49156/hunteralogist/Modern.Family.S06.720p.HDTV.x264-Scene/Modern.Family.S06E17.720p.HDTV.X264-DIMENSION.mkv
http://54.37.91.120:49156/hunteralogist/Modern.Family.S06.720p.HDTV.x264-Scene/Modern.Family.S06E18.720p.HDTV.X264-DIMENSION.mkv
http://54.37.91.120:49156/hunteralogist/Modern.Family.S06.720p.HDTV.x264-Scene/Modern.Family.S06E19.720p.HDTV.X264-DIMENSION.mkv
http://54.37.91.120:49156/hunteralogist/Modern.Family.S06.720p.HDTV.x264-Scene/Modern.Family.S06E20.720p.HDTV.X264-DIMENSION.mkv
http://54.37.91.120:49156/hunteralogist/Modern.Family.S06.720p.HDTV.x264-Scene/Modern.Family.S06E21.720p.HDTV.X264-DIMENSION.mkv
http://54.37.91.120:49156/hunteralogist/Modern.Family.S06.720p.HDTV.x264-Scene/Modern.Family.S06E22.720p.HDTV.X264-DIMENSION.mkv
http://54.37.91.120:49156/hunteralogist/Modern.Family.S06.720p.HDTV.x264-Scene/Modern.Family.S06E23.720p.HDTV.X264-DIMENSION.mkv
http://54.37.91.120:49156/hunteralogist/Modern.Family.S06.720p.HDTV.x264-Scene/Modern.Family.S06E24.720p.HDTV.X264-DIMENSION.mkv
http://54.37.91.120:49156/hunteralogist/Moon.Knight.S01E01.1080p.HEVC.x265-MeGusta/Moon.Knight.S01E01.1080p.HEVC.x265-MeGusta.mkv
http://54.37.91.120:49156/hunteralogist/Moon.Knight.S01E02.1080p.HEVC.x265-MeGusta/Moon.Knight.S01E02.1080p.HEVC.x265-MeGusta.mkv
http://54.37.91.120:49156/hunteralogist/Moon.Knight.S01E03.1080p.HEVC.x265-MeGusta/Moon.Knight.S01E03.1080p.HEVC.x265-MeGusta.mkv
http://54.37.91.120:49156/hunteralogist/Moon.Knight.S01E04.1080p.HEVC.x265-MeGusta/Moon.Knight.S01E04.1080p.HEVC.x265-MeGusta.mkv
http://54.37.91.120:49156/hunteralogist/Moon.Knight.S01E05.1080p.HEVC.x265-MeGusta/Moon.Knight.S01E05.1080p.HEVC.x265-MeGusta.mkv
http://54.37.91.120:49156/hunteralogist/Moon.Knight.S01E06.1080p.HEVC.x265-MeGusta/Moon.Knight.S01E06.1080p.HEVC.x265-MeGusta.mkv
http://54.37.91.120:49156/hunteralogist/Ms.Marvel.S01E01.1080p.HEVC.x265-MeGusta/Ms.Marvel.S01E01.1080p.HEVC.x265-MeGusta.mkv
http://54.37.91.120:49156/hunteralogist/Ms.Marvel.S01E02.1080p.HEVC.x265-MeGusta/Ms.Marvel.S01E02.1080p.HEVC.x265-MeGusta.mkv
http://54.37.91.120:49156/hunteralogist/Ms.Marvel.S01E03.1080p.HEVC.x265-MeGusta/Ms.Marvel.S01E03.1080p.HEVC.x265-MeGusta.mkv
http://54.37.91.120:49156/hunteralogist/Ms.Marvel.S01E04.1080p.HEVC.x265-MeGusta/Ms.Marvel.S01E04.1080p.HEVC.x265-MeGusta.mkv
http://54.37.91.120:49156/hunteralogist/Obi-Wan.Kenobi.S01E01.1080p.HEVC.x265-MeGusta/Obi-Wan.Kenobi.S01E01.1080p.HEVC.x265-MeGusta.mkv
http://54.37.91.120:49156/hunteralogist/Obi-Wan.Kenobi.S01E02.1080p.HEVC.x265-MeGusta/Obi-Wan.Kenobi.S01E02.1080p.HEVC.x265-MeGusta.mkv
http://54.37.91.120:49156/hunteralogist/Obi-Wan.Kenobi.S01E03.720p.HEVC.x265-MeGusta/Obi-Wan.Kenobi.S01E03.720p.HEVC.x265-MeGusta.mkv
http://54.37.91.120:49156/hunteralogist/Obi-Wan.Kenobi.S01E04.720p.HEVC.x265-MeGusta/Obi-Wan.Kenobi.S01E04.720p.HEVC.x265-MeGusta.mkv
http://54.37.91.120:49156/hunteralogist/Obi-Wan.Kenobi.S01E05.720p.HEVC.x265-MeGusta/Obi-Wan.Kenobi.S01E05.720p.HEVC.x265-MeGusta.mkv
http://54.37.91.120:49156/hunteralogist/Obi-Wan.Kenobi.S01E06.1080p.HEVC.x265-MeGusta/Obi-Wan.Kenobi.S01E06.1080p.HEVC.x265-MeGusta.mkv
http://54.37.91.120:49156/hunteralogist/Packed To The Rafters S01-S06 amzn web hevc-d3g/S01/Packed To The Rafters_S01E01_Pilot 1080p AMZN WEB-DL H265-d3g.mkv
http://54.37.91.120:49156/hunteralogist/Packed To The Rafters S01-S06 amzn web hevc-d3g/S01/Packed To The Rafters_S01E02_Playing a Googly 1080p AMZN WEB-DL H265-d3g.mkv
http://54.37.91.120:49156/hunteralogist/Packed To The Rafters S01-S06 amzn web hevc-d3g/S01/Packed To The Rafters_S01E03_She Ain't Heavy 1080p AMZN WEB-DL H265-d3g.mkv
http://54.37.91.120:49156/hunteralogist/Packed To The Rafters S01-S06 amzn web hevc-d3g/S01/Packed To The Rafters_S01E04_How Did We Get Here 1080p AMZN WEB-DL H265-d3g.mkv
http://54.37.91.120:49156/hunteralogist/Packed To The Rafters S01-S06 amzn web hevc-d3g/S01/Packed To The Rafters_S01E05_Lines of Communication 1080p AMZN WEB-DL H265-d3g.mkv
http://54.37.91.120:49156/hunteralogist/Packed To The Rafters S01-S06 amzn web hevc-d3g/S01/Packed To The Rafters_S01E06_Facing Demons 1080p AMZN WEB-DL H265-d3g.mkv
http://54.37.91.120:49156/hunteralogist/Packed To The Rafters S01-S06 amzn web hevc-d3g/S01/Packed To The Rafters_S01E07_Self Made Man 1080p AMZN WEB-DL H265-d3g.mkv
http://54.37.91.120:49156/hunteralogist/Packed To The Rafters S01-S06 amzn web hevc-d3g/S01/Packed To The Rafters_S01E08_Taking the Lead 1080p AMZN WEB-DL H265-d3g.mkv
http://54.37.91.120:49156/hunteralogist/Packed To The Rafters S01-S06 amzn web hevc-d3g/S01/Packed To The Rafters_S01E09_Suburban Boy 1080p AMZN WEB-DL H265-d3g.mkv
http://54.37.91.120:49156/hunteralogist/Packed To The Rafters S01-S06 amzn web hevc-d3g/S01/Packed To The Rafters_S01E10_All in the Planning 1080p AMZN WEB-DL H265-d3g.mkv
http://54.37.91.120:49156/hunteralogist/Packed To The Rafters S01-S06 amzn web hevc-d3g/S01/Packed To The Rafters_S01E11_Away from It All 1080p AMZN WEB-DL H265-d3g.mkv
http://54.37.91.120:49156/hunteralogist/Packed To The Rafters S01-S06 amzn web hevc-d3g/S01/Packed To The Rafters_S01E12_Removing the Block 1080p AMZN WEB-DL H265-d3g.mkv
http://54.37.91.120:49156/hunteralogist/Packed To The Rafters S01-S06 amzn web hevc-d3g/S01/Packed To The Rafters_S01E13_Smiling Through the Pain 1080p AMZN WEB-DL H265-d3g.mkv
http://54.37.91.120:49156/hunteralogist/Packed To The Rafters S01-S06 amzn web hevc-d3g/S01/Packed To The Rafters_S01E14_A Mother's Radar 1080p AMZN WEB-DL H265-d3g.mkv
http://54.37.91.120:49156/hunteralogist/Packed To The Rafters S01-S06 amzn web hevc-d3g/S01/Packed To The Rafters_S01E15_Natural Justice 1080p AMZN WEB-DL H265-d3g.mkv
http://54.37.91.120:49156/hunteralogist/Packed To The Rafters S01-S06 amzn web hevc-d3g/S01/Packed To The Rafters_S01E16_Having It All 1080p AMZN WEB-DL H265-d3g.mkv
http://54.37.91.120:49156/hunteralogist/Packed To The Rafters S01-S06 amzn web hevc-d3g/S01/Packed To The Rafters_S01E17_Changes 1080p AMZN WEB-DL H265-d3g.mkv
http://54.37.91.120:49156/hunteralogist/Packed To The Rafters S01-S06 amzn web hevc-d3g/S01/Packed To The Rafters_S01E18_House of Cards 1080p AMZN WEB-DL H265-d3g.mkv
http://54.37.91.120:49156/hunteralogist/Packed To The Rafters S01-S06 amzn web hevc-d3g/S01/Packed To The Rafters_S01E19_Over the Moon 1080p AMZN WEB-DL H265-d3g.mkv
http://54.37.91.120:49156/hunteralogist/Packed To The Rafters S01-S06 amzn web hevc-d3g/S01/Packed To The Rafters_S01E20_Losing the Touch 1080p AMZN WEB-DL H265-d3g.mkv
http://54.37.91.120:49156/hunteralogist/Packed To The Rafters S01-S06 amzn web hevc-d3g/S01/Packed To The Rafters_S01E21_What a Difference a Year Makes 1080p AMZN WEB-DL H265-d3g.mkv
http://54.37.91.120:49156/hunteralogist/Packed To The Rafters S01-S06 amzn web hevc-d3g/S01/Packed To The Rafters_S01E22_Don't Know What You've Got 'Til It's Gone 1080p AMZN WEB-DL H265-d3g.mkv
http://54.37.91.120:49156/hunteralogist/Packed To The Rafters S01-S06 amzn web hevc-d3g/S02/Packed To The Rafters_S02E01_Look Into My Eyes 1080p AMZN WEB-DL H265-d3g.mkv
http://54.37.91.120:49156/hunteralogist/Packed To The Rafters S01-S06 amzn web hevc-d3g/S02/Packed To The Rafters_S02E02_Dodging the Issue 1080p AMZN WEB-DL H265-d3g.mkv
http://54.37.91.120:49156/hunteralogist/Packed To The Rafters S01-S06 amzn web hevc-d3g/S02/Packed To The Rafters_S02E03_Living by the List 1080p AMZN WEB-DL H265-d3g.mkv
http://54.37.91.120:49156/hunteralogist/Packed To The Rafters S01-S06 amzn web hevc-d3g/S02/Packed To The Rafters_S02E04_Glittering Prizes 1080p AMZN WEB-DL H265-d3g.mkv
http://54.37.91.120:49156/hunteralogist/Packed To The Rafters S01-S06 amzn web hevc-d3g/S02/Packed To The Rafters_S02E05_Brave New World 1080p AMZN WEB-DL H265-d3g.mkv
http://54.37.91.120:49156/hunteralogist/Packed To The Rafters S01-S06 amzn web hevc-d3g/S02/Packed To The Rafters_S02E06_Little Arrows 1080p AMZN WEB-DL H265-d3g.mkv
http://54.37.91.120:49156/hunteralogist/Packed To The Rafters S01-S06 amzn web hevc-d3g/S02/Packed To The Rafters_S02E07_Belonging 1080p AMZN WEB-DL H265-d3g.mkv
http://54.37.91.120:49156/hunteralogist/Packed To The Rafters S01-S06 amzn web hevc-d3g/S02/Packed To The Rafters_S02E08_What's in a Name 1080p AMZN WEB-DL H265-d3g.mkv
http://54.37.91.120:49156/hunteralogist/Packed To The Rafters S01-S06 amzn web hevc-d3g/S02/Packed To The Rafters_S02E09_Naked Visions 1080p AMZN WEB-DL H265-d3g.mkv
http://54.37.91.120:49156/hunteralogist/Packed To The Rafters S01-S06 amzn web hevc-d3g/S02/Packed To The Rafters_S02E10_Ready to Catch You 1080p AMZN WEB-DL H265-d3g.mkv
http://54.37.91.120:49156/hunteralogist/Packed To The Rafters S01-S06 amzn web hevc-d3g/S02/Packed To The Rafters_S02E11_Power Play 1080p AMZN WEB-DL H265-d3g.mkv
http://54.37.91.120:49156/hunteralogist/Packed To The Rafters S01-S06 amzn web hevc-d3g/S02/Packed To The Rafters_S02E12_Out of Left Field 1080p AMZN WEB-DL H265-d3g.mkv
http://54.37.91.120:49156/hunteralogist/Packed To The Rafters S01-S06 amzn web hevc-d3g/S02/Packed To The Rafters_S02E13_Blurring the Lines 1080p AMZN WEB-DL H265-d3g.mkv
http://54.37.91.120:49156/hunteralogist/Packed To The Rafters S01-S06 amzn web hevc-d3g/S02/Packed To The Rafters_S02E14_First Instinct 1080p AMZN WEB-DL H265-d3g.mkv
http://54.37.91.120:49156/hunteralogist/Packed To The Rafters S01-S06 amzn web hevc-d3g/S02/Packed To The Rafters_S02E15_It's My Party 1080p AMZN WEB-DL H265-d3g.mkv
http://54.37.91.120:49156/hunteralogist/Packed To The Rafters S01-S06 amzn web hevc-d3g/S02/Packed To The Rafters_S02E16_Mr Fix-It 1080p AMZN WEB-DL H265-d3g.mkv
http://54.37.91.120:49156/hunteralogist/Packed To The Rafters S01-S06 amzn web hevc-d3g/S02/Packed To The Rafters_S02E17_Putting the House in Order 1080p AMZN WEB-DL H265-d3g.mkv
http://54.37.91.120:49156/hunteralogist/Packed To The Rafters S01-S06 amzn web hevc-d3g/S02/Packed To The Rafters_S02E18_Space Junk 1080p AMZN WEB-DL H265-d3g.mkv
http://54.37.91.120:49156/hunteralogist/Packed To The Rafters S01-S06 amzn web hevc-d3g/S02/Packed To The Rafters_S02E19_A Small, Traditional Affair 1080p AMZN WEB-DL H265-d3g.mkv
http://54.37.91.120:49156/hunteralogist/Packed To The Rafters S01-S06 amzn web hevc-d3g/S02/Packed To The Rafters_S02E20_Only a Heartbeat Away 1080p AMZN WEB-DL H265-d3g.mkv
http://54.37.91.120:49156/hunteralogist/Packed To The Rafters S01-S06 amzn web hevc-d3g/S02/Packed To The Rafters_S02E21_Unlimited Options 1080p AMZN WEB-DL H265-d3g.mkv
http://54.37.91.120:49156/hunteralogist/Packed To The Rafters S01-S06 amzn web hevc-d3g/S02/Packed To The Rafters_S02E22_Nativity Play 1080p AMZN WEB-DL H265-d3g.mkv
http://54.37.91.120:49156/hunteralogist/Packed To The Rafters S01-S06 amzn web hevc-d3g/S03/Packed To The Rafters_S03E01_The Blank Page 1080p AMZN WEB-DL H265-d3g.mkv
http://54.37.91.120:49156/hunteralogist/Packed To The Rafters S01-S06 amzn web hevc-d3g/S03/Packed To The Rafters_S03E02_Saturday Night, Sunday Morning 1080p AMZN WEB-DL H265-d3g.mkv
http://54.37.91.120:49156/hunteralogist/Packed To The Rafters S01-S06 amzn web hevc-d3g/S03/Packed To The Rafters_S03E03_To Tell or Not to Tell 1080p AMZN WEB-DL H265-d3g.mkv
http://54.37.91.120:49156/hunteralogist/Packed To The Rafters S01-S06 amzn web hevc-d3g/S03/Packed To The Rafters_S03E04_A Good Husband 1080p AMZN WEB-DL H265-d3g.mkv
http://54.37.91.120:49156/hunteralogist/Packed To The Rafters S01-S06 amzn web hevc-d3g/S03/Packed To The Rafters_S03E05_The Invisible Man 1080p AMZN WEB-DL H265-d3g.mkv
http://54.37.91.120:49156/hunteralogist/Packed To The Rafters S01-S06 amzn web hevc-d3g/S03/Packed To The Rafters_S03E06_Home Matters 1080p AMZN WEB-DL H265-d3g.mkv
http://54.37.91.120:49156/hunteralogist/Packed To The Rafters S01-S06 amzn web hevc-d3g/S03/Packed To The Rafters_S03E07_Simple Needs 1080p AMZN WEB-DL H265-d3g.mkv
http://54.37.91.120:49156/hunteralogist/Packed To The Rafters S01-S06 amzn web hevc-d3g/S03/Packed To The Rafters_S03E08_Rites of Passage 1080p AMZN WEB-DL H265-d3g.mkv
http://54.37.91.120:49156/hunteralogist/Packed To The Rafters S01-S06 amzn web hevc-d3g/S03/Packed To The Rafters_S03E09_The Price Of Parenthood 1080p AMZN WEB-DL H265-d3g.mkv
http://54.37.91.120:49156/hunteralogist/Packed To The Rafters S01-S06 amzn web hevc-d3g/S03/Packed To The Rafters_S03E10_Out of the Comfort Zone 1080p AMZN WEB-DL H265-d3g.mkv
http://54.37.91.120:49156/hunteralogist/Packed To The Rafters S01-S06 amzn web hevc-d3g/S03/Packed To The Rafters_S03E11_Lessons in Happiness 1080p AMZN WEB-DL H265-d3g.mkv
http://54.37.91.120:49156/hunteralogist/Packed To The Rafters S01-S06 amzn web hevc-d3g/S03/Packed To The Rafters_S03E12_Moments of Truth 1080p AMZN WEB-DL H265-d3g.mkv
http://54.37.91.120:49156/hunteralogist/Packed To The Rafters S01-S06 amzn web hevc-d3g/S03/Packed To The Rafters_S03E13_Live and Let Live 1080p AMZN WEB-DL H265-d3g.mkv
http://54.37.91.120:49156/hunteralogist/Packed To The Rafters S01-S06 amzn web hevc-d3g/S03/Packed To The Rafters_S03E14_Know Yourself 1080p AMZN WEB-DL H265-d3g.mkv
http://54.37.91.120:49156/hunteralogist/Packed To The Rafters S01-S06 amzn web hevc-d3g/S03/Packed To The Rafters_S03E15_Don't Go There! 1080p AMZN WEB-DL H265-d3g.mkv
http://54.37.91.120:49156/hunteralogist/Packed To The Rafters S01-S06 amzn web hevc-d3g/S03/Packed To The Rafters_S03E16_When Worlds Collide 1080p AMZN WEB-DL H265-d3g.mkv
http://54.37.91.120:49156/hunteralogist/Packed To The Rafters S01-S06 amzn web hevc-d3g/S03/Packed To The Rafters_S03E17_Spark Of Life 1080p AMZN WEB-DL H265-d3g.mkv
http://54.37.91.120:49156/hunteralogist/Packed To The Rafters S01-S06 amzn web hevc-d3g/S03/Packed To The Rafters_S03E18_Between the Covers 1080p AMZN WEB-DL H265-d3g.mkv
http://54.37.91.120:49156/hunteralogist/Packed To The Rafters S01-S06 amzn web hevc-d3g/S03/Packed To The Rafters_S03E19_Breathe 1080p AMZN WEB-DL H265-d3g.mkv
http://54.37.91.120:49156/hunteralogist/Packed To The Rafters S01-S06 amzn web hevc-d3g/S03/Packed To The Rafters_S03E20_Perfect Bubble 1080p AMZN WEB-DL H265-d3g.mkv
http://54.37.91.120:49156/hunteralogist/Packed To The Rafters S01-S06 amzn web hevc-d3g/S03/Packed To The Rafters_S03E21_Rest in Peace 1080p AMZN WEB-DL H265-d3g.mkv
http://54.37.91.120:49156/hunteralogist/Packed To The Rafters S01-S06 amzn web hevc-d3g/S03/Packed To The Rafters_S03E22_One Day at a Time 1080p AMZN WEB-DL H265-d3g.mkv
http://54.37.91.120:49156/hunteralogist/Packed To The Rafters S01-S06 amzn web hevc-d3g/S04/Packed To The Rafters_S04E01_What Lies Beneath 1080p AMZN WEB-DL H265-d3g.mkv
http://54.37.91.120:49156/hunteralogist/Packed To The Rafters S01-S06 amzn web hevc-d3g/S04/Packed To The Rafters_S04E02_In With The New 1080p AMZN WEB-DL H265-d3g.mkv
http://54.37.91.120:49156/hunteralogist/Packed To The Rafters S01-S06 amzn web hevc-d3g/S04/Packed To The Rafters_S04E03_Careful What You Wish For 1080p AMZN WEB-DL H265-d3g.mkv
http://54.37.91.120:49156/hunteralogist/Packed To The Rafters S01-S06 amzn web hevc-d3g/S04/Packed To The Rafters_S04E04_Other People's Eyes 1080p AMZN WEB-DL H265-d3g.mkv
http://54.37.91.120:49156/hunteralogist/Packed To The Rafters S01-S06 amzn web hevc-d3g/S04/Packed To The Rafters_S04E05_The Taste of Freedom 1080p AMZN WEB-DL H265-d3g.mkv
http://54.37.91.120:49156/hunteralogist/Packed To The Rafters S01-S06 amzn web hevc-d3g/S04/Packed To The Rafters_S04E06_The Dollhouse 1080p AMZN WEB-DL H265-d3g.mkv
http://54.37.91.120:49156/hunteralogist/Packed To The Rafters S01-S06 amzn web hevc-d3g/S04/Packed To The Rafters_S04E07_Sweet Sorrow 1080p AMZN WEB-DL H265-d3g.mkv
http://54.37.91.120:49156/hunteralogist/Packed To The Rafters S01-S06 amzn web hevc-d3g/S04/Packed To The Rafters_S04E08_The Male Communication Handbook 1080p AMZN WEB-DL H265-d3g.mkv
http://54.37.91.120:49156/hunteralogist/Packed To The Rafters S01-S06 amzn web hevc-d3g/S04/Packed To The Rafters_S04E09_From Little Things 1080p AMZN WEB-DL H265-d3g.mkv
http://54.37.91.120:49156/hunteralogist/Packed To The Rafters S01-S06 amzn web hevc-d3g/S04/Packed To The Rafters_S04E10_Big Kids 1080p AMZN WEB-DL H265-d3g.mkv
http://54.37.91.120:49156/hunteralogist/Packed To The Rafters S01-S06 amzn web hevc-d3g/S04/Packed To The Rafters_S04E11_Swimming in the Gene Pool 1080p AMZN WEB-DL H265-d3g.mkv
http://54.37.91.120:49156/hunteralogist/Packed To The Rafters S01-S06 amzn web hevc-d3g/S04/Packed To The Rafters_S04E12_You've Got To Have Friends 1080p AMZN WEB-DL H265-d3g.mkv
http://54.37.91.120:49156/hunteralogist/Packed To The Rafters S01-S06 amzn web hevc-d3g/S04/Packed To The Rafters_S04E13_Tipping Point 1080p AMZN WEB-DL H265-d3g.mkv
http://54.37.91.120:49156/hunteralogist/Packed To The Rafters S01-S06 amzn web hevc-d3g/S04/Packed To The Rafters_S04E14_Trust Issues 1080p AMZN WEB-DL H265-d3g.mkv
http://54.37.91.120:49156/hunteralogist/Packed To The Rafters S01-S06 amzn web hevc-d3g/S04/Packed To The Rafters_S04E15_Risky Business 1080p AMZN WEB-DL H265-d3g.mkv
http://54.37.91.120:49156/hunteralogist/Packed To The Rafters S01-S06 amzn web hevc-d3g/S04/Packed To The Rafters_S04E16_Second Chance 1080p AMZN WEB-DL H265-d3g.mkv
http://54.37.91.120:49156/hunteralogist/Packed To The Rafters S01-S06 amzn web hevc-d3g/S04/Packed To The Rafters_S04E17_Small World 1080p AMZN WEB-DL H265-d3g.mkv
http://54.37.91.120:49156/hunteralogist/Packed To The Rafters S01-S06 amzn web hevc-d3g/S04/Packed To The Rafters_S04E18_Sign of the Times 1080p AMZN WEB-DL H265-d3g.mkv
http://54.37.91.120:49156/hunteralogist/Packed To The Rafters S01-S06 amzn web hevc-d3g/S04/Packed To The Rafters_S04E19_Leap of Faith 1080p AMZN WEB-DL H265-d3g.mkv
http://54.37.91.120:49156/hunteralogist/Packed To The Rafters S01-S06 amzn web hevc-d3g/S04/Packed To The Rafters_S04E20_Butterfly's Wings 1080p AMZN WEB-DL H265-d3g.mkv
http://54.37.91.120:49156/hunteralogist/Packed To The Rafters S01-S06 amzn web hevc-d3g/S04/Packed To The Rafters_S04E21_Sleepwalking 1080p AMZN WEB-DL H265-d3g.mkv
http://54.37.91.120:49156/hunteralogist/Packed To The Rafters S01-S06 amzn web hevc-d3g/S04/Packed To The Rafters_S04E22_Endings and Beginnings 1080p AMZN WEB-DL H265-d3g.mkv
http://54.37.91.120:49156/hunteralogist/Packed To The Rafters S01-S06 amzn web hevc-d3g/S05/Packed To The Rafters_S05E01_Answering the Call 1080p AMZN WEB-DL H265-d3g.mkv
http://54.37.91.120:49156/hunteralogist/Packed To The Rafters S01-S06 amzn web hevc-d3g/S05/Packed To The Rafters_S05E02_Great Expectations 1080p AMZN WEB-DL H265-d3g.mkv
http://54.37.91.120:49156/hunteralogist/Packed To The Rafters S01-S06 amzn web hevc-d3g/S05/Packed To The Rafters_S05E03_The Power of Words 1080p AMZN WEB-DL H265-d3g.mkv
http://54.37.91.120:49156/hunteralogist/Packed To The Rafters S01-S06 amzn web hevc-d3g/S05/Packed To The Rafters_S05E04_The Things We Do For Love 1080p AMZN WEB-DL H265-d3g.mkv
http://54.37.91.120:49156/hunteralogist/Packed To The Rafters S01-S06 amzn web hevc-d3g/S05/Packed To The Rafters_S05E05_Judgement Day 1080p AMZN WEB-DL H265-d3g.mkv
http://54.37.91.120:49156/hunteralogist/Packed To The Rafters S01-S06 amzn web hevc-d3g/S05/Packed To The Rafters_S05E06_Secret Fears 1080p AMZN WEB-DL H265-d3g.mkv
http://54.37.91.120:49156/hunteralogist/Packed To The Rafters S01-S06 amzn web hevc-d3g/S05/Packed To The Rafters_S05E07_The Great Escape 1080p AMZN WEB-DL H265-d3g.mkv
http://54.37.91.120:49156/hunteralogist/Packed To The Rafters S01-S06 amzn web hevc-d3g/S05/Packed To The Rafters_S05E08_Unwritten Rules 1080p AMZN WEB-DL H265-d3g.mkv
http://54.37.91.120:49156/hunteralogist/Packed To The Rafters S01-S06 amzn web hevc-d3g/S05/Packed To The Rafters_S05E09_A Kiss Is Just A Kiss 1080p AMZN WEB-DL H265-d3g.mkv
http://54.37.91.120:49156/hunteralogist/Packed To The Rafters S01-S06 amzn web hevc-d3g/S05/Packed To The Rafters_S05E10_Letting Go 1080p AMZN WEB-DL H265-d3g.mkv
http://54.37.91.120:49156/hunteralogist/Packed To The Rafters S01-S06 amzn web hevc-d3g/S05/Packed To The Rafters_S05E11_The Right Time 1080p AMZN WEB-DL H265-d3g.mkv
http://54.37.91.120:49156/hunteralogist/Packed To The Rafters S01-S06 amzn web hevc-d3g/S05/Packed To The Rafters_S05E12_Life's Surprises 1080p AMZN WEB-DL H265-d3g.mkv
http://54.37.91.120:49156/hunteralogist/Packed To The Rafters S01-S06 amzn web hevc-d3g/S05/Packed To The Rafters_S05E13_Filling the Void 1080p AMZN WEB-DL H265-d3g.mkv
http://54.37.91.120:49156/hunteralogist/Packed To The Rafters S01-S06 amzn web hevc-d3g/S05/Packed To The Rafters_S05E14_Bad Habits 1080p AMZN WEB-DL H265-d3g.mkv
http://54.37.91.120:49156/hunteralogist/Packed To The Rafters S01-S06 amzn web hevc-d3g/S05/Packed To The Rafters_S05E15_Moments Of Clarity 1080p AMZN WEB-DL H265-d3g.mkv
http://54.37.91.120:49156/hunteralogist/Packed To The Rafters S01-S06 amzn web hevc-d3g/S05/Packed To The Rafters_S05E16_Displacement 1080p AMZN WEB-DL H265-d3g.mkv
http://54.37.91.120:49156/hunteralogist/Packed To The Rafters S01-S06 amzn web hevc-d3g/S05/Packed To The Rafters_S05E17_Keeping Step 1080p AMZN WEB-DL H265-d3g.mkv
http://54.37.91.120:49156/hunteralogist/Packed To The Rafters S01-S06 amzn web hevc-d3g/S05/Packed To The Rafters_S05E18_That Heady Rush 1080p AMZN WEB-DL H265-d3g.mkv
http://54.37.91.120:49156/hunteralogist/Packed To The Rafters S01-S06 amzn web hevc-d3g/S05/Packed To The Rafters_S05E19_Got What It Takes 1080p AMZN WEB-DL H265-d3g.mkv
http://54.37.91.120:49156/hunteralogist/Packed To The Rafters S01-S06 amzn web hevc-d3g/S05/Packed To The Rafters_S05E20_Weathering the Storm 1080p AMZN WEB-DL H265-d3g.mkv
http://54.37.91.120:49156/hunteralogist/Packed To The Rafters S01-S06 amzn web hevc-d3g/S05/Packed To The Rafters_S05E21_Free to Choose 1080p AMZN WEB-DL H265-d3g.mkv
http://54.37.91.120:49156/hunteralogist/Packed To The Rafters S01-S06 amzn web hevc-d3g/S05/Packed To The Rafters_S05E22_Rewriting History 1080p AMZN WEB-DL H265-d3g.mkv
http://54.37.91.120:49156/hunteralogist/Packed To The Rafters S01-S06 amzn web hevc-d3g/S06/Packed To The Rafters_S06E01_High Hopes 1080p AMZN WEB-DL H265-d3g.mkv
http://54.37.91.120:49156/hunteralogist/Packed To The Rafters S01-S06 amzn web hevc-d3g/S06/Packed To The Rafters_S06E02_First Time for Everything 1080p AMZN WEB-DL H265-d3g.mkv
http://54.37.91.120:49156/hunteralogist/Packed To The Rafters S01-S06 amzn web hevc-d3g/S06/Packed To The Rafters_S06E03_Setting Limits 1080p AMZN WEB-DL H265-d3g.mkv
http://54.37.91.120:49156/hunteralogist/Packed To The Rafters S01-S06 amzn web hevc-d3g/S06/Packed To The Rafters_S06E04_Secret Women's Business 1080p AMZN WEB-DL H265-d3g.mkv
http://54.37.91.120:49156/hunteralogist/Packed To The Rafters S01-S06 amzn web hevc-d3g/S06/Packed To The Rafters_S06E05_Reality Checks 1080p AMZN WEB-DL H265-d3g.mkv
http://54.37.91.120:49156/hunteralogist/Packed To The Rafters S01-S06 amzn web hevc-d3g/S06/Packed To The Rafters_S06E06_Manning Up 1080p AMZN WEB-DL H265-d3g.mkv
http://54.37.91.120:49156/hunteralogist/Packed To The Rafters S01-S06 amzn web hevc-d3g/S06/Packed To The Rafters_S06E07_Taking Stock 1080p AMZN WEB-DL H265-d3g.mkv
http://54.37.91.120:49156/hunteralogist/Packed To The Rafters S01-S06 amzn web hevc-d3g/S06/Packed To The Rafters_S06E08_Damage Control 1080p AMZN WEB-DL H265-d3g.mkv
http://54.37.91.120:49156/hunteralogist/Packed To The Rafters S01-S06 amzn web hevc-d3g/S06/Packed To The Rafters_S06E09_Role Reversals 1080p AMZN WEB-DL H265-d3g.mkv
http://54.37.91.120:49156/hunteralogist/Packed To The Rafters S01-S06 amzn web hevc-d3g/S06/Packed To The Rafters_S06E10_Head vs Heart 1080p AMZN WEB-DL H265-d3g.mkv
http://54.37.91.120:49156/hunteralogist/Packed To The Rafters S01-S06 amzn web hevc-d3g/S06/Packed To The Rafters_S06E11_Centre of the Universe 1080p AMZN WEB-DL H265-d3g.mkv
http://54.37.91.120:49156/hunteralogist/Packed To The Rafters S01-S06 amzn web hevc-d3g/S06/Packed To The Rafters_S06E12_Packing Up the Rafters 1080p AMZN WEB-DL H265-d3g.mkv
http://54.37.91.120:49156/hunteralogist/Peacemaker.2022.S01E01.1080p.HEVC.x265-MeGusta/Peacemaker.2022.S01E01.1080p.HEVC.x265-MeGusta.mkv
http://54.37.91.120:49156/hunteralogist/Peacemaker.2022.S01E02.1080p.HEVC.x265-MeGusta/Peacemaker.2022.S01E02.1080p.HEVC.x265-MeGusta.mkv
http://54.37.91.120:49156/hunteralogist/Peacemaker.2022.S01E03.1080p.HEVC.x265-MeGusta/Peacemaker.2022.S01E03.1080p.HEVC.x265-MeGusta.mkv
http://54.37.91.120:49156/hunteralogist/Peacemaker.2022.S01E04.1080p.HEVC.x265-MeGusta/Peacemaker.2022.S01E04.1080p.HEVC.x265-MeGusta.mkv
http://54.37.91.120:49156/hunteralogist/Peacemaker.2022.S01E05.1080p.HEVC.x265-MeGusta/Peacemaker.2022.S01E05.1080p.HEVC.x265-MeGusta.mkv
http://54.37.91.120:49156/hunteralogist/Peacemaker.2022.S01E06.1080p.HEVC.x265-MeGusta/Peacemaker.2022.S01E06.1080p.HEVC.x265-MeGusta.mkv
http://54.37.91.120:49156/hunteralogist/Peacemaker.2022.S01E07.720p.HEVC.x265-MeGusta/Peacemaker.2022.S01E07.720p.HEVC.x265-MeGusta.mkv
http://54.37.91.120:49156/hunteralogist/Peacemaker.2022.S01E08.1080p.HEVC.x265-MeGusta/Peacemaker.2022.S01E08.1080p.HEVC.x265-MeGusta.mkv
http://54.37.91.120:49156/hunteralogist/The.Book.of.Boba.Fett.S01E01.1080p.HEVC.x265-MeGusta/The.Book.of.Boba.Fett.S01E01.1080p.HEVC.x265-MeGusta.mkv
http://54.37.91.120:49156/hunteralogist/The.Book.of.Boba.Fett.S01E02.1080p.HEVC.x265-MeGusta/The.Book.of.Boba.Fett.S01E02.1080p.HEVC.x265-MeGusta.mkv
http://54.37.91.120:49156/hunteralogist/The.Book.of.Boba.Fett.S01E03.1080p.HEVC.x265-MeGusta/The.Book.of.Boba.Fett.S01E03.1080p.HEVC.x265-MeGusta.mkv
http://54.37.91.120:49156/hunteralogist/The.Book.of.Boba.Fett.S01E04.1080p.HEVC.x265-MeGusta/The.Book.of.Boba.Fett.S01E04.1080p.HEVC.x265-MeGusta.mkv
http://54.37.91.120:49156/hunteralogist/The.Book.of.Boba.Fett.S01E05.1080p.HEVC.x265-MeGusta/The.Book.of.Boba.Fett.S01E05.1080p.HEVC.x265-MeGusta.mkv
http://54.37.91.120:49156/hunteralogist/The.Book.of.Boba.Fett.S01E06.1080p.HEVC.x265-MeGusta/The.Book.of.Boba.Fett.S01E06.1080p.HEVC.x265-MeGusta.mkv
http://54.37.91.120:49156/hunteralogist/The.Book.of.Boba.Fett.S01E07.1080p.HEVC.x265-MeGusta/The.Book.of.Boba.Fett.S01E07.1080p.HEVC.x265-MeGusta.mkv
http://54.37.91.120:49156/hunteralogist/Top.Gun.Maverick.2022.1080p.WEB-DL.AAC5.1.H.264-EVO.mkv
http://54.37.91.120:49156/md/Ambulance.2022.2022.1080p.WEB-DL.DDP5.1.Atmos.H.264-EVO/Ambulance.2022.2022.1080p.WEB-DL.DDP5.1.Atmos.H.264-EVO.mkv
http://54.37.91.120:49156/md/Barbarian.2022.1080p.WEB-DL.DD5.1.H.264-EVO/Barbarian.2022.1080p.WEB-DL.DD5.1.H.264-EVO.mkv
http://54.37.91.120:49156/md/Belle.2021.1080p.Japanese.BluRay.HEVC.x265.5.1.BONE/Belle 2021 1080p Japanese BluRay HEVC x265 5.1 BONE.mkv
http://54.37.91.120:49156/md/Better.Call.Saul.S06.1080p.AMZN.WEB-DL.DDP5.1.H.264-NTb/Better.Call.Saul.S06E01.Wine.And.Roses.1080p.REPACK.AMZN.WEB-DL.DDP5.1.H.264-NTb.mkv
http://54.37.91.120:49156/md/Better.Call.Saul.S06.1080p.AMZN.WEB-DL.DDP5.1.H.264-NTb/Better.Call.Saul.S06E02.Carrot.And.Stick.1080p.REPACK.AMZN.WEB-DL.DDP5.1.H.264-NTb.mkv
http://54.37.91.120:49156/md/Better.Call.Saul.S06.1080p.AMZN.WEB-DL.DDP5.1.H.264-NTb/Better.Call.Saul.S06E03.Rock.And.Hard.Place.1080p.AMZN.WEB-DL.DDP5.1.H.264-NTb.mkv
http://54.37.91.120:49156/md/Better.Call.Saul.S06.1080p.AMZN.WEB-DL.DDP5.1.H.264-NTb/Better.Call.Saul.S06E04.Hit.And.Run.1080p.AMZN.WEB-DL.DDP5.1.H.264-NTb.mkv
http://54.37.91.120:49156/md/Better.Call.Saul.S06.1080p.AMZN.WEB-DL.DDP5.1.H.264-NTb/Better.Call.Saul.S06E05.Black.And.Blue.1080p.AMZN.WEB-DL.DDP5.1.H.264-NTb.mkv
http://54.37.91.120:49156/md/Better.Call.Saul.S06.1080p.AMZN.WEB-DL.DDP5.1.H.264-NTb/Better.Call.Saul.S06E06.Axe.and.Grind.1080p.AMZN.WEB-DL.DDP5.1.H.264-NTb.mkv
http://54.37.91.120:49156/md/Better.Call.Saul.S06.1080p.AMZN.WEB-DL.DDP5.1.H.264-NTb/Better.Call.Saul.S06E07.Plan.and.Execution.1080p.AMZN.WEB-DL.DDP5.1.H.264-NTb.mkv
http://54.37.91.120:49156/md/Better.Call.Saul.S06.1080p.AMZN.WEB-DL.DDP5.1.H.264-NTb/Better.Call.Saul.S06E08.Point.And.Shoot.1080p.AMZN.WEB-DL.DDP5.1.H.264-NTb.mkv
http://54.37.91.120:49156/md/Better.Call.Saul.S06.1080p.AMZN.WEB-DL.DDP5.1.H.264-NTb/Better.Call.Saul.S06E09.Fun.And.Games.1080p.AMZN.WEB-DL.DDP5.1.H.264-NTb.mkv
http://54.37.91.120:49156/md/Better.Call.Saul.S06.1080p.AMZN.WEB-DL.DDP5.1.H.264-NTb/Better.Call.Saul.S06E10.Nippy.1080p.AMZN.WEB-DL.DDP5.1.H.264-NTb.mkv
http://54.37.91.120:49156/md/Better.Call.Saul.S06.1080p.AMZN.WEB-DL.DDP5.1.H.264-NTb/Better.Call.Saul.S06E11.Breaking.Bad.1080p.AMZN.WEB-DL.DDP5.1.H.264-NTb.mkv
http://54.37.91.120:49156/md/Better.Call.Saul.S06.1080p.AMZN.WEB-DL.DDP5.1.H.264-NTb/Better.Call.Saul.S06E12.Waterworks.1080p.AMZN.WEB-DL.DDP5.1.H.264-NTb.mkv
http://54.37.91.120:49156/md/Better.Call.Saul.S06.1080p.AMZN.WEB-DL.DDP5.1.H.264-NTb/Better.Call.Saul.S06E13.Saul.Gone.1080p.AMZN.WEB-DL.DDP5.1.H.264-NTb.mkv
http://54.37.91.120:49156/md/Better.Call.Saul.S06.SPECIAL.American.Greed.James.McGill.1080p.AMZN.WEB-DL.DDP2.0.H.264-SKiZOiD.mkv
http://54.37.91.120:49156/md/Bodies.Bodies.Bodies.2022.1080p.WEB-DL.x264.DD5.1-EVO/Bodies.Bodies.Bodies.2022.1080p.WEB-DL.x264.DD5.1-EVO.mkv
http://54.37.91.120:49156/md/Bodies.Bodies.Bodies.2022.1080p.WEB-DL.x264.DD5.1-EVO/sample.mkv
http://54.37.91.120:49156/md/Bullet.Train.2022.1080p.WEBRip.DD5.1.x264-EVO/Bullet.Train.2022.1080p.WEBRip.DD5.1.x264-EVO.mkv
http://54.37.91.120:49156/md/Doctor.Strange.in.the.Multiverse.of.Madness.2022.1080p.WEBRip.DD5.1.x264-EVO/Doctor.Strange.in.the.Multiverse.of.Madness.2022.1080p.WEBRip.DD5.1.x264-EVO.mkv
http://54.37.91.120:49156/md/Everything.Everywhere.All.At.Once.2022.1080p.WEBRip.DD5.1.X.264-EVO/Everything.Everywhere.All.At.Once.2022.1080p.WEBRip.DD5.1.X.264-EVO.mkv
http://54.37.91.120:49156/md/Game.of.Thrones.Conquest.and.Rebellion.An.Animated.History.of.the.Seven.Kingdoms.2017.1080p.BluRay.x264-nikt0/Game.of.Thrones.Conquest.and.Rebellion.An.Animated.History.of.the.Seven.Kingdoms.2017.1080p.BluRay.x264-nikt0.mkv
http://54.37.91.120:49156/md/House.of.the.Dragon.S01E01.1080p.HMAX.WEB-DL.DDP5.1.Atmos.x264-CMRG/House.of.the.Dragon.S01E01.1080p.HMAX.WEB-DL.DDP5.1.Atmos.x264-CMRG.mkv
http://54.37.91.120:49156/md/House.of.the.Dragon.S01E02.1080p.WEB.H264-CAKES/house.of.the.dragon.s01e02.1080p.web.h264-cakes.mkv
http://54.37.91.120:49156/md/House.of.the.Dragon.S01E02.1080p.WEB.H264-CAKES/Sample/house.of.the.dragon.s01e02.1080p.web.h264-cakes-sample.mkv
http://54.37.91.120:49156/md/House.of.the.Dragon.S01E03.1080p.HMAX.WEB-DL.DDP5.1.Atmos.x264-EVO/House.of.the.Dragon.S01E03.1080p.HMAX.WEB-DL.DDP5.1.Atmos.x264-EVO.mkv
http://54.37.91.120:49156/md/House.of.the.Dragon.S01E04.1080p.HMAX.WEB-DL.DDP5.1.Atmos.x264-EVO/House.of.the.Dragon.S01E04.1080p.HMAX.WEB-DL.DDP5.1.Atmos.x264-EVO.mkv
http://54.37.91.120:49156/md/House.of.the.Dragon.S01E05.1080p.HMAX.WEB-DL.DDP5.1.Atmos.x264-EVO/House.of.the.Dragon.S01E05.1080p.HMAX.WEB-DL.DDP5.1.Atmos.x264-EVO.mkv
http://54.37.91.120:49156/md/House.of.the.Dragon.S01E06.1080p.HMAX.WEB-DL.DDP5.1.Atmos.x264-EVO/House.of.the.Dragon.S01E06.1080p.HMAX.WEB-DL.DDP5.1.Atmos.x264-EVO.mkv
http://54.37.91.120:49156/md/House.of.the.Dragon.S01E07.1080p.HMAX.WEB-DL.DDP5.1.Atmos.x264-EVO/House.of.the.Dragon.S01E07.1080p.HMAX.WEB-DL.DDP5.1.Atmos.x264-EVO.mkv
http://54.37.91.120:49156/md/House.of.the.Dragon.S01E08.1080p.HMAX.WEB-DL.DDP5.1.Atmos.x264-CMRG/House.of.the.Dragon.S01E08.1080p.HMAX.WEB-DL.DDP5.1.Atmos.x264-CMRG.mkv
http://54.37.91.120:49156/md/House.of.the.Dragon.S01E09.1080p.HMAX.WEB-DL.DDP5.1.Atmos.x264-CMRG/House.of.the.Dragon.S01E09.1080p.HMAX.WEB-DL.DDP5.1.Atmos.x264-CMRG.mkv
http://54.37.91.120:49156/md/Men.2022.WEB-DL.1080p.DDP5.1.H264-EVO/Men.2022.WEB-DL.1080p.DDP5.1.H264-EVO.mkv
http://54.37.91.120:49156/md/Minions.2015.1080p.BluRay.x264-GECKOS/Minions.2015.1080p.BluRay.x264-GECKOS.mkv
http://54.37.91.120:49156/md/Minions.2015.1080p.BluRay.x264-GECKOS/Sample/minions.2015.1080p.bluray.x264-geckos.sample.mkv
http://54.37.91.120:49156/md/Minions.The.Rise.of.Gru.2022.1080p.BRRip.DD5.1.X.264-EVO/Minions.The.Rise.of.Gru.2022.1080p.BRRip.DD5.1.X.264-EVO.mkv
http://54.37.91.120:49156/md/Oh.God.1977.1080p.BluRay.REMUX.AVC.FLAC.2.0-TRiToN.mkv
http://54.37.91.120:49156/md/Open.Grave.2013.1080p.BluRay.x264.DTS-FGT/Open.Grave.2013.1080p.BluRay.x264.DTS-FGT.mkv
http://54.37.91.120:49156/md/Ozark.S04.1080p.NF.WEB-DL.DDP5.1.x264-SMURF/Ozark.S04E01.The.Beginning.of.the.End.1080p.NF.WEB-DL.DDP5.1.x264-SMURF.mkv
http://54.37.91.120:49156/md/Ozark.S04.1080p.NF.WEB-DL.DDP5.1.x264-SMURF/Ozark.S04E02.Let.The.Great.World.Spin.1080p.NF.WEB-DL.DDP5.1.x264-SMURF.mkv
http://54.37.91.120:49156/md/Ozark.S04.1080p.NF.WEB-DL.DDP5.1.x264-SMURF/Ozark.S04E03.City.On.The.Make.1080p.NF.WEB-DL.DDP5.1.x264-SMURF.mkv
http://54.37.91.120:49156/md/Ozark.S04.1080p.NF.WEB-DL.DDP5.1.x264-SMURF/Ozark.S04E04.Ace.Deuce.1080p.NF.WEB-DL.DDP5.1.x264-SMURF.mkv
http://54.37.91.120:49156/md/Ozark.S04.1080p.NF.WEB-DL.DDP5.1.x264-SMURF/Ozark.S04E05.Ellie.1080p.NF.WEB-DL.DDP5.1.x264-SMURF.mkv
http://54.37.91.120:49156/md/Ozark.S04.1080p.NF.WEB-DL.DDP5.1.x264-SMURF/Ozark.S04E06.Sangre.Sobre.Todo.1080p.NF.WEB-DL.DDP5.1.x264-SMURF.mkv
http://54.37.91.120:49156/md/Ozark.S04.1080p.NF.WEB-DL.DDP5.1.x264-SMURF/Ozark.S04E07.Sanctified.1080p.NF.WEB-DL.DDP5.1.x264-SMURF.mkv
http://54.37.91.120:49156/md/Ozark.S04.1080p.NF.WEB-DL.DDP5.1.x264-SMURF/Ozark.S04E08.The.Cousin.of.Death.1080p.NF.WEB-DL.DDP5.1.x264-SMURF.mkv
http://54.37.91.120:49156/md/Ozark.S04.1080p.NF.WEB-DL.DDP5.1.x264-SMURF/Ozark.S04E09.Pick.a.God.and.Pray.1080p.NF.WEB-DL.DDP5.1.x264-SMURF.mkv
http://54.37.91.120:49156/md/Ozark.S04.1080p.NF.WEB-DL.DDP5.1.x264-SMURF/Ozark.S04E10.Youre.the.Boss.1080p.NF.WEB-DL.DDP5.1.x264-SMURF.mkv
http://54.37.91.120:49156/md/Ozark.S04.1080p.NF.WEB-DL.DDP5.1.x264-SMURF/Ozark.S04E11.Pound.of.Flesh.and.Still.Kickin.1080p.NF.WEB-DL.DDP5.1.x264-SMURF.mkv
http://54.37.91.120:49156/md/Ozark.S04.1080p.NF.WEB-DL.DDP5.1.x264-SMURF/Ozark.S04E12.Trouble.The.Water.1080p.NF.WEB-DL.DDP5.1.x264-SMURF.mkv
http://54.37.91.120:49156/md/Ozark.S04.1080p.NF.WEB-DL.DDP5.1.x264-SMURF/Ozark.S04E13.Mud.1080p.NF.WEB-DL.DDP5.1.x264-SMURF.mkv
http://54.37.91.120:49156/md/Ozark.S04.1080p.NF.WEB-DL.DDP5.1.x264-SMURF/Ozark.S04E14.A.Hard.Way.to.Go.1080p.NF.WEB-DL.DDP5.1.x264-SMURF.mkv
http://54.37.91.120:49156/md/Pearl.2022.1080p.WEB-DL.DD2.0.x264-EVO/Pearl.2022.1080p.WEB-DL.DD2.0.x264-EVO.mkv
http://54.37.91.120:49156/md/Rick and Morty (2013) S06E01 Bethic Twinstinct (1080p HMAX Webrip x265 10bit AC3 5.1 - Goki)[TAoE].mkv
http://54.37.91.120:49156/md/Rick.and.Morty.S05.1080p.AMZN.WEB-DL.DDP5.1.H.264-FLUX/Rick.and.Morty.S05E01.Mort.Dinner.Rick.Andre.1080p.AMZN.WEB-DL.DDP5.1.H.264-FLUX.mkv
http://54.37.91.120:49156/md/Rick.and.Morty.S05.1080p.AMZN.WEB-DL.DDP5.1.H.264-FLUX/Rick.and.Morty.S05E02.Mortyplicity.1080p.AMZN.WEB-DL.DDP5.1.H.264-FLUX.mkv
http://54.37.91.120:49156/md/Rick.and.Morty.S05.1080p.AMZN.WEB-DL.DDP5.1.H.264-FLUX/Rick.and.Morty.S05E03.A.Rickconvenient.Mort.1080p.AMZN.WEB-DL.DDP5.1.H.264-FLUX.mkv
http://54.37.91.120:49156/md/Rick.and.Morty.S05.1080p.AMZN.WEB-DL.DDP5.1.H.264-FLUX/Rick.and.Morty.S05E04.Rickdependence.Spray.1080p.AMZN.WEB-DL.DDP5.1.H.264-FLUX.mkv
http://54.37.91.120:49156/md/Rick.and.Morty.S05.1080p.AMZN.WEB-DL.DDP5.1.H.264-FLUX/Rick.and.Morty.S05E05.Amortycan.Grickfitti.1080p.AMZN.WEB-DL.DDP5.1.H.264-FLUX.mkv
http://54.37.91.120:49156/md/Rick.and.Morty.S05.1080p.AMZN.WEB-DL.DDP5.1.H.264-FLUX/Rick.and.Morty.S05E06.Rick.and.Mortys.Thanksploitation.Spectacular.1080p.AMZN.WEB-DL.DDP5.1.H.264-FLUX.mkv
http://54.37.91.120:49156/md/Rick.and.Morty.S05.1080p.AMZN.WEB-DL.DDP5.1.H.264-FLUX/Rick.and.Morty.S05E07.Gotron.Jerrysis.Rickvangelion.1080p.AMZN.WEB-DL.DDP5.1.H.264-FLUX.mkv
http://54.37.91.120:49156/md/Rick.and.Morty.S05.1080p.AMZN.WEB-DL.DDP5.1.H.264-FLUX/Rick.and.Morty.S05E08.Rickternal.Friendshine.of.the.Spotless.Mort.1080p.AMZN.WEB-DL.DDP5.1.H.264-FLUX.mkv
http://54.37.91.120:49156/md/Rick.and.Morty.S05.1080p.AMZN.WEB-DL.DDP5.1.H.264-FLUX/Rick.and.Morty.S05E09.Forgetting.Sarick.Mortshall.1080p.AMZN.WEB-DL.DDP5.1.H.264-FLUX.mkv
http://54.37.91.120:49156/md/Rick.and.Morty.S05.1080p.AMZN.WEB-DL.DDP5.1.H.264-FLUX/Rick.and.Morty.S05E10.Rickmurai.Jack.1080p.AMZN.WEB-DL.DDP5.1.H.264-FLUX.mkv
http://54.37.91.120:49156/md/Rick.and.Morty.S06E00.Summers.Sleepover.1080p.WEBRip.x264-BAE/Rick.and.Morty.S06E00.Summers.Sleepover.1080p.WEBRip.x264-BAE.mkv
http://54.37.91.120:49156/md/Rick.and.Morty.S06E00.Summers.Sleepover.1080p.WEBRip.x264-BAE/Sample/sample-rick.and.morty.s06e00.summers.sleepover.1080p.webrip.x264-bae.mkv
http://54.37.91.120:49156/md/Rick.and.Morty.S06E02.REPACK.1080p.x265-ELiTE/Rick.and.Morty.S06E02.REPACK.1080p.x265-ELiTE.mkv
http://54.37.91.120:49156/md/Rick.and.Morty.S06E03.1080p.x265-ELiTE/Rick.and.Morty.S06E03.1080p.x265-ELiTE.mkv
http://54.37.91.120:49156/md/Rick.and.Morty.S06E04.1080p.WEBRip.x264-BAE/Rick.and.Morty.S06E04.1080p.WEBRip.x264-BAE.mkv
http://54.37.91.120:49156/md/Rick.and.Morty.S06E04.1080p.WEBRip.x264-BAE/Sample/sample-rick.and.morty.s06e04.1080p.webrip.x264-bae.mkv
http://54.37.91.120:49156/md/Rick.and.Morty.S06E05.1080p.WEB.H264-GLHF/rick.and.morty.s06e05.1080p.web.h264-glhf.mkv
http://54.37.91.120:49156/md/Rick.and.Morty.S06E05.1080p.WEB.H264-GLHF/Sample/rick.and.morty.s06e05.1080p.web.h264-glhf-sample.mkv
http://54.37.91.120:49156/md/Rick.and.Morty.S06E06.1080p.x265-ELiTE/Rick.and.Morty.S06E06.1080p.x265-ELiTE.mkv
http://54.37.91.120:49156/md/Severance.S01.1080p.ATVP.WEB-DL.DDP5.1.Atmos.H.264-TEPES/Severance.S01E01.Good.News.About.Hell.REPACK.1080p.ATVP.WEB-DL.DDP5.1.Atmos.H.264-TEPES.mkv
http://54.37.91.120:49156/md/Severance.S01.1080p.ATVP.WEB-DL.DDP5.1.Atmos.H.264-TEPES/Severance.S01E02.Half.Loop.REPACK.1080p.ATVP.WEB-DL.DDP5.1.Atmos.H.264-TEPES.mkv
http://54.37.91.120:49156/md/Severance.S01.1080p.ATVP.WEB-DL.DDP5.1.Atmos.H.264-TEPES/Severance.S01E03.In.Perpetuity.REPACK.1080p.ATVP.WEB-DL.DDP5.1.Atmos.H.264-TEPES.mkv
http://54.37.91.120:49156/md/Severance.S01.1080p.ATVP.WEB-DL.DDP5.1.Atmos.H.264-TEPES/Severance.S01E04.The.You.You.Are.1080p.ATVP.WEB-DL.DDP5.1.Atmos.H.264-TEPES.mkv
http://54.37.91.120:49156/md/Severance.S01.1080p.ATVP.WEB-DL.DDP5.1.Atmos.H.264-TEPES/Severance.S01E05.The.Grim.Barbarity.Of.Optics.and.Design.1080p.ATVP.WEB-DL.DDP5.1.Atmos.H.264-TEPES.mkv
http://54.37.91.120:49156/md/Severance.S01.1080p.ATVP.WEB-DL.DDP5.1.Atmos.H.264-TEPES/Severance.S01E06.Hide.and.Seek.1080p.ATVP.WEB-DL.DDP5.1.Atmos.H.264-TEPES.mkv
http://54.37.91.120:49156/md/Severance.S01.1080p.ATVP.WEB-DL.DDP5.1.Atmos.H.264-TEPES/Severance.S01E07.Defiant.Jazz.REPACK.1080p.ATVP.WEB-DL.DDP5.1.Atmos.H.264-TEPES.mkv
http://54.37.91.120:49156/md/Severance.S01.1080p.ATVP.WEB-DL.DDP5.1.Atmos.H.264-TEPES/Severance.S01E08.Whats.for.Dinner.1080p.ATVP.WEB-DL.DDP5.1.Atmos.H.264-TEPES.mkv
http://54.37.91.120:49156/md/Severance.S01.1080p.ATVP.WEB-DL.DDP5.1.Atmos.H.264-TEPES/Severance.S01E09.The.We.We.Are.1080p.ATVP.WEB-DL.DDP5.1.Atmos.H.264-TEPES.mkv
http://54.37.91.120:49156/md/Smile.2022.BLUR.1080p.WEB-DL.H.264-PTNK/Smile.2022.BLUR.1080p.WEB-DL.H.264-PTNK.mkv
http://54.37.91.120:49156/md/Terrifier.2.2022.1080p.AMZN.WEB-DL.DDP2.0.H.264-EVO/Terrifier.2.2022.1080p.AMZN.WEB-DL.DDP2.0.H.264-EVO.mkv
http://54.37.91.120:49156/md/The.Batman.2022.1080p.HMAX.WEB-DL.DDP5.1.Atmos.x264-CMRG/The.Batman.2022.1080p.HMAX.WEB-DL.DDP5.1.Atmos.x264-CMRG.mkv
http://54.37.91.120:49156/md/The.Bold.Type.S05E01.1080p.WEB.H264-GLHF/Sample/the.bold.type.s05e01.1080p.web.h264-glhf-sample.mkv
http://54.37.91.120:49156/md/The.Bold.Type.S05E01.1080p.WEB.H264-GLHF/the.bold.type.s05e01.1080p.web.h264-glhf.mkv
http://54.37.91.120:49156/md/The.Bold.Type.S05E02.1080p.WEB.H264-CAKES/Sample/the.bold.type.s05e02.1080p.web.h264-cakes-sample.mkv
http://54.37.91.120:49156/md/The.Bold.Type.S05E02.1080p.WEB.H264-CAKES/the.bold.type.s05e02.1080p.web.h264-cakes.mkv
http://54.37.91.120:49156/md/The.Bold.Type.S05E03.720p.WEB.H264-CAKES/Sample/the.bold.type.s05e03.720p.web.h264-cakes-sample.mkv
http://54.37.91.120:49156/md/The.Bold.Type.S05E03.720p.WEB.H264-CAKES/the.bold.type.s05e03.720p.web.h264-cakes.mkv
http://54.37.91.120:49156/md/The.Bold.Type.S05E04.720p.WEB.H264-CAKES/Sample/the.bold.type.s05e04.720p.web.h264-cakes-sample.mkv
http://54.37.91.120:49156/md/The.Bold.Type.S05E04.720p.WEB.H264-CAKES/the.bold.type.s05e04.720p.web.h264-cakes.mkv
http://54.37.91.120:49156/md/The.Bold.Type.S05E05.720p.WEB.H264-CAKES/Sample/the.bold.type.s05e05.720p.web.h264-cakes-sample.mkv
http://54.37.91.120:49156/md/The.Bold.Type.S05E05.720p.WEB.H264-CAKES/the.bold.type.s05e05.720p.web.h264-cakes.mkv
http://54.37.91.120:49156/md/The.Bold.Type.S05E06.720p.WEB.H264-CAKES/Sample/the.bold.type.s05e06.720p.web.h264-cakes-sample.mkv
http://54.37.91.120:49156/md/The.Bold.Type.S05E06.720p.WEB.H264-CAKES/the.bold.type.s05e06.720p.web.h264-cakes.mkv
http://54.37.91.120:49156/md/The.Cellar.2022.1080p.AMZN.WEBRip.DD2.0.X.264-EVO/The.Cellar.2022.1080p.AMZN.WEBRip.DD2.0.X.264-EVO.mkv
http://54.37.91.120:49156/md/The.Patient.S01E01.1080p.WEB.H264-GLHF/Sample/the.patient.s01e01.1080p.web.h264-glhf-sample.mkv
http://54.37.91.120:49156/md/The.Patient.S01E01.1080p.WEB.H264-GLHF/the.patient.s01e01.1080p.web.h264-glhf.mkv
http://54.37.91.120:49156/md/Tokyo.Vice.S01.1080p.HMAX.WEB-DL.DD5.1.x264-NTb/Tokyo.Vice.S01E01.The.Test.1080p.HMAX.WEB-DL.DD5.1.x264-NTb.mkv
http://54.37.91.120:49156/md/Tokyo.Vice.S01.1080p.HMAX.WEB-DL.DD5.1.x264-NTb/Tokyo.Vice.S01E02.Kishi.Kaisei.1080p.HMAX.WEB-DL.DD5.1.x264-NTb.mkv
http://54.37.91.120:49156/md/Tokyo.Vice.S01.1080p.HMAX.WEB-DL.DD5.1.x264-NTb/Tokyo.Vice.S01E03.Read.the.Air.1080p.HMAX.WEB-DL.DD5.1.x264-NTb.mkv
http://54.37.91.120:49156/md/Tokyo.Vice.S01.1080p.HMAX.WEB-DL.DD5.1.x264-NTb/Tokyo.Vice.S01E04.I.Want.It.That.Way.1080p.HMAX.WEB-DL.DD5.1.x264-NTb.mkv
http://54.37.91.120:49156/md/Tokyo.Vice.S01.1080p.HMAX.WEB-DL.DD5.1.x264-NTb/Tokyo.Vice.S01E05.Everybody.Pays.1080p.HMAX.WEB-DL.DD5.1.x264-NTb.mkv
http://54.37.91.120:49156/md/Tokyo.Vice.S01.1080p.HMAX.WEB-DL.DD5.1.x264-NTb/Tokyo.Vice.S01E06.The.Information.Business.1080p.HMAX.WEB-DL.DD5.1.x264-NTb.mkv
http://54.37.91.120:49156/md/Tokyo.Vice.S01.1080p.HMAX.WEB-DL.DD5.1.x264-NTb/Tokyo.Vice.S01E07.Sometimes.They.Disappear.1080p.HMAX.WEB-DL.DD5.1.x264-NTb.mkv
http://54.37.91.120:49156/md/Tokyo.Vice.S01.1080p.HMAX.WEB-DL.DD5.1.x264-NTb/Tokyo.Vice.S01E08.Yoshino.1080p.HMAX.WEB-DL.DD5.1.x264-NTb.mkv
http://54.37.91.120:49156/md/Top.Gun.Maverick.2022.IMAX.1080p.WEBRip.DD5.1.X.264-EVO/Top.Gun.Maverick.2022.IMAX.1080p.WEBRip.DD5.1.X.264-EVO.mkv
http://54.37.91.120:49156/md/Uncharted.2022.1080p.WEB-DL.DDP5.1.H264-EVO/Uncharted.2022.1080p.WEB-DL.DDP5.1.H264-EVO.mkv
http://54.37.91.120:49156/md/Vivo 2021 1080p Blu-ray Remux AVC DTS-HD MA 5.1-HDT.mkv
http://54.37.91.120:49156/md/Werewolves.Within.2021.1080p.BRRip.DD5.1.X.264-EVO/Werewolves.Within.2021.1080p.BRRip.DD5.1.X.264-EVO.mkv
http://54.37.91.120:49156/md/Westworld.S04E01.1080p.WEB.H264-CAKES/Sample/westworld.s04e01.1080p.web.h264-cakes-sample.mkv
http://54.37.91.120:49156/md/Westworld.S04E01.1080p.WEB.H264-CAKES/westworld.s04e01.1080p.web.h264-cakes.mkv
http://54.37.91.120:49156/md/Westworld.S04E02.1080p.WEB.H264-CAKES/Sample/westworld.s04e02.1080p.web.h264-cakes-sample.mkv
http://54.37.91.120:49156/md/Westworld.S04E02.1080p.WEB.H264-CAKES/westworld.s04e02.1080p.web.h264-cakes.mkv
http://54.37.91.120:49156/md/Westworld.S04E03.1080p.WEB.H264-CAKES/Sample/westworld.s04e03.1080p.web.h264-cakes-sample.mkv
http://54.37.91.120:49156/md/Westworld.S04E03.1080p.WEB.H264-CAKES/westworld.s04e03.1080p.web.h264-cakes.mkv
http://54.37.91.120:49156/md/Westworld.S04E04.1080p.WEB.H264-CAKES/Sample/westworld.s04e04.1080p.web.h264-cakes-sample.mkv
http://54.37.91.120:49156/md/Westworld.S04E04.1080p.WEB.H264-CAKES/westworld.s04e04.1080p.web.h264-cakes.mkv
http://54.37.91.120:49156/md/Westworld.S04E05.1080p.WEB.H264-PECULATE/Sample/westworld.s04e05.1080p.web.h264-peculate-sample.mkv
http://54.37.91.120:49156/md/Westworld.S04E05.1080p.WEB.H264-PECULATE/Westworld.S04E05.1080p.WEB.H264-PECULATE.mkv
http://54.37.91.120:49156/md/Westworld.S04E06.1080p.WEB.h264-KOGi/Sample/westworld.s04e06.1080p.web.h264-kogi.sample.mkv
http://54.37.91.120:49156/md/Westworld.S04E06.1080p.WEB.h264-KOGi/Westworld.S04E06.1080p.WEB.h264-KOGi.mkv
http://54.37.91.120:49156/md/Westworld.S04E07.1080p.WEB.H264-CAKES/Sample/westworld.s04e07.1080p.web.h264-cakes-sample.mkv
http://54.37.91.120:49156/md/Westworld.S04E07.1080p.WEB.H264-CAKES/westworld.s04e07.1080p.web.h264-cakes.mkv
http://54.37.91.120:49156/South.Park.The.Streaming.Wars.2022.1080p.AMZN.WEB-DL.DDP5.1.H.264-EVO/South.Park.The.Streaming.Wars.2022.1080p.AMZN.WEB-DL.DDP5.1.H.264-EVO.mkv
