http://97.81.199.98:8800/Movies/2 22 (2017).avi
http://97.81.199.98:8800/Movies/12 Strong (2018).avi
http://97.81.199.98:8800/Movies/12 Years a Slave.mp4
http://97.81.199.98:8800/Movies/47 ronin.mp4
http://97.81.199.98:8800/Movies/300-Rise of an Empire.mp4
http://97.81.199.98:8800/Movies/1517 to Paris (2018).avi
http://97.81.199.98:8800/Movies/1917 (2019).mp4
http://97.81.199.98:8800/Movies/A Beautiful Day In The Neighborhood (2019).mp4
http://97.81.199.98:8800/Movies/A Cure for Wellness (2016).mp4
http://97.81.199.98:8800/Movies/A Dog's Journey (2019).mp4
http://97.81.199.98:8800/Movies/A Dog's Purpose (2017).mp4
http://97.81.199.98:8800/Movies/A Ghost Story (2017).mp4
http://97.81.199.98:8800/Movies/A Monster Calls (2016).mkv
http://97.81.199.98:8800/Movies/A Quite Place (2018).avi
http://97.81.199.98:8800/Movies/A Simple Favor (2018).mp4
http://97.81.199.98:8800/Movies/A Star Is Born (2018).avi
http://97.81.199.98:8800/Movies/A Street Cat Named Bob.mp4
http://97.81.199.98:8800/Movies/A Wrinkle In Time (2018).avi
http://97.81.199.98:8800/Movies/Abominable (2019).mp4
http://97.81.199.98:8800/Movies/Abraham Lincoln Vampire Hunter (2012).mp4
http://97.81.199.98:8800/Movies/Ad Astra (2019).mp4
http://97.81.199.98:8800/Movies/Adrift (2018).mp4
http://97.81.199.98:8800/Movies/Aftermath.mp4
http://97.81.199.98:8800/Movies/Aladdin (2019).mp4
http://97.81.199.98:8800/Movies/Alien/Alien #7 Prometheus.mp4
http://97.81.199.98:8800/Movies/Alien/Alien #8 Covenant (2017).mp4
http://97.81.199.98:8800/Movies/Alita Battle Angel (2019).mp4
http://97.81.199.98:8800/Movies/All The Money In The World (2017).mkv
http://97.81.199.98:8800/Movies/Annabelle Creation (2017).mp4
http://97.81.199.98:8800/Movies/Annie (2014).avi
http://97.81.199.98:8800/Movies/Annihilation (2018).avi
http://97.81.199.98:8800/Movies/Ant Man/Ant Man And The Wasp (2018).mp4
http://97.81.199.98:8800/Movies/Ant Man/Ant Man.mp4
http://97.81.199.98:8800/Movies/Antarctica A Year on Ice (2013).mp4
http://97.81.199.98:8800/Movies/Approaching The Unknown.mp4
http://97.81.199.98:8800/Movies/Aquaman (2018).avi
http://97.81.199.98:8800/Movies/Arctic Dogs (2019).mp4
http://97.81.199.98:8800/Movies/Arrival (2016).mkv
http://97.81.199.98:8800/Movies/Assassin's Creed (2016).mp4
http://97.81.199.98:8800/Movies/Avatar (1).mp4
http://97.81.199.98:8800/Movies/Avengers/Avengers Endgame (2019).mp4
http://97.81.199.98:8800/Movies/Avengers/Avengers Infinity War (2018).avi
http://97.81.199.98:8800/Movies/Baby Driver (2017).avi
http://97.81.199.98:8800/Movies/Back the Beach (1987).mp4
http://97.81.199.98:8800/Movies/Back to the Future/Back to the Future (1985).mp4
http://97.81.199.98:8800/Movies/Back to the Future/Back to the Future II (1989).mp4
http://97.81.199.98:8800/Movies/Back to the Future/Back to the Future III (1990).mp4
http://97.81.199.98:8800/Movies/Bad Boys For Life (2020).mp4
http://97.81.199.98:8800/Movies/Baseball Movies/A League Of Their Own (1992).mp4
http://97.81.199.98:8800/Movies/Baseball Movies/Angels In The Outfield (1994).avi
http://97.81.199.98:8800/Movies/Baseball Movies/Field of Dreams (1989).mp4
http://97.81.199.98:8800/Movies/Baseball Movies/The Natural (1984).avi
http://97.81.199.98:8800/Movies/Baseball Movies/The Sandlot (1993).mp4
http://97.81.199.98:8800/Movies/Batman v Superman Dawn of Justice Extended Edition (2016).mp4
http://97.81.199.98:8800/Movies/Beauty and the Beast (2017).mp4
http://97.81.199.98:8800/Movies/Before I Wake.mp4
http://97.81.199.98:8800/Movies/Ben Hur.mp4
http://97.81.199.98:8800/Movies/Big Hero 6.mp4
http://97.81.199.98:8800/Movies/Birth of the Dragon (2017).avi
http://97.81.199.98:8800/Movies/Black Mass.mp4
http://97.81.199.98:8800/Movies/Black Panther (2018).avi
http://97.81.199.98:8800/Movies/Blackthorn.mp4
http://97.81.199.98:8800/Movies/Blade Runner 2049 (2018).avi
http://97.81.199.98:8800/Movies/Blade Runner (1982).mp4
http://97.81.199.98:8800/Movies/Bloodshot.2020.720p.BluRay.x264.AAC-[YTS.MX].mp4
http://97.81.199.98:8800/Movies/Bohemian Rhapsody (2018).mp4
http://97.81.199.98:8800/Movies/Bombshell (2019).mp4
http://97.81.199.98:8800/Movies/Born in China (2016).mp4
http://97.81.199.98:8800/Movies/Boyhood.mp4
http://97.81.199.98:8800/Movies/Breakfast at Tiffany's (1961).avi
http://97.81.199.98:8800/Movies/Bridge of Spies.mp4
http://97.81.199.98:8800/Movies/Bright (2017).mp4
http://97.81.199.98:8800/Movies/Captain America Civil War.mp4
http://97.81.199.98:8800/Movies/Captain Marvel (2019).mp4
http://97.81.199.98:8800/Movies/Captain Underpants (2017).mp4
http://97.81.199.98:8800/Movies/Cars 3 (2017).mp4
http://97.81.199.98:8800/Movies/Cats.2019.720p.BluRay.x264.AAC-[YTS.MX].mp4
http://97.81.199.98:8800/Movies/Central Intelligence.mp4
http://97.81.199.98:8800/Movies/Chariots.Of.Fire.1981.1080p.BluRay.x265-RARBG.mp4
http://97.81.199.98:8800/Movies/Chef.mp4
http://97.81.199.98:8800/Movies/Chicken Run (2000).avi
http://97.81.199.98:8800/Movies/Christopher Robin (2018).mp4
http://97.81.199.98:8800/Movies/Cincinnati Kid.mp4
http://97.81.199.98:8800/Movies/Clash of the Titans.mp4
http://97.81.199.98:8800/Movies/Coco (2017).avi
http://97.81.199.98:8800/Movies/Cold Pursuit (2019).avi
http://97.81.199.98:8800/Movies/Concussion.mp4
http://97.81.199.98:8800/Movies/Cool Runnings (1993).avi
http://97.81.199.98:8800/Movies/Crazy Rich Asians (2018).mp4
http://97.81.199.98:8800/Movies/Creature From The Black Lagoon (1954).mp4
http://97.81.199.98:8800/Movies/Creed.mp4
http://97.81.199.98:8800/Movies/Criminal.mp4
http://97.81.199.98:8800/Movies/Dallas Buyers Club.mp4
http://97.81.199.98:8800/Movies/Dark City.mkv
http://97.81.199.98:8800/Movies/Dark Skies.mp4
http://97.81.199.98:8800/Movies/Dark Waters (2019).mp4
http://97.81.199.98:8800/Movies/Darkest Hour (2017).avi
http://97.81.199.98:8800/Movies/Daughter.Of.The.Wolf.2019.720p.BluRay.x264.AAC-[YTS.MX].mp4
http://97.81.199.98:8800/Movies/Death Wish (2018).avi
http://97.81.199.98:8800/Movies/Deepwater Horizon (2016).mkv
http://97.81.199.98:8800/Movies/Despicable Me/Despicable Me #2 (2013).mp4
http://97.81.199.98:8800/Movies/Despicable Me/Despicable Me #3 (2017).mp4
http://97.81.199.98:8800/Movies/Despicable Me/Minions.2015.720p.BluRay.x264.YIFY.[YTS.AG].mp4
http://97.81.199.98:8800/Movies/Diary of a Wimpy Kid (2010).mp4
http://97.81.199.98:8800/Movies/Diary of a Wimpy Kid The Long Haul (2017).mp4
http://97.81.199.98:8800/Movies/Divergent/Divergent Series #2-Insurgent.mp4
http://97.81.199.98:8800/Movies/Divergent/Divergent Series #3-Allegiant.mp4
http://97.81.199.98:8800/Movies/Divergent/Divergent.mp4
http://97.81.199.98:8800/Movies/Django Unchained.mp4
http://97.81.199.98:8800/Movies/Doctor Dolittle (1998).mp4
http://97.81.199.98:8800/Movies/Doctor Sleep (2019).mp4
http://97.81.199.98:8800/Movies/Doctor Strange.mp4
http://97.81.199.98:8800/Movies/Dolittle.2020.720p.BluRay.x264.AAC-[YTS.MX].mp4
http://97.81.199.98:8800/Movies/Dolphin.Reef.2020.720p.BluRay.x264.AAC-[YTS.MX].mp4
http://97.81.199.98:8800/Movies/Dora and the Lost City of Gold (2019).mp4
http://97.81.199.98:8800/Movies/Downsizing (2018).avi
http://97.81.199.98:8800/Movies/Downton Abbey (2019).mp4
http://97.81.199.98:8800/Movies/Dracula Untold.mp4
http://97.81.199.98:8800/Movies/Duck Tales the Movie (1990).avi
http://97.81.199.98:8800/Movies/Dumbo (2019).mp4
http://97.81.199.98:8800/Movies/Dunkirk (2017).avi
http://97.81.199.98:8800/Movies/Early Man (2018).avi
http://97.81.199.98:8800/Movies/Eddie the Eagle.mp4
http://97.81.199.98:8800/Movies/Elephant.2020.720p.BluRay.x264.AAC-[YTS.MX].mp4
http://97.81.199.98:8800/Movies/Elliot The Littlest Reindeer (2018).mp4
http://97.81.199.98:8800/Movies/Eloise at Christmastime (2003).mp4
http://97.81.199.98:8800/Movies/Equals 2016.mkv
http://97.81.199.98:8800/Movies/Ernest/Ernest Goes to Camp (1987).mkv
http://97.81.199.98:8800/Movies/Ernest/Ernest Goes To Jail (1990).mkv
http://97.81.199.98:8800/Movies/Ernest/Ernest Goes To School [1994].avi
http://97.81.199.98:8800/Movies/Ernest/Ernest Saves Christmas (1988).mp4
http://97.81.199.98:8800/Movies/Ernest/Ernest Scared Stupid (1991).avi
http://97.81.199.98:8800/Movies/Escape Plan.mp4
http://97.81.199.98:8800/Movies/Event Horizon (1997).mp4
http://97.81.199.98:8800/Movies/Evil Dead/Evil Dead #4 (2013).mp4
http://97.81.199.98:8800/Movies/Fantastic 4 Rise of the Silver Surfer (2007).mp4
http://97.81.199.98:8800/Movies/Fantastic Beast and Where to Find Them.mp4
http://97.81.199.98:8800/Movies/Fantastic Beasts The Crimes Of Grindelwald  (2018).mp4
http://97.81.199.98:8800/Movies/Fast and Furious/Fast & Furious Presents Hobbs & Shaw (2019).mp4
http://97.81.199.98:8800/Movies/Fast and Furious/Fast and Furious #5 - Fast Five (2011).mp4
http://97.81.199.98:8800/Movies/Fast and Furious/Fast and Furious #6 - Fast and Furious 6 (2013).mp4
http://97.81.199.98:8800/Movies/Fast and Furious/Fast and Furious #7 - Furious 7 (2015).mp4
http://97.81.199.98:8800/Movies/Fast and Furious/Fast And Furious #8 - The Fate of the Furious (2017).mp4
http://97.81.199.98:8800/Movies/Fences (2016).mkv
http://97.81.199.98:8800/Movies/Ferdinand (2017).avi
http://97.81.199.98:8800/Movies/Finding Dory.mp4
http://97.81.199.98:8800/Movies/First Man (2018).mp4
http://97.81.199.98:8800/Movies/Five Feet Apart (2019).avi
http://97.81.199.98:8800/Movies/Flushed Away (2016).avi
http://97.81.199.98:8800/Movies/Fly.Away.Home.1996.720p.BluRay.x264.YIFY.mp4
http://97.81.199.98:8800/Movies/Ford V Ferrari (2019).mp4
http://97.81.199.98:8800/Movies/Forsaken.mp4
http://97.81.199.98:8800/Movies/Foxcatcher.mp4
http://97.81.199.98:8800/Movies/Free State of Jones.mp4
http://97.81.199.98:8800/Movies/Frozen II (2019).mp4
http://97.81.199.98:8800/Movies/Frozen.mp4
http://97.81.199.98:8800/Movies/Fury.mp4
http://97.81.199.98:8800/Movies/Game Night (2018).avi
http://97.81.199.98:8800/Movies/Garth Live At Notre Dame (2018).mp4
http://97.81.199.98:8800/Movies/Gemini Man (2019).mp4
http://97.81.199.98:8800/Movies/Geostorm (2017).avi
http://97.81.199.98:8800/Movies/Ghost in the Shell (2017).mp4
http://97.81.199.98:8800/Movies/Ghostbusters 2016.mp4
http://97.81.199.98:8800/Movies/Gifted (2017).mp4
http://97.81.199.98:8800/Movies/Glass (2019).avi
http://97.81.199.98:8800/Movies/Gods of Egypt.mp4
http://97.81.199.98:8800/Movies/Godzilla/Godzilla (2014).mp4
http://97.81.199.98:8800/Movies/Godzilla/Godzilla King Of The Monsters (2019).mp4
http://97.81.199.98:8800/Movies/Goosebumps 2 Haunted Halloween (2018).mp4
http://97.81.199.98:8800/Movies/Grudge Match.mp4
http://97.81.199.98:8800/Movies/Guardians of the Galaxy Vol. 2 (2017).mp4
http://97.81.199.98:8800/Movies/Hacksaw Ridge (2016).mp4
http://97.81.199.98:8800/Movies/Hail, Ceasar!.mp4
http://97.81.199.98:8800/Movies/Halloween (2018).mp4
http://97.81.199.98:8800/Movies/Hell or High Water.mp4
http://97.81.199.98:8800/Movies/Hellboy/Hellboy (2004).avi
http://97.81.199.98:8800/Movies/Hellboy/Hellboy (2019).mp4
http://97.81.199.98:8800/Movies/Herbie/The Love Bug (1968).mp4
http://97.81.199.98:8800/Movies/Hidden Figures (2016).mp4
http://97.81.199.98:8800/Movies/High School Musical/High School Musical #1 (2006).avi
http://97.81.199.98:8800/Movies/High School Musical/High School Musical #2 (2007).avi
http://97.81.199.98:8800/Movies/High School Musical/High School Musical #3 (2008).avi
http://97.81.199.98:8800/Movies/Hitman-Agent 47.mp4
http://97.81.199.98:8800/Movies/Hocus Pocus (1993).mp4
http://97.81.199.98:8800/Movies/Holtel Transylvania/Hotel Transylvania 1 (2012).avi
http://97.81.199.98:8800/Movies/Holtel Transylvania/Hotel Transylvania 2 (2015).mp4
http://97.81.199.98:8800/Movies/Holtel Transylvania/Hotel Transylvania 3 (2018).mp4
http://97.81.199.98:8800/Movies/Home Again (2017).avi
http://97.81.199.98:8800/Movies/How To Train Your Dragon The Hidden World (2019).mp4
http://97.81.199.98:8800/Movies/Hunger Games/The Hunger Games Mockingjay One.mp4
http://97.81.199.98:8800/Movies/Hunger Games/The Hunger Games Mockingjay Two.mp4
http://97.81.199.98:8800/Movies/Hunger Games/The Hunger Games-Catching Fire.mp4
http://97.81.199.98:8800/Movies/Hunter Killer (2018).mp4
http://97.81.199.98:8800/Movies/I Can Only Imagine (2018).mp4
http://97.81.199.98:8800/Movies/I Feel Pretty (2018).mp4
http://97.81.199.98:8800/Movies/I Frankenstein.mp4
http://97.81.199.98:8800/Movies/I Kill Giants (2018).avi
http://97.81.199.98:8800/Movies/I Saw The Light-The Hank Williams Story.mp4
http://97.81.199.98:8800/Movies/I Still Believe (2020).mp4
http://97.81.199.98:8800/Movies/I, Tonya.avi
http://97.81.199.98:8800/Movies/Ice Age/Ice Age Collision Course.mkv
http://97.81.199.98:8800/Movies/Ice Age/Ice Age Dawn of the Dinosaurs.2009.720p.BrRip.x264.YIFY.mp4
http://97.81.199.98:8800/Movies/Ice Age/Ice Age The Meltdown.2006.720p.BrRip.x264.YIFY.mp4
http://97.81.199.98:8800/Movies/Ice Age/Ice.Age.A.Mammoth.Christmas.2011.720p.BluRay.x264-[YTS.AM].mp4
http://97.81.199.98:8800/Movies/Ice Age/Ice.Age.Continental.Drift.2012.720p.BluRay.x264.YIFY.mp4
http://97.81.199.98:8800/Movies/Inception (2010).mkv
http://97.81.199.98:8800/Movies/Incredibles/Incredibles 2 (2018).mp4
http://97.81.199.98:8800/Movies/Incredibles/The Incredibles (2004).mp4
http://97.81.199.98:8800/Movies/Independence Day Resurgence 2016.mp4
http://97.81.199.98:8800/Movies/Indiana Jones/Indiana Jones #2 The Temple Of Doom  (1984).mp4
http://97.81.199.98:8800/Movies/Inferno 2016.mp4
http://97.81.199.98:8800/Movies/Inside Out.mp4
http://97.81.199.98:8800/Movies/Into The Woods (2014).avi
http://97.81.199.98:8800/Movies/Invincible (2006).mp4
http://97.81.199.98:8800/Movies/Isle of Dogs (2018).avi
http://97.81.199.98:8800/Movies/It Follows.mp4
http://97.81.199.98:8800/Movies/It/It (2017).avi
http://97.81.199.98:8800/Movies/It/It Chapter Two (2019).mp4
http://97.81.199.98:8800/Movies/J.J.2020.1080p.WEBRip.x264-RARBG.mp4
http://97.81.199.98:8800/Movies/James Bond/Bond #00 Casino Royale 1967 (Niven).mkv
http://97.81.199.98:8800/Movies/James Bond/Bond #24 Skyfall.mp4
http://97.81.199.98:8800/Movies/James Bond/Bond #25 Spectre.mp4
http://97.81.199.98:8800/Movies/Jason Bourne/Jason Bourne #5 Jason Bourne 2016.mp4
http://97.81.199.98:8800/Movies/John Wick/John Wick 3 (2019).avi
http://97.81.199.98:8800/Movies/John Wick/John Wick Chapter 2 (2017).mp4
http://97.81.199.98:8800/Movies/John Wick/John Wick.mp4
http://97.81.199.98:8800/Movies/Jumanji The Next Level (2019).mp4
http://97.81.199.98:8800/Movies/Jumanji Welcome to the Jungle(2017).avi
http://97.81.199.98:8800/Movies/Jurassic Park/Jurassic World - 2015.mp4
http://97.81.199.98:8800/Movies/Jurassic Park/Jurassic World Fallen Kingdom (2018).mp4
http://97.81.199.98:8800/Movies/Kingsmen/Kingsman The Secret Service  (2014).mp4
http://97.81.199.98:8800/Movies/Kingsmen/Kingsmen The Golden Circle (2017).avi
http://97.81.199.98:8800/Movies/Knives Out (2019).mp4
http://97.81.199.98:8800/Movies/Lego Movies/Lego Aquaman (2018).mp4
http://97.81.199.98:8800/Movies/Lego Movies/Lego DC Comics Super Heros The Flash (2018).avi
http://97.81.199.98:8800/Movies/Lego Movies/The LEGO Batman Movie (2017).mp4
http://97.81.199.98:8800/Movies/Lego Movies/The Lego Movie 2 (2019).avi
http://97.81.199.98:8800/Movies/Lego Movies/The Lego Ninjago (2017).avi
http://97.81.199.98:8800/Movies/Little Women (2019).mp4
http://97.81.199.98:8800/Movies/Lord of the Rings/The Hobbit The Battle of the Five Armies (2014).mp4
http://97.81.199.98:8800/Movies/Lord of the Rings/The Lord Of The Rings The Fellowship Of The Ring.mp4
http://97.81.199.98:8800/Movies/Love.and.Monsters.2020.HDRip.XviD.AC3-EVO.mp4
http://97.81.199.98:8800/Movies/Mad Max/Mad Max-Fury Road (2015).mp4
http://97.81.199.98:8800/Movies/Maze Runner/Maze Runner Scorch Trials (2015).avi
http://97.81.199.98:8800/Movies/Maze Runner/Maze Runner The Death Cure (2018).avi
http://97.81.199.98:8800/Movies/Maze Runner/The Maze Runner (2014).mp4
http://97.81.199.98:8800/Movies/Men in Black/Men in Black #1 (1997).mp4
http://97.81.199.98:8800/Movies/Men in Black/Men in Black #2 (2002).mp4
http://97.81.199.98:8800/Movies/Men in Black/Men in Black #3 (2012).mp4
http://97.81.199.98:8800/Movies/Men in Black/Men In Black #4 International (2019).mp4
http://97.81.199.98:8800/Movies/Midway (2019).mp4
http://97.81.199.98:8800/Movies/Money Monster.mp4
http://97.81.199.98:8800/Movies/Mortal Engines (2018).mp4
http://97.81.199.98:8800/Movies/Mr Peabody and Sherman (2014).mp4
http://97.81.199.98:8800/Movies/Murder on the Orient Express (2017).avi
http://97.81.199.98:8800/Movies/My Little Pony The Movie (2017).mkv
http://97.81.199.98:8800/Movies/My Spy (2020).mp4
http://97.81.199.98:8800/Movies/National Treasure Book of Secrets (2007).mp4
http://97.81.199.98:8800/Movies/Natural Born Killers.mp4
http://97.81.199.98:8800/Movies/Night School (2018).mp4
http://97.81.199.98:8800/Movies/Nina - The Nina Simone Story.mp4
http://97.81.199.98:8800/Movies/Nine Lives.mp4
http://97.81.199.98:8800/Movies/Noah (2015).mp4
http://97.81.199.98:8800/Movies/Ocean's Eight (2018).mp4
http://97.81.199.98:8800/Movies/October Sky (1999).mp4
http://97.81.199.98:8800/Movies/Olafs Frozen Adventure (2017).mp4
http://97.81.199.98:8800/Movies/Old Movie Serials/Atom Man vs Superman (1950)/Saturdays With Superman - s02e16.mp4
http://97.81.199.98:8800/Movies/Old Movie Serials/Atom Man vs Superman (1950)/Superman 1950 - s02e01.mp4
http://97.81.199.98:8800/Movies/Old Movie Serials/Atom Man vs Superman (1950)/Superman 1950 - s02e02.mp4
http://97.81.199.98:8800/Movies/Old Movie Serials/Atom Man vs Superman (1950)/Superman 1950 - s02e03.mp4
http://97.81.199.98:8800/Movies/On th Beach 1959.mp4
http://97.81.199.98:8800/Movies/Only The Brave (2017).avi
http://97.81.199.98:8800/Movies/Onward (2020).mp4
http://97.81.199.98:8800/Movies/Open Season - Scared Silly.mp4
http://97.81.199.98:8800/Movies/Our Souls at Night (2017).mp4
http://97.81.199.98:8800/Movies/Out of the Furnace.mp4
http://97.81.199.98:8800/Movies/Over The Hedge (2006).mp4
http://97.81.199.98:8800/Movies/Ozzy.mp4
http://97.81.199.98:8800/Movies/Pacific Rim Uprising (2018).mp4
http://97.81.199.98:8800/Movies/Paddington 2 (2017).avi
http://97.81.199.98:8800/Movies/Paddington  (2014).mp4
http://97.81.199.98:8800/Movies/Passengers.mp4
http://97.81.199.98:8800/Movies/Patriot's Day.mp4
http://97.81.199.98:8800/Movies/Pet Sematary (2019).mp4
http://97.81.199.98:8800/Movies/Pete's Dragon 2016.mp4
http://97.81.199.98:8800/Movies/Peter Rabbit (2018).avi
http://97.81.199.98:8800/Movies/Phantasm Ravager.mp4
http://97.81.199.98:8800/Movies/Phantom Thread (2017).avi
http://97.81.199.98:8800/Movies/Pikachu.avi
http://97.81.199.98:8800/Movies/Pitch Perfect/Pitch Perfect #1 (2012).avi
http://97.81.199.98:8800/Movies/Pitch Perfect/Pitch Perfect #2 (2015).avi
http://97.81.199.98:8800/Movies/Pitch Perfect/Pitch Perfect #3 (2017).avi
http://97.81.199.98:8800/Movies/Pixels.mp4
http://97.81.199.98:8800/Movies/Power Rangers (2017).mp4
http://97.81.199.98:8800/Movies/Predestination.mp4
http://97.81.199.98:8800/Movies/Princess Bride (1987).avi
http://97.81.199.98:8800/Movies/Purge/Purge #4 The First Purge (2018).mp4.mp4
http://97.81.199.98:8800/Movies/Purge/The Purge #1.mp4
http://97.81.199.98:8800/Movies/Purge/The Purge #2 Anarchy.mp4
http://97.81.199.98:8800/Movies/Purge/The Purge #3 Election Year.mp4
http://97.81.199.98:8800/Movies/Raging Bull (1980).mp4
http://97.81.199.98:8800/Movies/Ralph Breaks the Internet.avi
http://97.81.199.98:8800/Movies/Rambo Last Blood.avi
http://97.81.199.98:8800/Movies/Rampage (2018).avi
http://97.81.199.98:8800/Movies/Ratchet and Clank (2016).avi
http://97.81.199.98:8800/Movies/Ready Player One (2018).mp4
http://97.81.199.98:8800/Movies/Red Sparrow (2018).avi
http://97.81.199.98:8800/Movies/Replicas (2018).mp4
http://97.81.199.98:8800/Movies/Resident Evil/Resident Evil #2 Apocalypse (2004).mp4
http://97.81.199.98:8800/Movies/Resident Evil/Resident Evil #3 Extinction (2007).mp4
http://97.81.199.98:8800/Movies/Resident Evil/Resident Evil #4 Afterlife (2010).mp4
http://97.81.199.98:8800/Movies/Resident Evil/Resident Evil #5 Retribution (2012).mp4
http://97.81.199.98:8800/Movies/Resident Evil/Resident Evil #6 The Final Chapter (2017).mp4
http://97.81.199.98:8800/Movies/Riddick/Riddick 1-Pitch Black.mp4
http://97.81.199.98:8800/Movies/Riddick/Riddick 2-The Chronicles of Riddick.mp4
http://97.81.199.98:8800/Movies/Riddick/Riddick 3-Riddick.mp4
http://97.81.199.98:8800/Movies/Rise of the Guardians (2012).mp4
http://97.81.199.98:8800/Movies/Robin Hood (2018).mp4
http://97.81.199.98:8800/Movies/Rocketman (2019).mp4
http://97.81.199.98:8800/Movies/Schindler's List (1993).mp4
http://97.81.199.98:8800/Movies/Scoob.2020.720p.WEBRip.x264.AAC-[YTS.MX].mp4
http://97.81.199.98:8800/Movies/Shaft  (2019).mp4
http://97.81.199.98:8800/Movies/Shazam (2019).mp4
http://97.81.199.98:8800/Movies/Sherlock Gnomes (2018).avi
http://97.81.199.98:8800/Movies/Shrek/Puss In Boots (2011).avi
http://97.81.199.98:8800/Movies/Shrek/Shrek 2 (2004).mp4
http://97.81.199.98:8800/Movies/Shrek/Shrek 3 (2007).mp4
http://97.81.199.98:8800/Movies/Shrek/Shrek 4 (2010).mp4
http://97.81.199.98:8800/Movies/Sicario/Sicario Day Of The Soldado (2018).mp4
http://97.81.199.98:8800/Movies/Sicario/Sicario.mp4
http://97.81.199.98:8800/Movies/Silent Hill.mp4
http://97.81.199.98:8800/Movies/Sing (2016).mp4
http://97.81.199.98:8800/Movies/Skyscraper (2018).mp4
http://97.81.199.98:8800/Movies/Sleepless (2017).mp4
http://97.81.199.98:8800/Movies/Slow West.mp4
http://97.81.199.98:8800/Movies/Smallfoot (2018).mp4
http://97.81.199.98:8800/Movies/Smurfs - The Lost Village (2017).mp4
http://97.81.199.98:8800/Movies/Snatched (2017).mp4
http://97.81.199.98:8800/Movies/Snowden (2016).mp4
http://97.81.199.98:8800/Movies/Snowtime (2015).avi
http://97.81.199.98:8800/Movies/Sonic The Hedgehog (2020).mp4
http://97.81.199.98:8800/Movies/Spider Man/Spider Man Far From Home (2019).mp4
http://97.81.199.98:8800/Movies/Spider Man/Spider Man Homecoming (2017).mp4
http://97.81.199.98:8800/Movies/Spider Man/Spider-Man - Into the Spider-Verse (2018).avi
http://97.81.199.98:8800/Movies/Spider Man/The Amazing Spider Man 2.mp4
http://97.81.199.98:8800/Movies/Spies In Disguise (2019).mp4
http://97.81.199.98:8800/Movies/Spongebob Sponge Out of Water.avi
http://97.81.199.98:8800/Movies/Spotlight.mp4
http://97.81.199.98:8800/Movies/Star Trek/Star Trek #2 The Wrath of Khan (1982).mp4
http://97.81.199.98:8800/Movies/Star Trek/Star Trek #3 The Search for Spock (1984).mp4
http://97.81.199.98:8800/Movies/Star Trek/Star Trek #4 The Voyage Home (1986).mp4
http://97.81.199.98:8800/Movies/Star Trek/Star Trek #6 The Undiscovered Country (1991).mp4
http://97.81.199.98:8800/Movies/Star Trek/Star Trek #13 Beyond (2016).mp4
http://97.81.199.98:8800/Movies/Star Trek/Star Trek First Contact (1996).mp4
http://97.81.199.98:8800/Movies/Star Trek/Star Trek Renegades.avi
http://97.81.199.98:8800/Movies/Star Wars/Rogue One A Star Wars Story (2016).avi
http://97.81.199.98:8800/Movies/Star Wars/Star Wars #7 The Force Awakens (2015).avi
http://97.81.199.98:8800/Movies/Star Wars/Star Wars #8 The Last Jedi (2017).avi
http://97.81.199.98:8800/Movies/Star Wars/Star Wars #9 -The Rise Of Skywalker (2019).mp4
http://97.81.199.98:8800/Movies/Starstruck (2010).avi
http://97.81.199.98:8800/Movies/Storks 2016.mkv
http://97.81.199.98:8800/Movies/Synchronicity.mp4
http://97.81.199.98:8800/Movies/Taken 3.mp4
http://97.81.199.98:8800/Movies/Tangled (2010).mp4
http://97.81.199.98:8800/Movies/Terminator/Terminator 1 - The Terminator(1984).avi
http://97.81.199.98:8800/Movies/Terminator/Terminator 2 - Judgement Day (1991).avi
http://97.81.199.98:8800/Movies/Terminator/Terminator 3 - Rise of the Machines (2003).avi
http://97.81.199.98:8800/Movies/Terminator/Terminator 4 - Salvation (2009).mp4
http://97.81.199.98:8800/Movies/Terminator/Terminator 5 - Genisys (2015).mp4
http://97.81.199.98:8800/Movies/Terminator/Terminator 6 - Dark Fate (2019).mp4
http://97.81.199.98:8800/Movies/The 5th Wave.mp4
http://97.81.199.98:8800/Movies/The 33.mp4
http://97.81.199.98:8800/Movies/The Addams Family (2019).mp4
http://97.81.199.98:8800/Movies/The Angry Birds Cartoon.mkv
http://97.81.199.98:8800/Movies/The Angry Birds Movie.mp4
http://97.81.199.98:8800/Movies/The BFG.mp4
http://97.81.199.98:8800/Movies/The Big Short.mp4
http://97.81.199.98:8800/Movies/The Big Sick (2017).mp4
http://97.81.199.98:8800/Movies/The Blues Brothers (1980).mp4
http://97.81.199.98:8800/Movies/The Boss Baby (2017).mp4
http://97.81.199.98:8800/Movies/The Bugs Bunny Road-Runner Movie (1979).mp4
http://97.81.199.98:8800/Movies/The Commuter (2018).avi
http://97.81.199.98:8800/Movies/The Dark Tower (2017).mp4
http://97.81.199.98:8800/Movies/The Duel.mkv
http://97.81.199.98:8800/Movies/The Emoji Movie (2017).mp4
http://97.81.199.98:8800/Movies/The Farthest.avi
http://97.81.199.98:8800/Movies/The Fog 1980.mp4
http://97.81.199.98:8800/Movies/The Forest.mp4
http://97.81.199.98:8800/Movies/The Founder (2016).mp4
http://97.81.199.98:8800/Movies/The Girl On The Train.mp4
http://97.81.199.98:8800/Movies/The Good Liar (2019).mp4
http://97.81.199.98:8800/Movies/The Great Outdoors (1988).avi.avi
http://97.81.199.98:8800/Movies/The Great Wall (2016).mp4
http://97.81.199.98:8800/Movies/The Greatest Showman (2017).avi
http://97.81.199.98:8800/Movies/The Grinch (2018).mp4
http://97.81.199.98:8800/Movies/The Hitman's Bodyguard (2017).avi
http://97.81.199.98:8800/Movies/The House With A Clock In Its Walls (2018).mp4
http://97.81.199.98:8800/Movies/The Huntsman - Winter's War.mp4
http://97.81.199.98:8800/Movies/The Hurricane Heist (2018).mp4
http://97.81.199.98:8800/Movies/The Hurricane.mp4
http://97.81.199.98:8800/Movies/The Invisible Man (2020).mp4
http://97.81.199.98:8800/Movies/The Irishman (2019).mp4
http://97.81.199.98:8800/Movies/The Last Days On Mars.mp4
http://97.81.199.98:8800/Movies/The Last Song (2010).avi
http://97.81.199.98:8800/Movies/The Light Between Oceans (2016).mp4
http://97.81.199.98:8800/Movies/The Lion King (2019).mp4
http://97.81.199.98:8800/Movies/The Longest Day (1962).mp4
http://97.81.199.98:8800/Movies/The Machine.mp4
http://97.81.199.98:8800/Movies/The Magnificent Seven (1960).mp4
http://97.81.199.98:8800/Movies/The Magnificent Seven (2016).mp4
http://97.81.199.98:8800/Movies/The Mist (2007).mkv
http://97.81.199.98:8800/Movies/The New Mutants (2020) 720p BluRay - x264 - AAC - 800MB - ESub.mkv
http://97.81.199.98:8800/Movies/The Nut Job 2 Nutty by Nature (2017).mp4
http://97.81.199.98:8800/Movies/The Other Side of the Door.mp4
http://97.81.199.98:8800/Movies/The Peanut Butter Falcon (2019).mp4
http://97.81.199.98:8800/Movies/The Peanuts Movie.mp4
http://97.81.199.98:8800/Movies/The Pistol - Birth of a Legend.mp4
http://97.81.199.98:8800/Movies/The Predator (2018).mp4
http://97.81.199.98:8800/Movies/The Returned.mp4
http://97.81.199.98:8800/Movies/The Ring #1.mp4
http://97.81.199.98:8800/Movies/The Secret Life of Pets 2 (2019).avi
http://97.81.199.98:8800/Movies/The Shallows.mkv
http://97.81.199.98:8800/Movies/The Shape of Water (2018).avi
http://97.81.199.98:8800/Movies/The Sixth Sense.mp4.mp4
http://97.81.199.98:8800/Movies/The Snowman (2017).avi
http://97.81.199.98:8800/Movies/The Son of Bigfoot (2017).mp4
http://97.81.199.98:8800/Movies/The Space Between Us (2017).mp4
http://97.81.199.98:8800/Movies/The Spy Who Dumped Me (2018).avi.avi
http://97.81.199.98:8800/Movies/The Visit.mp4
http://97.81.199.98:8800/Movies/The Way Back (2020).mp4
http://97.81.199.98:8800/Movies/The Woman in Black 2 Angel of Death (2014).mp4
http://97.81.199.98:8800/Movies/The.Call.Of.The.Wild (2020).mp4
http://97.81.199.98:8800/Movies/Thor Ragnarok (2017).avi
http://97.81.199.98:8800/Movies/Three Billboards (2017).avi
http://97.81.199.98:8800/Movies/Thunder Road (1958).mp4
http://97.81.199.98:8800/Movies/Titanic (1997).mp4
http://97.81.199.98:8800/Movies/TMNT Out of the Shadows.mp4
http://97.81.199.98:8800/Movies/Togo (2019).mp4
http://97.81.199.98:8800/Movies/Tomb Raider (2018).avi
http://97.81.199.98:8800/Movies/Toy Story/Toy Story 2 (1999).mp4
http://97.81.199.98:8800/Movies/Toy Story/Toy Story 3 (2010).mp4
http://97.81.199.98:8800/Movies/Toy Story/Toy Story 4 (2019).mp4
http://97.81.199.98:8800/Movies/Transformers/Bumblebee (2018).avi
http://97.81.199.98:8800/Movies/Transformers/Transformers #3 - Dark of the Moon (2011).mp4
http://97.81.199.98:8800/Movies/Transformers/Transformers #5 - The Last Knight (2017).mp4
http://97.81.199.98:8800/Movies/Trolls Holiday (2017).mkv
http://97.81.199.98:8800/Movies/Trolls World Tour (2020).mp4
http://97.81.199.98:8800/Movies/Trolls.mkv
http://97.81.199.98:8800/Movies/Tuck Everlasting (2002).mp4
http://97.81.199.98:8800/Movies/Underwater (2020).mp4
http://97.81.199.98:8800/Movies/Underworld/Underworld #1 (2003).mp4
http://97.81.199.98:8800/Movies/Underworld/Underworld #4 Awakening (2012).mp4
http://97.81.199.98:8800/Movies/Underworld/Underworld #5 Blood Wars (2016).mp4
http://97.81.199.98:8800/Movies/Unforgiven.mp4
http://97.81.199.98:8800/Movies/V For Vendetta.mp4
http://97.81.199.98:8800/Movies/Valerian City Of A Thousand Planets (2017).mp4
http://97.81.199.98:8800/Movies/Venom (2018).mp4
http://97.81.199.98:8800/Movies/Vice (2018).avi
http://97.81.199.98:8800/Movies/Victor Frankenstein.mp4
http://97.81.199.98:8800/Movies/Victoria & Abdul (2017).avi
http://97.81.199.98:8800/Movies/Warcraft.mp4
http://97.81.199.98:8800/Movies/Welcome to Marwen (2019).avi
http://97.81.199.98:8800/Movies/Western.Stars.2019.720p.BluRay.x264-[YTS.LT].mp4
http://97.81.199.98:8800/Movies/What Happened to Monday (2017).avi
http://97.81.199.98:8800/Movies/Where'd You Go, Bernadette  (2019).mp4
http://97.81.199.98:8800/Movies/White House Down.mp4
http://97.81.199.98:8800/Movies/Winchester (2018).avi
http://97.81.199.98:8800/Movies/Wind River (2017).mp4
http://97.81.199.98:8800/Movies/Witch.mp4
http://97.81.199.98:8800/Movies/Wonder Park (2019).mp4
http://97.81.199.98:8800/Movies/Woody Woodpecker (2017).avi
http://97.81.199.98:8800/Movies/X Men/X Men Days of Future Past (2014).mp4
http://97.81.199.98:8800/Movies/X Men/X-Men Apocalypse.mp4
http://97.81.199.98:8800/Movies/X Men/X-Men Dark Phoenix (2019).mp4
http://97.81.199.98:8800/Movies/Yesterday (2019).mp4
http://97.81.199.98:8800/Movies/Zombieland Double Tap (2019).mp4
http://97.81.199.98:8800/Movies/Zoo (2017).avi
http://97.81.199.98:8800/Movies/Zootopia.mp4
