http://37.187.121.54:38946/[a-S] Initial D First Stage [BD 1080p][Dual Audio]/[a-S] Initial D First Stage - 01 [BD 1080p][Dual Audio].mkv
http://37.187.121.54:38946/[a-S] Initial D First Stage [BD 1080p][Dual Audio]/[a-S] Initial D First Stage - 02 [BD 1080p][Dual Audio].mkv
http://37.187.121.54:38946/[a-S] Initial D First Stage [BD 1080p][Dual Audio]/[a-S] Initial D First Stage - 03 [BD 1080p][Dual Audio].mkv
http://37.187.121.54:38946/[a-S] Initial D First Stage [BD 1080p][Dual Audio]/[a-S] Initial D First Stage - 04 [BD 1080p][Dual Audio].mkv
http://37.187.121.54:38946/[a-S] Initial D First Stage [BD 1080p][Dual Audio]/[a-S] Initial D First Stage - 05 [BD 1080p][Dual Audio].mkv
http://37.187.121.54:38946/[a-S] Initial D First Stage [BD 1080p][Dual Audio]/[a-S] Initial D First Stage - 06 [BD 1080p][Dual Audio].mkv
http://37.187.121.54:38946/[a-S] Initial D First Stage [BD 1080p][Dual Audio]/[a-S] Initial D First Stage - 07 [BD 1080p][Dual Audio].mkv
http://37.187.121.54:38946/[a-S] Initial D First Stage [BD 1080p][Dual Audio]/[a-S] Initial D First Stage - 08 [BD 1080p][Dual Audio].mkv
http://37.187.121.54:38946/[a-S] Initial D First Stage [BD 1080p][Dual Audio]/[a-S] Initial D First Stage - 09 [BD 1080p][Dual Audio].mkv
http://37.187.121.54:38946/[a-S] Initial D First Stage [BD 1080p][Dual Audio]/[a-S] Initial D First Stage - 10 [BD 1080p][Dual Audio].mkv
http://37.187.121.54:38946/[a-S] Initial D First Stage [BD 1080p][Dual Audio]/[a-S] Initial D First Stage - 11 [BD 1080p][Dual Audio].mkv
http://37.187.121.54:38946/[a-S] Initial D First Stage [BD 1080p][Dual Audio]/[a-S] Initial D First Stage - 12 [BD 1080p][Dual Audio].mkv
http://37.187.121.54:38946/[a-S] Initial D First Stage [BD 1080p][Dual Audio]/[a-S] Initial D First Stage - 13 [BD 1080p][Dual Audio].mkv
http://37.187.121.54:38946/[a-S] Initial D First Stage [BD 1080p][Dual Audio]/[a-S] Initial D First Stage - 14 [BD 1080p][Dual Audio].mkv
http://37.187.121.54:38946/[a-S] Initial D First Stage [BD 1080p][Dual Audio]/[a-S] Initial D First Stage - 15 [BD 1080p][Dual Audio].mkv
http://37.187.121.54:38946/[a-S] Initial D First Stage [BD 1080p][Dual Audio]/[a-S] Initial D First Stage - 16 [BD 1080p][Dual Audio].mkv
http://37.187.121.54:38946/[a-S] Initial D First Stage [BD 1080p][Dual Audio]/[a-S] Initial D First Stage - 17 [BD 1080p][Dual Audio].mkv
http://37.187.121.54:38946/[a-S] Initial D First Stage [BD 1080p][Dual Audio]/[a-S] Initial D First Stage - 18 [BD 1080p][Dual Audio].mkv
http://37.187.121.54:38946/[a-S] Initial D First Stage [BD 1080p][Dual Audio]/[a-S] Initial D First Stage - 19 [BD 1080p][Dual Audio].mkv
http://37.187.121.54:38946/[a-S] Initial D First Stage [BD 1080p][Dual Audio]/[a-S] Initial D First Stage - 20 [BD 1080p][Dual Audio].mkv
http://37.187.121.54:38946/[a-S] Initial D First Stage [BD 1080p][Dual Audio]/[a-S] Initial D First Stage - 21 [BD 1080p][Dual Audio].mkv
http://37.187.121.54:38946/[a-S] Initial D First Stage [BD 1080p][Dual Audio]/[a-S] Initial D First Stage - 22 [BD 1080p][Dual Audio].mkv
http://37.187.121.54:38946/[a-S] Initial D First Stage [BD 1080p][Dual Audio]/[a-S] Initial D First Stage - 23 [BD 1080p][Dual Audio].mkv
http://37.187.121.54:38946/[a-S] Initial D First Stage [BD 1080p][Dual Audio]/[a-S] Initial D First Stage - 24 [BD 1080p][Dual Audio].mkv
http://37.187.121.54:38946/[a-S] Initial D First Stage [BD 1080p][Dual Audio]/[a-S] Initial D First Stage - 25 [BD 1080p][Dual Audio].mkv
http://37.187.121.54:38946/[a-S] Initial D First Stage [BD 1080p][Dual Audio]/[a-S] Initial D First Stage - 26 [BD 1080p][Dual Audio].mkv
http://37.187.121.54:38946/[CBM] Outlaw Star 1-26 Complete (Dual Audio) [BDRip-1080p-8bit-FLAC]/[CBM]_Outlaw_Star_-_01_-_Outlaw_World_[1080p-FLAC]_[F04F7DAE].mkv
http://37.187.121.54:38946/[CBM] Outlaw Star 1-26 Complete (Dual Audio) [BDRip-1080p-8bit-FLAC]/[CBM]_Outlaw_Star_-_02_-_World_of_Desires_[1080p-FLAC]_[74F49F71].mkv
http://37.187.121.54:38946/[CBM] Outlaw Star 1-26 Complete (Dual Audio) [BDRip-1080p-8bit-FLAC]/[CBM]_Outlaw_Star_-_03_-_Into_Burning_Space_[1080p-FLAC]_[3AC76FA3].mkv
http://37.187.121.54:38946/[CBM] Outlaw Star 1-26 Complete (Dual Audio) [BDRip-1080p-8bit-FLAC]/[CBM]_Outlaw_Star_-_04_-_When_the_Hot_Ice_Melts_[1080p-FLAC]_[77021594].mkv
http://37.187.121.54:38946/[CBM] Outlaw Star 1-26 Complete (Dual Audio) [BDRip-1080p-8bit-FLAC]/[CBM]_Outlaw_Star_-_05_-_The_Beast_Girl,_Ready_to_Pounce_[1080p-FLAC]_[A805E8DF].mkv
http://37.187.121.54:38946/[CBM] Outlaw Star 1-26 Complete (Dual Audio) [BDRip-1080p-8bit-FLAC]/[CBM]_Outlaw_Star_-_06_-_The_Beautiful_Assassin_[1080p-FLAC]_[5454B4ED].mkv
http://37.187.121.54:38946/[CBM] Outlaw Star 1-26 Complete (Dual Audio) [BDRip-1080p-8bit-FLAC]/[CBM]_Outlaw_Star_-_07_-_Creeping_Evil_[1080p-FLAC]_[83E522FC].mkv
http://37.187.121.54:38946/[CBM] Outlaw Star 1-26 Complete (Dual Audio) [BDRip-1080p-8bit-FLAC]/[CBM]_Outlaw_Star_-_08_-_Forced_Departure_[1080p-FLAC]_[8AEF0FBD].mkv
http://37.187.121.54:38946/[CBM] Outlaw Star 1-26 Complete (Dual Audio) [BDRip-1080p-8bit-FLAC]/[CBM]_Outlaw_Star_-_09_-_A_Journey_of_Adventure...Huh_[1080p-FLAC]_[C03A4216].mkv
http://37.187.121.54:38946/[CBM] Outlaw Star 1-26 Complete (Dual Audio) [BDRip-1080p-8bit-FLAC]/[CBM]_Outlaw_Star_-_10_-_Gathering_for_the_Space_Race_[1080p-FLAC]_[C9237E00].mkv
http://37.187.121.54:38946/[CBM] Outlaw Star 1-26 Complete (Dual Audio) [BDRip-1080p-8bit-FLAC]/[CBM]_Outlaw_Star_-_11_-_Adrift_in_Subspace_[1080p-FLAC]_[EEBD4A3E].mkv
http://37.187.121.54:38946/[CBM] Outlaw Star 1-26 Complete (Dual Audio) [BDRip-1080p-8bit-FLAC]/[CBM]_Outlaw_Star_-_12_-_Mortal_Combat_with_the_El_Dorado_[1080p-FLAC]_[8429B66A].mkv
http://37.187.121.54:38946/[CBM] Outlaw Star 1-26 Complete (Dual Audio) [BDRip-1080p-8bit-FLAC]/[CBM]_Outlaw_Star_-_13_-_Advance_Guard_from_Another_World_[1080p-FLAC]_[E43F5843].mkv
http://37.187.121.54:38946/[CBM] Outlaw Star 1-26 Complete (Dual Audio) [BDRip-1080p-8bit-FLAC]/[CBM]_Outlaw_Star_-_14_-_Final_Countdown_[1080p-FLAC]_[1DD09696].mkv
http://37.187.121.54:38946/[CBM] Outlaw Star 1-26 Complete (Dual Audio) [BDRip-1080p-8bit-FLAC]/[CBM]_Outlaw_Star_-_15_-_The_Seven_Emerge_[1080p-FLAC]_[105C5F76].mkv
http://37.187.121.54:38946/[CBM] Outlaw Star 1-26 Complete (Dual Audio) [BDRip-1080p-8bit-FLAC]/[CBM]_Outlaw_Star_-_16_-_Demon_of_the_Water_Planet_[1080p-FLAC]_[8AB16591].mkv
http://37.187.121.54:38946/[CBM] Outlaw Star 1-26 Complete (Dual Audio) [BDRip-1080p-8bit-FLAC]/[CBM]_Outlaw_Star_-_17_-_Between_Life_and_Machine_[1080p-FLAC]_[4798C560].mkv
http://37.187.121.54:38946/[CBM] Outlaw Star 1-26 Complete (Dual Audio) [BDRip-1080p-8bit-FLAC]/[CBM]_Outlaw_Star_-_18_-_The_Strongest_Woman_in_the_Universe_[1080p-FLAC]_[DA546500].mkv
http://37.187.121.54:38946/[CBM] Outlaw Star 1-26 Complete (Dual Audio) [BDRip-1080p-8bit-FLAC]/[CBM]_Outlaw_Star_-_19_-_Law_and_Lawlessness_[1080p-FLAC]_[A4175A84].mkv
http://37.187.121.54:38946/[CBM] Outlaw Star 1-26 Complete (Dual Audio) [BDRip-1080p-8bit-FLAC]/[CBM]_Outlaw_Star_-_20_-_Cats_and_Girls_and_Space_Ships_[1080p-FLAC]_[DCA5FEEA].mkv
http://37.187.121.54:38946/[CBM] Outlaw Star 1-26 Complete (Dual Audio) [BDRip-1080p-8bit-FLAC]/[CBM]_Outlaw_Star_-_21_-_Grave_of_the_Dragon_[1080p-FLAC]_[9CFB57FB].mkv
http://37.187.121.54:38946/[CBM] Outlaw Star 1-26 Complete (Dual Audio) [BDRip-1080p-8bit-FLAC]/[CBM]_Outlaw_Star_-_22_-_Gravity_Jailbreak_[1080p-FLAC]_[0433F5F6].mkv
http://37.187.121.54:38946/[CBM] Outlaw Star 1-26 Complete (Dual Audio) [BDRip-1080p-8bit-FLAC]/[CBM]_Outlaw_Star_-_23_-_Hot_Springs_Planet_Tenrei_[v2]_[1080p-FLAC]_[47FB5857].mkv
http://37.187.121.54:38946/[CBM] Outlaw Star 1-26 Complete (Dual Audio) [BDRip-1080p-8bit-FLAC]/[CBM]_Outlaw_Star_-_24_-_Cutting_the_Galactic_Leyline_[1080p-FLAC]_[1A741963].mkv
http://37.187.121.54:38946/[CBM] Outlaw Star 1-26 Complete (Dual Audio) [BDRip-1080p-8bit-FLAC]/[CBM]_Outlaw_Star_-_25_-_Maze_of_Despair_[1080p-FLAC]_[FAB779BA].mkv
http://37.187.121.54:38946/[CBM] Outlaw Star 1-26 Complete (Dual Audio) [BDRip-1080p-8bit-FLAC]/[CBM]_Outlaw_Star_-_26_-_Return_to_Space_[1080p-FLAC]_[28770939].mkv
http://37.187.121.54:38946/[Cman] Last Exile [Hi10][Blu-Ray 1080p]/[Cman] Last Exile Ep 01 'First move' [Hi10][Blu-Ray 1080p][80CC2086].mkv
http://37.187.121.54:38946/[Cman] Last Exile [Hi10][Blu-Ray 1080p]/[Cman] Last Exile Ep 02 'Luft Vanship' [Hi10][Blu-Ray 1080p][2F880DBB].mkv
http://37.187.121.54:38946/[Cman] Last Exile [Hi10][Blu-Ray 1080p]/[Cman] Last Exile Ep 03 'Transpose' [Hi10][Blu-Ray 1080p][EAC555F4].mkv
http://37.187.121.54:38946/[Cman] Last Exile [Hi10][Blu-Ray 1080p]/[Cman] Last Exile Ep 04 'Zugzwang' [Hi10][Blu-Ray 1080p][B4543E53].mkv
http://37.187.121.54:38946/[Cman] Last Exile [Hi10][Blu-Ray 1080p]/[Cman] Last Exile Ep 05 'Positional Play' [Hi10][Blu-Ray 1080p][A18764D2].mkv
http://37.187.121.54:38946/[Cman] Last Exile [Hi10][Blu-Ray 1080p]/[Cman] Last Exile Ep 06 'Arbiter attack' [Hi10][Blu-Ray 1080p][7638CA26].mkv
http://37.187.121.54:38946/[Cman] Last Exile [Hi10][Blu-Ray 1080p]/[Cman] Last Exile Ep 07 'Interesting Claus' [Hi10][Blu-Ray 1080p][9950E886].mkv
http://37.187.121.54:38946/[Cman] Last Exile [Hi10][Blu-Ray 1080p]/[Cman] Last Exile Ep 08 'Takeback' [Hi10][Blu-Ray 1080p][66072AD5].mkv
http://37.187.121.54:38946/[Cman] Last Exile [Hi10][Blu-Ray 1080p]/[Cman] Last Exile Ep 09 'Calculate Alex' [Hi10][Blu-Ray 1080p][EECDD50E].mkv
http://37.187.121.54:38946/[Cman] Last Exile [Hi10][Blu-Ray 1080p]/[Cman] Last Exile Ep 10 'Swindle' [Hi10][Blu-Ray 1080p][8653609B].mkv
http://37.187.121.54:38946/[Cman] Last Exile [Hi10][Blu-Ray 1080p]/[Cman] Last Exile Ep 11 'Develop' [Hi10][Blu-Ray 1080p][1A2F7B8A].mkv
http://37.187.121.54:38946/[Cman] Last Exile [Hi10][Blu-Ray 1080p]/[Cman] Last Exile Ep 12 'Discovered attack' [Hi10][Blu-Ray 1080p][B54DC260].mkv
http://37.187.121.54:38946/[Cman] Last Exile [Hi10][Blu-Ray 1080p]/[Cman] Last Exile Ep 13 'Isolated pawn' [Hi10][Blu-Ray 1080p][E194A2D7].mkv
http://37.187.121.54:38946/[Cman] Last Exile [Hi10][Blu-Ray 1080p]/[Cman] Last Exile Ep 14 'Étude Lavie' [Hi10][Blu-Ray 1080p][FD776D24].mkv
http://37.187.121.54:38946/[Cman] Last Exile [Hi10][Blu-Ray 1080p]/[Cman] Last Exile Ep 15 'Fairy chess' [Hi10][Blu-Ray 1080p][B18C7F7D].mkv
http://37.187.121.54:38946/[Cman] Last Exile [Hi10][Blu-Ray 1080p]/[Cman] Last Exile Ep 16 'Breakthrough' [Hi10][Blu-Ray 1080p][A6E5ED4D].mkv
http://37.187.121.54:38946/[Cman] Last Exile [Hi10][Blu-Ray 1080p]/[Cman] Last Exile Ep 17 'Making material' [Hi10][Blu-Ray 1080p][BEBCA915].mkv
http://37.187.121.54:38946/[Cman] Last Exile [Hi10][Blu-Ray 1080p]/[Cman] Last Exile Ep 18 'Promotion Sophia' [Hi10][Blu-Ray 1080p][96E49728].mkv
http://37.187.121.54:38946/[Cman] Last Exile [Hi10][Blu-Ray 1080p]/[Cman] Last Exile Ep 19 'Sicilian Defence' [Hi10][Blu-Ray 1080p][9525E731].mkv
http://37.187.121.54:38946/[Cman] Last Exile [Hi10][Blu-Ray 1080p]/[Cman] Last Exile Ep 20 'Grand Stream' [Hi10][Blu-Ray 1080p][F782019E].mkv
http://37.187.121.54:38946/[Cman] Last Exile [Hi10][Blu-Ray 1080p]/[Cman] Last Exile Ep 21 'Rook Dio' [Hi10][Blu-Ray 1080p][B1AC4780].mkv
http://37.187.121.54:38946/[Cman] Last Exile [Hi10][Blu-Ray 1080p]/[Cman] Last Exile Ep 22 'Queen Delphine' [Hi10][Blu-Ray 1080p][D666E2DA].mkv
http://37.187.121.54:38946/[Cman] Last Exile [Hi10][Blu-Ray 1080p]/[Cman] Last Exile Ep 23 'Castling Lucciola' [Hi10][Blu-Ray 1080p][B32722E2].mkv
http://37.187.121.54:38946/[Cman] Last Exile [Hi10][Blu-Ray 1080p]/[Cman] Last Exile Ep 24 'Sealed move' [Hi10][Blu-Ray 1080p][4B07D09C].mkv
http://37.187.121.54:38946/[Cman] Last Exile [Hi10][Blu-Ray 1080p]/[Cman] Last Exile Ep 25 'Quiet move' [Hi10][Blu-Ray 1080p][375E30EA].mkv
http://37.187.121.54:38946/[Cman] Last Exile [Hi10][Blu-Ray 1080p]/[Cman] Last Exile Ep 26 'Resign' [Hi10][Blu-Ray 1080p][24423AA6].mkv
http://37.187.121.54:38946/[Elysium]To.Aru.Kagaku.no.Railgun(BD.1080p.FLAC)/[Elysium]To.Aru.Kagaku.no.Railgun.EP01(BD.1080p.FLAC)[FA31B045].mkv
http://37.187.121.54:38946/[Elysium]To.Aru.Kagaku.no.Railgun(BD.1080p.FLAC)/[Elysium]To.Aru.Kagaku.no.Railgun.EP02(BD.1080p.FLAC)[3E3A1987].mkv
http://37.187.121.54:38946/[Elysium]To.Aru.Kagaku.no.Railgun(BD.1080p.FLAC)/[Elysium]To.Aru.Kagaku.no.Railgun.EP03(BD.1080p.FLAC)[D84FCEBF].mkv
http://37.187.121.54:38946/[Elysium]To.Aru.Kagaku.no.Railgun(BD.1080p.FLAC)/[Elysium]To.Aru.Kagaku.no.Railgun.EP04(BD.1080p.FLAC)[F5744328].mkv
http://37.187.121.54:38946/[Elysium]To.Aru.Kagaku.no.Railgun(BD.1080p.FLAC)/[Elysium]To.Aru.Kagaku.no.Railgun.EP05(BD.1080p.FLAC)[63456D4B].mkv
http://37.187.121.54:38946/[Elysium]To.Aru.Kagaku.no.Railgun(BD.1080p.FLAC)/[Elysium]To.Aru.Kagaku.no.Railgun.EP06(BD.1080p.FLAC)[28057CF6].mkv
http://37.187.121.54:38946/[Elysium]To.Aru.Kagaku.no.Railgun(BD.1080p.FLAC)/[Elysium]To.Aru.Kagaku.no.Railgun.EP07(BD.1080p.FLAC)[B7DD06A5].mkv
http://37.187.121.54:38946/[Elysium]To.Aru.Kagaku.no.Railgun(BD.1080p.FLAC)/[Elysium]To.Aru.Kagaku.no.Railgun.EP08(BD.1080p.FLAC)[F3726DC9].mkv
http://37.187.121.54:38946/[Elysium]To.Aru.Kagaku.no.Railgun(BD.1080p.FLAC)/[Elysium]To.Aru.Kagaku.no.Railgun.EP09(BD.1080p.FLAC)[B66BD432].mkv
http://37.187.121.54:38946/[Elysium]To.Aru.Kagaku.no.Railgun(BD.1080p.FLAC)/[Elysium]To.Aru.Kagaku.no.Railgun.EP10(BD.1080p.FLAC)[76D018F0].mkv
http://37.187.121.54:38946/[Elysium]To.Aru.Kagaku.no.Railgun(BD.1080p.FLAC)/[Elysium]To.Aru.Kagaku.no.Railgun.EP11(BD.1080p.FLAC)[285DEF4F].mkv
http://37.187.121.54:38946/[Elysium]To.Aru.Kagaku.no.Railgun(BD.1080p.FLAC)/[Elysium]To.Aru.Kagaku.no.Railgun.EP12(BD.1080p.FLAC)[05B3E7AF].mkv
http://37.187.121.54:38946/[Elysium]To.Aru.Kagaku.no.Railgun(BD.1080p.FLAC)/[Elysium]To.Aru.Kagaku.no.Railgun.EP13(BD.1080p.FLAC)[A28AF57F].mkv
http://37.187.121.54:38946/[Elysium]To.Aru.Kagaku.no.Railgun(BD.1080p.FLAC)/[Elysium]To.Aru.Kagaku.no.Railgun.EP14(BD.1080p.FLAC)[0C0947C5].mkv
http://37.187.121.54:38946/[Elysium]To.Aru.Kagaku.no.Railgun(BD.1080p.FLAC)/[Elysium]To.Aru.Kagaku.no.Railgun.EP15(BD.1080p.FLAC)[66E39926].mkv
http://37.187.121.54:38946/[Elysium]To.Aru.Kagaku.no.Railgun(BD.1080p.FLAC)/[Elysium]To.Aru.Kagaku.no.Railgun.EP16(BD.1080p.FLAC)[82A683C4].mkv
http://37.187.121.54:38946/[Elysium]To.Aru.Kagaku.no.Railgun(BD.1080p.FLAC)/[Elysium]To.Aru.Kagaku.no.Railgun.EP17(BD.1080p.FLAC)[52DC15B3].mkv
http://37.187.121.54:38946/[Elysium]To.Aru.Kagaku.no.Railgun(BD.1080p.FLAC)/[Elysium]To.Aru.Kagaku.no.Railgun.EP18(BD.1080p.FLAC)[13CECD9B].mkv
http://37.187.121.54:38946/[Elysium]To.Aru.Kagaku.no.Railgun(BD.1080p.FLAC)/[Elysium]To.Aru.Kagaku.no.Railgun.EP19(BD.1080p.FLAC)[0E2A6BBF].mkv
http://37.187.121.54:38946/[Elysium]To.Aru.Kagaku.no.Railgun(BD.1080p.FLAC)/[Elysium]To.Aru.Kagaku.no.Railgun.EP20(BD.1080p.FLAC)[E5836EB8].mkv
http://37.187.121.54:38946/[Elysium]To.Aru.Kagaku.no.Railgun(BD.1080p.FLAC)/[Elysium]To.Aru.Kagaku.no.Railgun.EP21(BD.1080p.FLAC)[061CF3F1].mkv
http://37.187.121.54:38946/[Elysium]To.Aru.Kagaku.no.Railgun(BD.1080p.FLAC)/[Elysium]To.Aru.Kagaku.no.Railgun.EP22(BD.1080p.FLAC)[B09964BF].mkv
http://37.187.121.54:38946/[Elysium]To.Aru.Kagaku.no.Railgun(BD.1080p.FLAC)/[Elysium]To.Aru.Kagaku.no.Railgun.EP23(BD.1080p.FLAC)[39CB7392].mkv
http://37.187.121.54:38946/[Elysium]To.Aru.Kagaku.no.Railgun(BD.1080p.FLAC)/[Elysium]To.Aru.Kagaku.no.Railgun.EP24(BD.1080p.FLAC)[45FF82BF].mkv
http://37.187.121.54:38946/[Elysium]To.Aru.Kagaku.no.Railgun(BD.1080p.FLAC)/OP-ED/[Elysium]To.Aru.Kagaku.no.Railgun.ED1(BD.1080p.FLAC)[9CC51E40].mkv
http://37.187.121.54:38946/[Elysium]To.Aru.Kagaku.no.Railgun(BD.1080p.FLAC)/OP-ED/[Elysium]To.Aru.Kagaku.no.Railgun.ED2(BD.1080p.FLAC)[B06FAE5B].mkv
http://37.187.121.54:38946/[Elysium]To.Aru.Kagaku.no.Railgun(BD.1080p.FLAC)/OP-ED/[Elysium]To.Aru.Kagaku.no.Railgun.OP1(BD.1080p.FLAC)[B18C809D].mkv
http://37.187.121.54:38946/[Elysium]To.Aru.Kagaku.no.Railgun(BD.1080p.FLAC)/OP-ED/[Elysium]To.Aru.Kagaku.no.Railgun.OP2(BD.1080p.FLAC)[F2E468A0].mkv
http://37.187.121.54:38946/[Kametsu] Anohana - The Flower We Saw That Day (BD 1080p Hi10 FLAC) [Dual-Audio]/[Kametsu] Anohana - The Flower We Saw That Day - 01 (BD 1080p Hi10 FLAC) [4016E541].mkv
http://37.187.121.54:38946/[Kametsu] Anohana - The Flower We Saw That Day (BD 1080p Hi10 FLAC) [Dual-Audio]/[Kametsu] Anohana - The Flower We Saw That Day - 02 (BD 1080p Hi10 FLAC) [7F398F08].mkv
http://37.187.121.54:38946/[Kametsu] Anohana - The Flower We Saw That Day (BD 1080p Hi10 FLAC) [Dual-Audio]/[Kametsu] Anohana - The Flower We Saw That Day - 03 (BD 1080p Hi10 FLAC) [979F95DD].mkv
http://37.187.121.54:38946/[Kametsu] Anohana - The Flower We Saw That Day (BD 1080p Hi10 FLAC) [Dual-Audio]/[Kametsu] Anohana - The Flower We Saw That Day - 04 (BD 1080p Hi10 FLAC) [582306DA].mkv
http://37.187.121.54:38946/[Kametsu] Anohana - The Flower We Saw That Day (BD 1080p Hi10 FLAC) [Dual-Audio]/[Kametsu] Anohana - The Flower We Saw That Day - 05 (BD 1080p Hi10 FLAC) [EE583FBF].mkv
http://37.187.121.54:38946/[Kametsu] Anohana - The Flower We Saw That Day (BD 1080p Hi10 FLAC) [Dual-Audio]/[Kametsu] Anohana - The Flower We Saw That Day - 06 (BD 1080p Hi10 FLAC) [BB482507].mkv
http://37.187.121.54:38946/[Kametsu] Anohana - The Flower We Saw That Day (BD 1080p Hi10 FLAC) [Dual-Audio]/[Kametsu] Anohana - The Flower We Saw That Day - 07 (BD 1080p Hi10 FLAC) [423AAC35].mkv
http://37.187.121.54:38946/[Kametsu] Anohana - The Flower We Saw That Day (BD 1080p Hi10 FLAC) [Dual-Audio]/[Kametsu] Anohana - The Flower We Saw That Day - 08 (BD 1080p Hi10 FLAC) [9636EE65].mkv
http://37.187.121.54:38946/[Kametsu] Anohana - The Flower We Saw That Day (BD 1080p Hi10 FLAC) [Dual-Audio]/[Kametsu] Anohana - The Flower We Saw That Day - 09 (BD 1080p Hi10 FLAC) [404D78A2].mkv
http://37.187.121.54:38946/[Kametsu] Anohana - The Flower We Saw That Day (BD 1080p Hi10 FLAC) [Dual-Audio]/[Kametsu] Anohana - The Flower We Saw That Day - 10 (BD 1080p Hi10 FLAC) [55AEEEB5].mkv
http://37.187.121.54:38946/[Kametsu] Anohana - The Flower We Saw That Day (BD 1080p Hi10 FLAC) [Dual-Audio]/[Kametsu] Anohana - The Flower We Saw That Day - 11 (BD 1080p Hi10 FLAC) [D5E03780].mkv
http://37.187.121.54:38946/[Leeson] Promare (2019) [BD][1920x1080 H264 DTS-HD MA 5.1][B76B74D7].mkv
http://37.187.121.54:38946/Barakamon.S01.v2.1080p-Hi10p.BluRay.FLAC5.1.x264-CTR/Barakamon.S01E01.v2.1080p-Hi10p.BluRay.FLAC5.1.x264-CTR.[62EB3EEE].mkv
http://37.187.121.54:38946/Barakamon.S01.v2.1080p-Hi10p.BluRay.FLAC5.1.x264-CTR/Barakamon.S01E02.v2.1080p-Hi10p.BluRay.FLAC5.1.x264-CTR.[F29BA346].mkv
http://37.187.121.54:38946/Barakamon.S01.v2.1080p-Hi10p.BluRay.FLAC5.1.x264-CTR/Barakamon.S01E03.v2.1080p-Hi10p.BluRay.FLAC5.1.x264-CTR.[C6A2CDA6].mkv
http://37.187.121.54:38946/Barakamon.S01.v2.1080p-Hi10p.BluRay.FLAC5.1.x264-CTR/Barakamon.S01E04.v2.1080p-Hi10p.BluRay.FLAC5.1.x264-CTR.[EC89ADE9].mkv
http://37.187.121.54:38946/Barakamon.S01.v2.1080p-Hi10p.BluRay.FLAC5.1.x264-CTR/Barakamon.S01E05.v2.1080p-Hi10p.BluRay.FLAC5.1.x264-CTR.[404B2E9B].mkv
http://37.187.121.54:38946/Barakamon.S01.v2.1080p-Hi10p.BluRay.FLAC5.1.x264-CTR/Barakamon.S01E06.v2.1080p-Hi10p.BluRay.FLAC5.1.x264-CTR.[8CE35C06].mkv
http://37.187.121.54:38946/Barakamon.S01.v2.1080p-Hi10p.BluRay.FLAC5.1.x264-CTR/Barakamon.S01E07.v2.1080p-Hi10p.BluRay.FLAC5.1.x264-CTR.[6BAAB46E].mkv
http://37.187.121.54:38946/Barakamon.S01.v2.1080p-Hi10p.BluRay.FLAC5.1.x264-CTR/Barakamon.S01E08.v2.1080p-Hi10p.BluRay.FLAC5.1.x264-CTR.[E1FF9344].mkv
http://37.187.121.54:38946/Barakamon.S01.v2.1080p-Hi10p.BluRay.FLAC5.1.x264-CTR/Barakamon.S01E09.v2.1080p-Hi10p.BluRay.FLAC5.1.x264-CTR.[EBC721C5].mkv
http://37.187.121.54:38946/Barakamon.S01.v2.1080p-Hi10p.BluRay.FLAC5.1.x264-CTR/Barakamon.S01E10.v2.1080p-Hi10p.BluRay.FLAC5.1.x264-CTR.[9C18293E].mkv
http://37.187.121.54:38946/Barakamon.S01.v2.1080p-Hi10p.BluRay.FLAC5.1.x264-CTR/Barakamon.S01E11.v2.1080p-Hi10p.BluRay.FLAC5.1.x264-CTR.[B276EECF].mkv
http://37.187.121.54:38946/Barakamon.S01.v2.1080p-Hi10p.BluRay.FLAC5.1.x264-CTR/Barakamon.S01E12.v2.1080p-Hi10p.BluRay.FLAC5.1.x264-CTR.[B11F4298].mkv
http://37.187.121.54:38946/Bill.and.Ted.Face.the.Music.2020.1080p.AMZN.WEB-DL.DDP5.1.H.264-NTG.mkv
http://37.187.121.54:38946/Brave.2012.1080p.Bluray.DD5.1.x264-DON.mkv
http://37.187.121.54:38946/Fullmetal Alchemist Brotherhood - [BR] [h264 10-bit] [1080p] [FLAC 5.1] [DA](ShadyCrab)/[ShadyCrab] Fullmetal Alchemist Brotherhood - S01E01v4 [BD][1080p][Hi10][Dual][54F1802F].mkv
http://37.187.121.54:38946/Fullmetal Alchemist Brotherhood - [BR] [h264 10-bit] [1080p] [FLAC 5.1] [DA](ShadyCrab)/[ShadyCrab] Fullmetal Alchemist Brotherhood - S01E02v3 [BD][1080p][Hi10][Dual][0379C76B].mkv
http://37.187.121.54:38946/Fullmetal Alchemist Brotherhood - [BR] [h264 10-bit] [1080p] [FLAC 5.1] [DA](ShadyCrab)/[ShadyCrab] Fullmetal Alchemist Brotherhood - S01E03v3 [BD][1080p][Hi10][Dual][FB8C90D8].mkv
http://37.187.121.54:38946/Fullmetal Alchemist Brotherhood - [BR] [h264 10-bit] [1080p] [FLAC 5.1] [DA](ShadyCrab)/[ShadyCrab] Fullmetal Alchemist Brotherhood - S01E04v3 [BD][1080p][Hi10][Dual][7A5E2A2D].mkv
http://37.187.121.54:38946/Fullmetal Alchemist Brotherhood - [BR] [h264 10-bit] [1080p] [FLAC 5.1] [DA](ShadyCrab)/[ShadyCrab] Fullmetal Alchemist Brotherhood - S01E05v3 [BD][1080p][Hi10][Dual][F192273F].mkv
http://37.187.121.54:38946/Fullmetal Alchemist Brotherhood - [BR] [h264 10-bit] [1080p] [FLAC 5.1] [DA](ShadyCrab)/[ShadyCrab] Fullmetal Alchemist Brotherhood - S01E06v3 [BD][1080p][Hi10][Dual][B977DCCB].mkv
http://37.187.121.54:38946/Fullmetal Alchemist Brotherhood - [BR] [h264 10-bit] [1080p] [FLAC 5.1] [DA](ShadyCrab)/[ShadyCrab] Fullmetal Alchemist Brotherhood - S01E07v3 [BD][1080p][Hi10][Dual][92A4AC21].mkv
http://37.187.121.54:38946/Fullmetal Alchemist Brotherhood - [BR] [h264 10-bit] [1080p] [FLAC 5.1] [DA](ShadyCrab)/[ShadyCrab] Fullmetal Alchemist Brotherhood - S01E08v3 [BD][1080p][Hi10][Dual][D01FD734].mkv
http://37.187.121.54:38946/Fullmetal Alchemist Brotherhood - [BR] [h264 10-bit] [1080p] [FLAC 5.1] [DA](ShadyCrab)/[ShadyCrab] Fullmetal Alchemist Brotherhood - S01E09v3 [BD][1080p][Hi10][Dual][752012ED].mkv
http://37.187.121.54:38946/Fullmetal Alchemist Brotherhood - [BR] [h264 10-bit] [1080p] [FLAC 5.1] [DA](ShadyCrab)/[ShadyCrab] Fullmetal Alchemist Brotherhood - S01E10 [BD][1080p][Hi10][Dual][930571DB].mkv
http://37.187.121.54:38946/Fullmetal Alchemist Brotherhood - [BR] [h264 10-bit] [1080p] [FLAC 5.1] [DA](ShadyCrab)/[ShadyCrab] Fullmetal Alchemist Brotherhood - S01E11 [BD][1080p][Hi10][Dual][5B125E81].mkv
http://37.187.121.54:38946/Fullmetal Alchemist Brotherhood - [BR] [h264 10-bit] [1080p] [FLAC 5.1] [DA](ShadyCrab)/[ShadyCrab] Fullmetal Alchemist Brotherhood - S01E12 [BD][1080p][Hi10][Dual][83FF5477].mkv
http://37.187.121.54:38946/Fullmetal Alchemist Brotherhood - [BR] [h264 10-bit] [1080p] [FLAC 5.1] [DA](ShadyCrab)/[ShadyCrab] Fullmetal Alchemist Brotherhood - S01E13 [BD][1080p][Hi10][Dual][3BFB2B6D].mkv
http://37.187.121.54:38946/Fullmetal Alchemist Brotherhood - [BR] [h264 10-bit] [1080p] [FLAC 5.1] [DA](ShadyCrab)/[ShadyCrab] Fullmetal Alchemist Brotherhood - S01E14 [BD][1080p][Hi10][Dual][9E797E13].mkv
http://37.187.121.54:38946/Fullmetal Alchemist Brotherhood - [BR] [h264 10-bit] [1080p] [FLAC 5.1] [DA](ShadyCrab)/[ShadyCrab] Fullmetal Alchemist Brotherhood - S01E15 [BD][1080p][Hi10][Dual][35529331].mkv
http://37.187.121.54:38946/Fullmetal Alchemist Brotherhood - [BR] [h264 10-bit] [1080p] [FLAC 5.1] [DA](ShadyCrab)/[ShadyCrab] Fullmetal Alchemist Brotherhood - S01E16 [BD][1080p][Hi10][Dual][5EA5B15C].mkv
http://37.187.121.54:38946/Fullmetal Alchemist Brotherhood - [BR] [h264 10-bit] [1080p] [FLAC 5.1] [DA](ShadyCrab)/[ShadyCrab] Fullmetal Alchemist Brotherhood - S01E17 [BD][1080p][Hi10][Dual][88D2C46E].mkv
http://37.187.121.54:38946/Fullmetal Alchemist Brotherhood - [BR] [h264 10-bit] [1080p] [FLAC 5.1] [DA](ShadyCrab)/[ShadyCrab] Fullmetal Alchemist Brotherhood - S01E18 [BD][1080p][Hi10][Dual][E82E620F].mkv
http://37.187.121.54:38946/Fullmetal Alchemist Brotherhood - [BR] [h264 10-bit] [1080p] [FLAC 5.1] [DA](ShadyCrab)/[ShadyCrab] Fullmetal Alchemist Brotherhood - S01E19 [BD][1080p][Hi10][Dual][8C74C420].mkv
http://37.187.121.54:38946/Fullmetal Alchemist Brotherhood - [BR] [h264 10-bit] [1080p] [FLAC 5.1] [DA](ShadyCrab)/[ShadyCrab] Fullmetal Alchemist Brotherhood - S01E20 [BD][1080p][Hi10][Dual][739CC50E].mkv
http://37.187.121.54:38946/Fullmetal Alchemist Brotherhood - [BR] [h264 10-bit] [1080p] [FLAC 5.1] [DA](ShadyCrab)/[ShadyCrab] Fullmetal Alchemist Brotherhood - S01E21 [BD][1080p][Hi10][Dual][7A275B36].mkv
http://37.187.121.54:38946/Fullmetal Alchemist Brotherhood - [BR] [h264 10-bit] [1080p] [FLAC 5.1] [DA](ShadyCrab)/[ShadyCrab] Fullmetal Alchemist Brotherhood - S01E22 [BD][1080p][Hi10][Dual][1A475014].mkv
http://37.187.121.54:38946/Fullmetal Alchemist Brotherhood - [BR] [h264 10-bit] [1080p] [FLAC 5.1] [DA](ShadyCrab)/[ShadyCrab] Fullmetal Alchemist Brotherhood - S01E23 [BD][1080p][Hi10][Dual][EE50666D].mkv
http://37.187.121.54:38946/Fullmetal Alchemist Brotherhood - [BR] [h264 10-bit] [1080p] [FLAC 5.1] [DA](ShadyCrab)/[ShadyCrab] Fullmetal Alchemist Brotherhood - S01E24 [BD][1080p][Hi10][Dual][16E26584].mkv
http://37.187.121.54:38946/Fullmetal Alchemist Brotherhood - [BR] [h264 10-bit] [1080p] [FLAC 5.1] [DA](ShadyCrab)/[ShadyCrab] Fullmetal Alchemist Brotherhood - S01E25 [BD][1080p][Hi10][Dual][3CA5CFDB].mkv
http://37.187.121.54:38946/Fullmetal Alchemist Brotherhood - [BR] [h264 10-bit] [1080p] [FLAC 5.1] [DA](ShadyCrab)/[ShadyCrab] Fullmetal Alchemist Brotherhood - S01E26 [BD][1080p][Hi10][Dual][1F54DB46].mkv
http://37.187.121.54:38946/Fullmetal Alchemist Brotherhood - [BR] [h264 10-bit] [1080p] [FLAC 5.1] [DA](ShadyCrab)/[ShadyCrab] Fullmetal Alchemist Brotherhood - S01E27 [BD][1080p][Hi10][Dual][41C99975].mkv
http://37.187.121.54:38946/Fullmetal Alchemist Brotherhood - [BR] [h264 10-bit] [1080p] [FLAC 5.1] [DA](ShadyCrab)/[ShadyCrab] Fullmetal Alchemist Brotherhood - S01E28 [BD][1080p][Hi10][Dual][79C13EE0].mkv
http://37.187.121.54:38946/Fullmetal Alchemist Brotherhood - [BR] [h264 10-bit] [1080p] [FLAC 5.1] [DA](ShadyCrab)/[ShadyCrab] Fullmetal Alchemist Brotherhood - S01E29 [BD][1080p][Hi10][Dual][88C69AC0].mkv
http://37.187.121.54:38946/Fullmetal Alchemist Brotherhood - [BR] [h264 10-bit] [1080p] [FLAC 5.1] [DA](ShadyCrab)/[ShadyCrab] Fullmetal Alchemist Brotherhood - S01E30 [BD][1080p][Hi10][Dual][B326C7F1].mkv
http://37.187.121.54:38946/Fullmetal Alchemist Brotherhood - [BR] [h264 10-bit] [1080p] [FLAC 5.1] [DA](ShadyCrab)/[ShadyCrab] Fullmetal Alchemist Brotherhood - S01E31 [BD][1080p][Hi10][Dual][2CEA8959].mkv
http://37.187.121.54:38946/Fullmetal Alchemist Brotherhood - [BR] [h264 10-bit] [1080p] [FLAC 5.1] [DA](ShadyCrab)/[ShadyCrab] Fullmetal Alchemist Brotherhood - S01E32 [BD][1080p][Hi10][Dual][735A6671].mkv
http://37.187.121.54:38946/Fullmetal Alchemist Brotherhood - [BR] [h264 10-bit] [1080p] [FLAC 5.1] [DA](ShadyCrab)/[ShadyCrab] Fullmetal Alchemist Brotherhood - S01E33 [BD][1080p][Hi10][Dual][518FCF45].mkv
http://37.187.121.54:38946/Fullmetal Alchemist Brotherhood - [BR] [h264 10-bit] [1080p] [FLAC 5.1] [DA](ShadyCrab)/[ShadyCrab] Fullmetal Alchemist Brotherhood - S01E34 [BD][1080p][Hi10][Dual][224CAE9B].mkv
http://37.187.121.54:38946/Fullmetal Alchemist Brotherhood - [BR] [h264 10-bit] [1080p] [FLAC 5.1] [DA](ShadyCrab)/[ShadyCrab] Fullmetal Alchemist Brotherhood - S01E35 [BD][1080p][Hi10][Dual][DEC8B405].mkv
http://37.187.121.54:38946/Fullmetal Alchemist Brotherhood - [BR] [h264 10-bit] [1080p] [FLAC 5.1] [DA](ShadyCrab)/[ShadyCrab] Fullmetal Alchemist Brotherhood - S01E36 [BD][1080p][Hi10][Dual][E9263139].mkv
http://37.187.121.54:38946/Fullmetal Alchemist Brotherhood - [BR] [h264 10-bit] [1080p] [FLAC 5.1] [DA](ShadyCrab)/[ShadyCrab] Fullmetal Alchemist Brotherhood - S01E37 [BD][1080p][Hi10][Dual][061F28CD].mkv
http://37.187.121.54:38946/Fullmetal Alchemist Brotherhood - [BR] [h264 10-bit] [1080p] [FLAC 5.1] [DA](ShadyCrab)/[ShadyCrab] Fullmetal Alchemist Brotherhood - S01E38 [BD][1080p][Hi10][Dual][97F5A0CF].mkv
http://37.187.121.54:38946/Fullmetal Alchemist Brotherhood - [BR] [h264 10-bit] [1080p] [FLAC 5.1] [DA](ShadyCrab)/[ShadyCrab] Fullmetal Alchemist Brotherhood - S01E39 [BD][1080p][Hi10][Dual][9B6C7842].mkv
http://37.187.121.54:38946/Fullmetal Alchemist Brotherhood - [BR] [h264 10-bit] [1080p] [FLAC 5.1] [DA](ShadyCrab)/[ShadyCrab] Fullmetal Alchemist Brotherhood - S01E40 [BD][1080p][Hi10][Dual][FA0E3308].mkv
http://37.187.121.54:38946/Fullmetal Alchemist Brotherhood - [BR] [h264 10-bit] [1080p] [FLAC 5.1] [DA](ShadyCrab)/[ShadyCrab] Fullmetal Alchemist Brotherhood - S01E41 [BD][1080p][Hi10][Dual][4A0955F2].mkv
http://37.187.121.54:38946/Fullmetal Alchemist Brotherhood - [BR] [h264 10-bit] [1080p] [FLAC 5.1] [DA](ShadyCrab)/[ShadyCrab] Fullmetal Alchemist Brotherhood - S01E42 [BD][1080p][Hi10][Dual][B2374DC7].mkv
http://37.187.121.54:38946/Fullmetal Alchemist Brotherhood - [BR] [h264 10-bit] [1080p] [FLAC 5.1] [DA](ShadyCrab)/[ShadyCrab] Fullmetal Alchemist Brotherhood - S01E43 [BD][1080p][Hi10][Dual][B51A1C06].mkv
http://37.187.121.54:38946/Fullmetal Alchemist Brotherhood - [BR] [h264 10-bit] [1080p] [FLAC 5.1] [DA](ShadyCrab)/[ShadyCrab] Fullmetal Alchemist Brotherhood - S01E44 [BD][1080p][Hi10][Dual][0EDEF49F].mkv
http://37.187.121.54:38946/Fullmetal Alchemist Brotherhood - [BR] [h264 10-bit] [1080p] [FLAC 5.1] [DA](ShadyCrab)/[ShadyCrab] Fullmetal Alchemist Brotherhood - S01E45 [BD][1080p][Hi10][Dual][6EF01E9F].mkv
http://37.187.121.54:38946/Fullmetal Alchemist Brotherhood - [BR] [h264 10-bit] [1080p] [FLAC 5.1] [DA](ShadyCrab)/[ShadyCrab] Fullmetal Alchemist Brotherhood - S01E46 [BD][1080p][Hi10][Dual][9A7A44BA].mkv
http://37.187.121.54:38946/Fullmetal Alchemist Brotherhood - [BR] [h264 10-bit] [1080p] [FLAC 5.1] [DA](ShadyCrab)/[ShadyCrab] Fullmetal Alchemist Brotherhood - S01E47 [BD][1080p][Hi10][Dual][65DA65CE].mkv
http://37.187.121.54:38946/Fullmetal Alchemist Brotherhood - [BR] [h264 10-bit] [1080p] [FLAC 5.1] [DA](ShadyCrab)/[ShadyCrab] Fullmetal Alchemist Brotherhood - S01E48 [BD][1080p][Hi10][Dual][D00E48FD].mkv
http://37.187.121.54:38946/Fullmetal Alchemist Brotherhood - [BR] [h264 10-bit] [1080p] [FLAC 5.1] [DA](ShadyCrab)/[ShadyCrab] Fullmetal Alchemist Brotherhood - S01E49 [BD][1080p][Hi10][Dual][7A16157E].mkv
http://37.187.121.54:38946/Fullmetal Alchemist Brotherhood - [BR] [h264 10-bit] [1080p] [FLAC 5.1] [DA](ShadyCrab)/[ShadyCrab] Fullmetal Alchemist Brotherhood - S01E50 [BD][1080p][Hi10][Dual][3F48749F].mkv
http://37.187.121.54:38946/Fullmetal Alchemist Brotherhood - [BR] [h264 10-bit] [1080p] [FLAC 5.1] [DA](ShadyCrab)/[ShadyCrab] Fullmetal Alchemist Brotherhood - S01E51 [BD][1080p][Hi10][Dual][10A19B27].mkv
http://37.187.121.54:38946/Fullmetal Alchemist Brotherhood - [BR] [h264 10-bit] [1080p] [FLAC 5.1] [DA](ShadyCrab)/[ShadyCrab] Fullmetal Alchemist Brotherhood - S01E52 [BD][1080p][Hi10][Dual][4A100763].mkv
http://37.187.121.54:38946/Fullmetal Alchemist Brotherhood - [BR] [h264 10-bit] [1080p] [FLAC 5.1] [DA](ShadyCrab)/[ShadyCrab] Fullmetal Alchemist Brotherhood - S01E53 [BD][1080p][Hi10][Dual][F7B490FF].mkv
http://37.187.121.54:38946/Fullmetal Alchemist Brotherhood - [BR] [h264 10-bit] [1080p] [FLAC 5.1] [DA](ShadyCrab)/[ShadyCrab] Fullmetal Alchemist Brotherhood - S01E54 [BD][1080p][Hi10][Dual][FA5624BC].mkv
http://37.187.121.54:38946/Fullmetal Alchemist Brotherhood - [BR] [h264 10-bit] [1080p] [FLAC 5.1] [DA](ShadyCrab)/[ShadyCrab] Fullmetal Alchemist Brotherhood - S01E55 [BD][1080p][Hi10][Dual][DDB96F68].mkv
http://37.187.121.54:38946/Fullmetal Alchemist Brotherhood - [BR] [h264 10-bit] [1080p] [FLAC 5.1] [DA](ShadyCrab)/[ShadyCrab] Fullmetal Alchemist Brotherhood - S01E56 [BD][1080p][Hi10][Dual][345FECB4].mkv
http://37.187.121.54:38946/Fullmetal Alchemist Brotherhood - [BR] [h264 10-bit] [1080p] [FLAC 5.1] [DA](ShadyCrab)/[ShadyCrab] Fullmetal Alchemist Brotherhood - S01E57 [BD][1080p][Hi10][Dual][2E6EBE0A].mkv
http://37.187.121.54:38946/Fullmetal Alchemist Brotherhood - [BR] [h264 10-bit] [1080p] [FLAC 5.1] [DA](ShadyCrab)/[ShadyCrab] Fullmetal Alchemist Brotherhood - S01E58 [BD][1080p][Hi10][Dual][C8009E46].mkv
http://37.187.121.54:38946/Fullmetal Alchemist Brotherhood - [BR] [h264 10-bit] [1080p] [FLAC 5.1] [DA](ShadyCrab)/[ShadyCrab] Fullmetal Alchemist Brotherhood - S01E59 [BD][1080p][Hi10][Dual][DBC6D857].mkv
http://37.187.121.54:38946/Fullmetal Alchemist Brotherhood - [BR] [h264 10-bit] [1080p] [FLAC 5.1] [DA](ShadyCrab)/[ShadyCrab] Fullmetal Alchemist Brotherhood - S01E60 [BD][1080p][Hi10][Dual][195D94A5].mkv
http://37.187.121.54:38946/Fullmetal Alchemist Brotherhood - [BR] [h264 10-bit] [1080p] [FLAC 5.1] [DA](ShadyCrab)/[ShadyCrab] Fullmetal Alchemist Brotherhood - S01E61 [BD][1080p][Hi10][Dual][CD70536A].mkv
http://37.187.121.54:38946/Fullmetal Alchemist Brotherhood - [BR] [h264 10-bit] [1080p] [FLAC 5.1] [DA](ShadyCrab)/[ShadyCrab] Fullmetal Alchemist Brotherhood - S01E62 [BD][1080p][Hi10][Dual][DB4DD519].mkv
http://37.187.121.54:38946/Fullmetal Alchemist Brotherhood - [BR] [h264 10-bit] [1080p] [FLAC 5.1] [DA](ShadyCrab)/[ShadyCrab] Fullmetal Alchemist Brotherhood - S01E63 [BD][1080p][Hi10][Dual][61E0517A].mkv
http://37.187.121.54:38946/Fullmetal Alchemist Brotherhood - [BR] [h264 10-bit] [1080p] [FLAC 5.1] [DA](ShadyCrab)/[ShadyCrab] Fullmetal Alchemist Brotherhood - S01E64 [BD][1080p][Hi10][Dual][24139F02].mkv
http://37.187.121.54:38946/Hackers.1995.1080p.BluRay.DD+5.1.x264-ZQ.mkv
http://37.187.121.54:38946/How.to.Train.Your.Dragon.2.2014.1080p.BluRay.DTS-ES.x264-NTb.mkv
http://37.187.121.54:38946/Kamikaze.Girls.2004.1080p.BluRay.x264-WiKi/Kamikaze.Girls.2004.1080p.BluRay.x264-WiKi.mkv
http://37.187.121.54:38946/Kingsman.The.Golden.Circle.2017.1080p.BluRay.DTS.x264-DON/Kingsman.The.Golden.Circle.2017.1080p.BluRay.DTS.x264-DON.mkv
http://37.187.121.54:38946/Last Exile 1080p BD Rip/[a-s]_last_exile_-_01_-_first_move__rs2_[1080p_bd-rip][4818065A].mkv
http://37.187.121.54:38946/Last Exile 1080p BD Rip/[a-s]_last_exile_-_02_-_luft_vanship__rs2_[1080p_bd-rip][DFC122D6].mkv
http://37.187.121.54:38946/Last Exile 1080p BD Rip/[a-s]_last_exile_-_03_-_transpose__rs2_[1080p_bd-rip][44B79978].mkv
http://37.187.121.54:38946/Last Exile 1080p BD Rip/[a-s]_last_exile_-_04_-_zugzwang__rs2_[1080p_bd-rip][E09897D7].mkv
http://37.187.121.54:38946/Last Exile 1080p BD Rip/[a-s]_last_exile_-_05_-_positional_play__rs2_[1080p_bd-rip][C07E145C].mkv
http://37.187.121.54:38946/Last Exile 1080p BD Rip/[a-s]_last_exile_-_06_-_arbiter_attack__rs2_[1080p_bd-rip][407AD030].mkv
http://37.187.121.54:38946/Last Exile 1080p BD Rip/[a-s]_last_exile_-_07_-_interesting_claus__rs2_[1080p_bd-rip][5AE8E91D].mkv
http://37.187.121.54:38946/Last Exile 1080p BD Rip/[a-s]_last_exile_-_08_-_takeback__rs2_[1080p_bd-rip][BE0C4019].mkv
http://37.187.121.54:38946/Last Exile 1080p BD Rip/[a-s]_last_exile_-_09_-_calculate_alex__rs2_[1080p_bd-rip][21FF0B98].mkv
http://37.187.121.54:38946/Last Exile 1080p BD Rip/[a-s]_last_exile_-_10_-_swindle__rs2_[1080p_bd-rip][13A78B61].mkv
http://37.187.121.54:38946/Last Exile 1080p BD Rip/[a-s]_last_exile_-_11_-_develop__rs2_[1080p_bd-rip][2CAACE48].mkv
http://37.187.121.54:38946/Last Exile 1080p BD Rip/[a-s]_last_exile_-_12_-_discovered_attack__rs2_[1080p_bd-rip][E7F86688].mkv
http://37.187.121.54:38946/Last Exile 1080p BD Rip/[a-s]_last_exile_-_13_-_isolated_pawn__rs2_[1080p_bd-rip][2A8CC37A].mkv
http://37.187.121.54:38946/Last Exile 1080p BD Rip/[a-s]_last_exile_-_14_-_etude_lavie__rs2_[1080p_bd-rip][DD88FC77].mkv
http://37.187.121.54:38946/Last Exile 1080p BD Rip/[a-s]_last_exile_-_15_-_fairy_chess__rs2_[1080p_bd-rip][58A78A0E].mkv
http://37.187.121.54:38946/Last Exile 1080p BD Rip/[a-s]_last_exile_-_16_-_breakthrough__rs2_[1080p_bd-rip][B392D27E].mkv
http://37.187.121.54:38946/Last Exile 1080p BD Rip/[a-s]_last_exile_-_17_-_making_material__rs2_[1080p_bd-rip][A0C77BA9].mkv
http://37.187.121.54:38946/Last Exile 1080p BD Rip/[a-s]_last_exile_-_18_-_promotion_sofia__rs2_[1080p_bd-rip][030DB244].mkv
http://37.187.121.54:38946/Last Exile 1080p BD Rip/[a-s]_last_exile_-_19_-_sicilian_defence__rs2_[1080p_bd-rip][96C7160F].mkv
http://37.187.121.54:38946/Last Exile 1080p BD Rip/[a-s]_last_exile_-_20_-_grand_stream__rs2_[1080p_bd-rip][75F0FA10].mkv
http://37.187.121.54:38946/Last Exile 1080p BD Rip/[a-s]_last_exile_-_21_-_rook_dio__rs2_[1080p_bd-rip][2F7D55DC].mkv
http://37.187.121.54:38946/Last Exile 1080p BD Rip/[a-s]_last_exile_-_22_-_queen_delfine__rs2_[1080p_bd-rip][0D520AC2].mkv
http://37.187.121.54:38946/Last Exile 1080p BD Rip/[a-s]_last_exile_-_23_-_casting_luciola__rs2_[1080p_bd-rip][7CB11D54].mkv
http://37.187.121.54:38946/Last Exile 1080p BD Rip/[a-s]_last_exile_-_24_-_sealed_move__rs2_[1080p_bd-rip][98167891].mkv
http://37.187.121.54:38946/Last Exile 1080p BD Rip/[a-s]_last_exile_-_25_-_quiet_move__rs2_[1080p_bd-rip][11D0F2E7].mkv
http://37.187.121.54:38946/Last Exile 1080p BD Rip/[a-s]_last_exile_-_26_-_resign__rs2_[1080p_bd-rip][CE0FAEF1].mkv
http://37.187.121.54:38946/Lilo&Stitch.2002.1080p.BluRay.DTS.x264-SbR.mkv
http://37.187.121.54:38946/Mission.Impossible.1996.1080p.BluRay.DTS.x264.D-Z0N3.mkv
http://37.187.121.54:38946/Mission.Impossible.II.2000.1080p.BluRay.x264-EbP/Mission.Impossible.II.2000.1080p.BluRay.x264-EbP.mkv
http://37.187.121.54:38946/Moana.2016.1080p.BluRay.DTS.x264-FTW-HD.mkv
http://37.187.121.54:38946/My_Neighbor_Totoro_(1988)_[1080p,BluRay,x264,flac]_-_THORA v2/My_Neighbor_Totoro_(1988)_[1080p,BluRay,x264,flac]_-_THORA v2.mkv
http://37.187.121.54:38946/Pirates.Of.The.Caribbean.Dead.Mans.Chest.2006.1080p.BluRay.DTS.x264-hV.mkv
http://37.187.121.54:38946/Pirates.Of.The.Caribbean.The.Curse.Of.The.Black.Pearl.2003.1080p.BluRay.DTS.x264-hV.mkv
http://37.187.121.54:38946/POTC.At.Worlds.End.2007.1080p.BluRay.DTS.x264.D-Z0N3/POTC.At.Worlds.End.2007.1080p.BluRay.DTS.x264.D-Z0N3.mkv
http://37.187.121.54:38946/promare.mkv
http://37.187.121.54:38946/Spider-Man - Into the Spider-Verse (2018) 1080p BluRay DD+7.1 x264-Chotab.mkv
http://37.187.121.54:38946/Tenet.2020.2160p.UHD.Blu-ray.Remux.HEVC.HDR.DTS-HD.MA.5.1-WB4K.mkv
http://37.187.121.54:38946/The Bourne Supremacy 2004 1080p BluRay DTS x264-DON.mkv
http://37.187.121.54:38946/The Fast and the Furious Tokyo Drift 2006 1080p BluRay DTS x264-ORiGEN.mkv
http://37.187.121.54:38946/The Italian Job 2003 1080p Blu-ray DTS x264-DON.mkv
http://37.187.121.54:38946/The.Bourne.Identity.2002.1080p.BluRay.DTS.x264.D-Z0N3.mkv
http://37.187.121.54:38946/The.Princess.Bride.1987.REMASTERED.1080p.BluRay.X264-AMIABLE.mkv
http://37.187.121.54:38946/Trigun Remastered/Trigun Clean ED.mkv
http://37.187.121.54:38946/Trigun Remastered/Trigun Clean OP.mkv
http://37.187.121.54:38946/Trigun Remastered/Trigun Ep 1 'The $$60 Billion Man' [Remastered].mkv
http://37.187.121.54:38946/Trigun Remastered/Trigun Ep 2 'Truth of Mistake' [Remastered].mkv
http://37.187.121.54:38946/Trigun Remastered/Trigun Ep 3 'Peace Maker' [Remastered].mkv
http://37.187.121.54:38946/Trigun Remastered/Trigun Ep 4 'Love & Peace' [Remastered].mkv
http://37.187.121.54:38946/Trigun Remastered/Trigun Ep 5 'Hard Puncher' [Remastered].mkv
http://37.187.121.54:38946/Trigun Remastered/Trigun Ep 6 'Lost July' [Remastered].mkv
http://37.187.121.54:38946/Trigun Remastered/Trigun Ep 7 'B.D.N. (Brilliant Dynamite Neon)' [Remastered].mkv
http://37.187.121.54:38946/Trigun Remastered/Trigun Ep 8 'And Between the Wasteland and Sky...' [Remastered]v2.mkv
http://37.187.121.54:38946/Trigun Remastered/Trigun Ep 9 'Murder Machine' [Remastered].mkv
http://37.187.121.54:38946/Trigun Remastered/Trigun Ep 10 'Quick Draw' [Remastered]v2.mkv
http://37.187.121.54:38946/Trigun Remastered/Trigun Ep 11 'Escape from Pain' [Remastered].mkv
http://37.187.121.54:38946/Trigun Remastered/Trigun Ep 12 'Diablo' [Remastered].mkv
http://37.187.121.54:38946/Trigun Remastered/Trigun Ep 13 'Vash the Stampede' [Remastered].mkv
http://37.187.121.54:38946/Trigun Remastered/Trigun Ep 14 'Little Arcadia' [Remastered].mkv
http://37.187.121.54:38946/Trigun Remastered/Trigun Ep 15 'Demon's Eye' [Remastered].mkv
http://37.187.121.54:38946/Trigun Remastered/Trigun Ep 16 'Fifth Moon' [Remastered]v2.mkv
http://37.187.121.54:38946/Trigun Remastered/Trigun Ep 17 'Rem Saverem' [Remastered]v2.mkv
http://37.187.121.54:38946/Trigun Remastered/Trigun Ep 18 'Goodbye for Now' [Remastered]v2.mkv
http://37.187.121.54:38946/Trigun Remastered/Trigun Ep 19 'Hang Fire' [Remastered].mkv
http://37.187.121.54:38946/Trigun Remastered/Trigun Ep 20 'Flying Ship' [Remastered].mkv
http://37.187.121.54:38946/Trigun Remastered/Trigun Ep 21 'Out of Time' [Remastered].mkv
http://37.187.121.54:38946/Trigun Remastered/Trigun Ep 22 'Alternative' [Remastered].mkv
http://37.187.121.54:38946/Trigun Remastered/Trigun Ep 23 'Paradise' [Remastered].mkv
http://37.187.121.54:38946/Trigun Remastered/Trigun Ep 24 'Sin' [Remastered].mkv
http://37.187.121.54:38946/Trigun Remastered/Trigun Ep 25 'Live Through' [Remastered].mkv
http://37.187.121.54:38946/Trigun Remastered/Trigun Ep 26 'Under the Sky So Blue' [Remastered].mkv
http://37.187.121.54:38946/xXx.Return.of.Xander.Cage.2017.REPACK.1080p.BluRay.DD5.1.x264-VietHD/xXx.Return.of.Xander.Cage.2017.REPACK.1080p.BluRay.DD5.1.x264-VietHD.mkv
http://37.187.121.54:38946/Zootopia.2016.1080p.BluRay.DTS.x264-TAiCHi.mkv
