http://167.114.174.132:9092/movies/batch200/A.Hologram.For.The.King.2016.720p.BluRay.x264-[YTS.AG].mp4
http://167.114.174.132:9092/movies/batch200/All.Girls.Weekend.2016.720p.BluRay.x264-[YTS.AG].mp4
http://167.114.174.132:9092/movies/batch200/Anarchy.Parlor.2015.720p.BluRay.x264-[YTS.AG].mp4
http://167.114.174.132:9092/movies/batch200/Angry.Birds.2016.720p.BluRay.x264-[YTS.AG].mp4
http://167.114.174.132:9092/movies/batch200/Bite.2015.720p.BluRay.x264-[YTS.AG].mp4
http://167.114.174.132:9092/movies/batch200/Crimson.Peak.2015.720p.BluRay.x264-[YTS.AG].mp4
http://167.114.174.132:9092/movies/batch200/Dough.2015.720p.BluRay.x264-[YTS.AG].mp4
http://167.114.174.132:9092/movies/batch200/God's.Not.Dead.2.2016.720p.BluRay.x264-[YTS.AG].mp4
http://167.114.174.132:9092/movies/batch200/Larry.Gaye.Renegade.Male.Flight.Attendant.2015.720p.BluRay.x264-[YTS.AG].mp4
http://167.114.174.132:9092/movies/batch200/Pele.Birth.Of.A.Legend.2016.720p.BluRay.x264-[YTS.AG].mp4
http://167.114.174.132:9092/movies/batch200/River.2015.720p.BluRay.x264-[YTS.AG].mp4
http://167.114.174.132:9092/movies/batch200/Summer.Camp.2015.720p.BluRay.x264-[YTS.AG].mp4
http://167.114.174.132:9092/movies/batch200/The.Huntsman.Winter's.War.2016.720p.BluRay.x264-[YTS.AG].mp4
http://167.114.174.132:9092/movies/batch200/The.Wild.Life.2016.720p.BluRay.x264-[YTS.AG].mp4
http://167.114.174.132:9092/movies/batch200/Traded.2016.720p.BluRay.x264-[YTS.AG].mp4
http://167.114.174.132:9092/movies/batch201/Bastille.Day.2016.720p.BluRay.x264-[YTS.AG].mp4
http://167.114.174.132:9092/movies/batch201/Before.I.Wake.2016.720p.BluRay.x264-[YTS.AG].mp4
http://167.114.174.132:9092/movies/batch201/Cell.2016.720p.BluRay.x264-[YTS.AG].mp4
http://167.114.174.132:9092/movies/batch201/Darkest.Day.2015.720p.BluRay.x264-[YTS.AG].mp4
http://167.114.174.132:9092/movies/batch201/Endgame.2015.720p.BluRay.x264-[YTS.AG].mp4
http://167.114.174.132:9092/movies/batch201/Lazer.Team.2015.720p.BluRay.x264-[YTS.AG].mp4
http://167.114.174.132:9092/movies/batch201/Me.Before.You.2016.720p.BluRay.x264-[YTS.AG].mp4
http://167.114.174.132:9092/movies/batch201/Money.Monster.2016.720p.BluRay.x264-[YTS.AG].mp4
http://167.114.174.132:9092/movies/batch201/Neighbors.2.Sorority.Rising.2016.720p.BluRay.x264-[YTS.AG].mp4
http://167.114.174.132:9092/movies/batch201/Now.You.See.Me.2.2016.720p.BluRay.x264-[YTS.AG].mp4
http://167.114.174.132:9092/movies/batch201/Ratchet.&.Clank.2016.720p.BluRay.x264-[YTS.AG].mp4
http://167.114.174.132:9092/movies/batch201/Southbound.2015.720p.BluRay.x264-[YTS.AG].mp4
http://167.114.174.132:9092/movies/batch201/The.Binding.2015.720p.BluRay.x264-[YTS.AG].mp4
http://167.114.174.132:9092/movies/batch201/The.Duel.2016.720p.BluRay.x264-[YTS.AG].mp4
http://167.114.174.132:9092/movies/batch201/The.Man.Who.Knew.Infinity.2015.720p.BluRay.x264-[YTS.AG].mp4
http://167.114.174.132:9092/movies/batch201/The.Nice.Guys.2016.720p.BluRay.x264-[YTS.AG].mp4
http://167.114.174.132:9092/movies/batch201/Urge.2016.720p.BluRay.x264-[YTS.AG].mp4
http://167.114.174.132:9092/movies/batch202/A.Sunday.Horse.2015.720p.BluRay.x264-[YTS.AG].mp4
http://167.114.174.132:9092/movies/batch202/Captain.America.Civil.War.2016.720p.BluRay.x264-[YTS.AG].mp4
http://167.114.174.132:9092/movies/batch202/Equals.2015.720p.BluRay.x264-[YTS.AG].mp4
http://167.114.174.132:9092/movies/batch202/Hard.Target.2.2016.720p.BluRay.x264-[YTS.AG].mp4
http://167.114.174.132:9092/movies/batch202/Septembers.Of.Shiraz.2015.720p.BluRay.x264-[YTS.AG].mp4
http://167.114.174.132:9092/movies/batch202/The.Conjuring.2.2016.720p.BluRay.x264-[YTS.AG].mp4
http://167.114.174.132:9092/movies/batch202/The.Darkness.2016.720p.BluRay.x264-[YTS.AG].mp4
http://167.114.174.132:9092/movies/batch202/The.Offering.2016.720p.BluRay.x264-[YTS.AG].mp4
http://167.114.174.132:9092/movies/batch202/The.Purge.2013.720p.BluRay.x264.YIFY.mp4
http://167.114.174.132:9092/movies/batch202/The.Purge.Election.Year.2016.HC.720p.HDRiP.900MB.ShAaNiG.mkv
http://167.114.174.132:9092/movies/batch202/Wiener-Dog.2016.720p.BluRay.x264-[YTS.AG].mp4
http://167.114.174.132:9092/movies/batch203/A.Haunting.In.Cawdor.2015.720p.BluRay.x264-[YTS.AG].mp4
http://167.114.174.132:9092/movies/batch203/All.The.Way.2016.720p.BluRay.x264-[YTS.AG].mp4
http://167.114.174.132:9092/movies/batch203/Florence.Foster.Jenkins.2016.720p.BluRay.x264-[YTS.AG].mp4
http://167.114.174.132:9092/movies/batch203/Landmine.Goes.Click.2015.720p.BluRay.x264-[YTS.AG].mp4
http://167.114.174.132:9092/movies/batch203/Love.&.Friendship.2016.720p.BluRay.x264-[YTS.AG].mp4
http://167.114.174.132:9092/movies/batch203/Marauders.2016.720p.BluRay.x264-[YTS.AG].mp4
http://167.114.174.132:9092/movies/batch203/Our.Kind.Of.Traitor.2016.720p.BluRay.x264-[YTS.AG].mp4
http://167.114.174.132:9092/movies/batch203/Popstar.Never.Stop.Never.Stopping.2016.720p.BluRay.x264-[YTS.AG].mp4
http://167.114.174.132:9092/movies/batch203/Teenage.Mutant.Ninja.Turtles.Out.Of.The.Shadows.mp4
http://167.114.174.132:9092/movies/batch203/The.Meddler.2015.720p.BluRay.x264-[YTS.AG].mp4
http://167.114.174.132:9092/movies/batch203/The.Ones.Below.2015.720p.BluRay.x264-[YTS.AG].mp4
http://167.114.174.132:9092/movies/batch203/The.Phenom.2016.720p.BluRay.x264-[YTS.AG].mp4
http://167.114.174.132:9092/movies/batch203/The.Sea.Of.Trees.2015.720p.BluRay.x264-[YTS.AG].mp4
http://167.114.174.132:9092/movies/batch203/Warcraft.2016.720p.BluRay.x264-[YTS.AG].mp4
http://167.114.174.132:9092/movies/batch203/What.Happened,.Miss.Simone.2015.720p.BluRay.x264-[YTS.AG].mp4
http://167.114.174.132:9092/movies/batch203/X-Men.Apocalypse.2016.720p.BluRay.x264-[YTS.AG].mp4
http://167.114.174.132:9092/movies/batch204/Alleycats.2016.720p.BluRay.x264-[YTS.AG].mp4
http://167.114.174.132:9092/movies/batch204/Café.Society.2016.720p.BluRay.x264-[YTS.AG].mp4
http://167.114.174.132:9092/movies/batch204/Finding.Altamira.2016.720p.BluRay.x264-[YTS.AG].mp4
http://167.114.174.132:9092/movies/batch204/Friend.Request.2016.720p.BluRay.x264-[YTS.AG].mp4
http://167.114.174.132:9092/movies/batch204/The.Fits.2015.720p.BluRay.x264-[YTS.AG].mp4
http://167.114.174.132:9092/movies/batch204/The.Shallows.2016.720p.BluRay.x264-[YTS.AG].mp4
http://167.114.174.132:9092/movies/Batch205/Abattoir.2016.720p.BluRay.x264-[YTS.AG].mp4
http://167.114.174.132:9092/movies/Batch205/Blackfish.2013.720p.BluRay.x264-[YTS.AG].mp4
http://167.114.174.132:9092/movies/Batch205/Dead.Snow.2.Red.Vs..Dead.2014.720p.BluRay.x264-[YTS.AG].mp4
http://167.114.174.132:9092/movies/Batch205/Hunt.For.The.Wilderpeople.2016.720p.BluRay.x264-[YTS.AG].mp4
http://167.114.174.132:9092/movies/Batch205/Kingsglaive.Final.Fantasy.XV.2016.720p.BluRay.x264-[YTS.AG].mp4
http://167.114.174.132:9092/movies/Batch205/Laid.In.America.2016.720p.BluRay.x264-[YTS.AG].mp4
http://167.114.174.132:9092/movies/Batch205/Level.Up.2016.720p.BluRay.x264-[YTS.AG].mp4
http://167.114.174.132:9092/movies/Batch205/Neverland.2011.720p.BluRay.x264-[YTS.AG].mp4
http://167.114.174.132:9092/movies/Batch205/Night.Of.The.Living.Deb.2015.720p.BluRay.x264-[YTS.AG].mp4
http://167.114.174.132:9092/movies/Batch205/Nina.2016.720p.BluRay.x264-[YTS.AG].mp4
http://167.114.174.132:9092/movies/Batch205/Sacrifice.2016.720p.BluRay.x264-[YTS.AG].mp4
http://167.114.174.132:9092/movies/Batch205/Swiss.Army.Man.2016.720p.BluRay.x264-[YTS.AG].mp4
http://167.114.174.132:9092/movies/Batch205/The.Neon.Demon.2016.720p.BluRay.x264-[YTS.AG].mp4
http://167.114.174.132:9092/movies/Batch206/Agoraphobia.2015.720p.BluRay.x264-[YTS.AG].mp4
http://167.114.174.132:9092/movies/Batch206/Alice.Through.The.Looking.Glass.2016.720p.BluRay.x264-[YTS.AG].mp4
http://167.114.174.132:9092/movies/Batch206/All.Roads.Lead.To.Rome.2015.720p.BluRay.x264-[YTS.AG].mp4
http://167.114.174.132:9092/movies/Batch206/Captain.Sparky.Vs..The.Flying.Saucers.2013.720p.BluRay.x264-[YTS.AG].mp4
http://167.114.174.132:9092/movies/Batch206/Ghostbusters.2016.720p.BluRay.x264-[YTS.AG].mp4
http://167.114.174.132:9092/movies/Batch206/Guns.For.Hire.2015.720p.BluRay.x264-[YTS.AG].mp4
http://167.114.174.132:9092/movies/Batch206/Ice.Age.Collision.Course.2016.720p.BluRay.x264-[YTS.AG].mp4
http://167.114.174.132:9092/movies/Batch206/Joshy.2016.720p.BluRay.x264-[YTS.AG].mp4
http://167.114.174.132:9092/movies/Batch206/Mike.And.Dave.Need.Wedding.Dates.2016.720p.BluRay.x264-[YTS.AG].mp4
http://167.114.174.132:9092/movies/Batch206/Satanic.2016.720p.BluRay.x264-[YTS.AG].mp4
http://167.114.174.132:9092/movies/Batch206/The.Infiltrator.2016.720p.BluRay.x264-[YTS.AG].mp4
http://167.114.174.132:9092/movies/Batch206/The.Mind's.Eye.2015.720p.BluRay.x264-[YTS.AG].mp4
http://167.114.174.132:9092/movies/Batch206/The.Purge.Election.Year.2016.720p.BluRay.x264-[YTS.AG].mp4
http://167.114.174.132:9092/movies/Batch207/AmeriGeddon.2016.720p.BluRay.x264-[YTS.AG].mp4
http://167.114.174.132:9092/movies/Batch207/Blood.Father.2016.720p.BluRay.x264-[YTS.AG].mp4
http://167.114.174.132:9092/movies/Batch207/Independenc1a.1080p.Latino.mkv
http://167.114.174.132:9092/movies/Batch207/Independence.Day.Resurgence.2016.720p.BluRay.x264-[YTS.AG].mp4
http://167.114.174.132:9092/movies/Batch207/The.Da.Vinci.Code.2006.720p.EXTENDED.x264.mkv
http://167.114.174.132:9092/movies/Batch207/The.Hollow.2015.720p.BluRay.x264-[YTS.AG].mp4
http://167.114.174.132:9092/movies/Batch207/We.Are.Many.2014.720p.BluRay.x264-[YTS.AG].mp4
http://167.114.174.132:9092/movies/batch208/Anthropoid.2016.720p.BluRay.x264-[YTS.AG].mp4
http://167.114.174.132:9092/movies/batch208/Bad.Moms.2016.720p.BluRay.x264-[YTS.AG].mp4
http://167.114.174.132:9092/movies/batch208/Behemoth.2011.720p.BluRay.x264-[YTS.AG].mp4
http://167.114.174.132:9092/movies/batch208/Bleeding.Heart.2015.720p.BluRay.x264-[YTS.AG].mp4
http://167.114.174.132:9092/movies/batch208/Cut.Snake.2014.720p.BluRay.x264-[YTS.AG].mp4
http://167.114.174.132:9092/movies/batch208/Dead.7.2016.720p.BluRay.x264-[YTS.AG].mp4
http://167.114.174.132:9092/movies/batch208/Garfields.Pet.Force.2009.720p.BluRay.x264-[YTS.AG].mp4
http://167.114.174.132:9092/movies/batch208/Imperium.2016.720p.BluRay.x264-[YTS.AG].mp4
http://167.114.174.132:9092/movies/batch208/Lea.To.The.Rescue.2016.720p.BluRay.x264-[YTS.AG].mp4
http://167.114.174.132:9092/movies/batch208/Lights.Out.2016.720p.BluRay.x264-[YTS.AG].mp4
http://167.114.174.132:9092/movies/batch208/Lost.Wilderness.2015.720p.BluRay.x264-[YTS.AG].mp4
http://167.114.174.132:9092/movies/batch208/Mega.Python.Vs..Gatoroid.2011.720p.BluRay.x264-[YTS.AG].mp4
http://167.114.174.132:9092/movies/batch208/Mr..Church.2016.720p.BluRay.x264-[YTS.AG].mp4
http://167.114.174.132:9092/movies/batch208/Nerve.2016.720p.BluRay.x264-[YTS.AG].mp4
http://167.114.174.132:9092/movies/batch208/Nine.Lives.2016.720p.BluRay.x264-[YTS.AG].mp4
http://167.114.174.132:9092/movies/batch208/Sausage.Party.2016.720p.BluRay.x264-[YTS.AG].mp4
http://167.114.174.132:9092/movies/batch208/Skiptrace.2016.720p.BluRay.x264-[YTS.AG].mp4
http://167.114.174.132:9092/movies/batch208/Star.Trek.Beyond.2016.720p.BluRay.x264-[YTS.AG].mp4
http://167.114.174.132:9092/movies/batch208/The.Black.Water.Vampire.2014.720p.BluRay.x264-[YTS.AG].mp4
http://167.114.174.132:9092/movies/batch208/The.Dead.Room.2015.720p.BluRay.x264-[YTS.AG].mp4
http://167.114.174.132:9092/movies/batch208/Two.Much.1996.720p.BluRay.x264-[YTS.AG].mp4
http://167.114.174.132:9092/movies/batch209/American.Conjuring.2016.720p.BluRay.x264-[YTS.AG].mp4
http://167.114.174.132:9092/movies/batch209/Angels.&.Demons.2009.720p.BrRip.x264.YIFY+HI.mp4
http://167.114.174.132:9092/movies/batch209/Army.Of.One.2016.720p.BluRay.x264-[YTS.AG].mp4
http://167.114.174.132:9092/movies/batch209/Finding.Dory.2016.720p.BluRay.x264-[YTS.AG].mp4
http://167.114.174.132:9092/movies/batch209/Forsaken.2016.720p.BluRay.x264-[YTS.AG].mp4
http://167.114.174.132:9092/movies/batch209/I.T..2016.720p.BluRay.x264-[YTS.AG].mp4
http://167.114.174.132:9092/movies/batch209/Indignation.2016.720p.BluRay.x264-[YTS.AG].mp4
http://167.114.174.132:9092/movies/batch209/Kickboxer.Vengeance.2016.720p.BluRay.x264-[YTS.AG].mp4
http://167.114.174.132:9092/movies/batch209/The.Hollow.2016.720p.BluRay.x264-[YTS.AG].mp4
http://167.114.174.132:9092/movies/batch210/Already.Tomorrow.In.Hong.Kong.2015.720p.BluRay.x264-[YTS.AG].mp4
http://167.114.174.132:9092/movies/batch210/Carnage.Park.2016.720p.BluRay.x264-[YTS.AG].mp4
http://167.114.174.132:9092/movies/batch210/Fourth.Man.Out.2015.720p.BluRay.x264-[YTS.AG].mp4
http://167.114.174.132:9092/movies/batch210/Genius.2016.720p.BluRay.x264-[YTS.AG].mp4
http://167.114.174.132:9092/movies/batch210/Hands.Of.Stone.2016.720p.BluRay.x264-[YTS.AG].mp4
http://167.114.174.132:9092/movies/batch210/Hell.Or.High.Water.2016.720p.BluRay.x264-[YTS.AG].mp4
http://167.114.174.132:9092/movies/batch210/Kubo.And.The.Two.Strings.2016.720p.BluRay.x264-[YTS.AG].mp4
http://167.114.174.132:9092/movies/batch210/Mechanic.Resurrection.2016.720p.BluRay.x264-[YTS.AG].mp4
http://167.114.174.132:9092/movies/batch210/Mothers.And.Daughters.2016.720p.BluRay.x264-[YTS.AG].mp4
http://167.114.174.132:9092/movies/batch210/Oasis.Supersonic.2016.720p.BluRay.x264-[YTS.AG].mp4
http://167.114.174.132:9092/movies/batch210/Scrat.Spaced.Out.2016.720p.BluRay.x264-[YTS.AG].mp4
http://167.114.174.132:9092/movies/batch210/The.Dark.Knight.2008.720p.BluRay.x264.YIFY.mp4
http://167.114.174.132:9092/movies/batch210/The.Perfect.Weapon.2016.720p.BluRay.x264-[YTS.AG].mp4
http://167.114.174.132:9092/movies/batch210/The.Secret.Life.Of.Pets.2016.720p.BluRay.x264-[YTS.AG].mp4
http://167.114.174.132:9092/movies/batch210/War.Dogs.2016.720p.BluRay.x264-[YTS.AG].mp4
http://167.114.174.132:9092/movies/Batch211/Absolutely.Fabulous.The.Movie.2016.720p.BluRay.x264-[YTS.AG].mp4
http://167.114.174.132:9092/movies/Batch211/Addicted.To.Fresno.2015.720p.BluRay.x264-[YTS.AG].mp4
http://167.114.174.132:9092/movies/Batch211/Being.Charlie.2015.720p.BluRay.x264-[YTS.AG].mp4
http://167.114.174.132:9092/movies/Batch211/Ben-Hur.2016.720p.BluRay.x264-[YTS.AG].mp4
http://167.114.174.132:9092/movies/Batch211/Cardboard.Boxer.2016.720p.BluRay.x264-[YTS.AG].mp4
http://167.114.174.132:9092/movies/Batch211/Dont.Breathe.2016.720p.BluRay.x264-[YTS.AG].mp4
http://167.114.174.132:9092/movies/Batch211/Dont.Think.Twice.2016.720p.BluRay.x264-[YTS.AG].mp4
http://167.114.174.132:9092/movies/Batch211/High.Strung.2016.720p.BluRay.x264-[YTS.AG].mp4
http://167.114.174.132:9092/movies/Batch211/Jason.Bourne.2016.720p.BluRay.x264-[YTS.AG].mp4
http://167.114.174.132:9092/movies/Batch211/Morris.From.America.2016.720p.BluRay.x264-[YTS.AG].mp4
http://167.114.174.132:9092/movies/Batch211/Outlaws.And.Angels.2016.720p.BluRay.x264-[YTS.AG].mp4
http://167.114.174.132:9092/movies/Batch211/Petes.Dragon.2016.720p.BluRay.x264-[YTS.AG].mp4
http://167.114.174.132:9092/movies/Batch211/Suicide.Squad.2016.720p.BluRay.x264-[YTS.AG].mp4
http://167.114.174.132:9092/movies/Batch211/The.BFG.2016.720p.BluRay.x264-[YTS.AG].mp4
http://167.114.174.132:9092/movies/Batch211/The.Great.Gilly.Hopkins.2016.720p.BluRay.x264-[YTS.AG].mp4
http://167.114.174.132:9092/movies/Batch211/The.Neighbor.2016.720p.BluRay.x264-[YTS.AG].mp4
http://167.114.174.132:9092/movies/Batch211/The.Remains.2016.720p.BluRay.x264-[YTS.AG].mp4
http://167.114.174.132:9092/movies/Batch211/The.Whole.Truth.2016.720p.BluRay.x264-[YTS.AG].mp4
http://167.114.174.132:9092/movies/Batch212/Bridget.Jones's.Baby.2016.720p.BluRay.x264-[YTS.AG].mp4
http://167.114.174.132:9092/movies/Batch212/Eliminators.2016.720p.BluRay.x264-[YTS.AG].mp4
http://167.114.174.132:9092/movies/Batch212/I.Am.Bolt.2016.720p.BluRay.x264-[YTS.AG].mp4
http://167.114.174.132:9092/movies/Batch212/Miss.Peregrine's.Home.For.Peculiar.Children.2016.720p.BluRay.x264-[YTS.AG].mp4
http://167.114.174.132:9092/movies/Batch212/Morgan.2016.720p.BluRay.x264-[YTS.AG].mp4
http://167.114.174.132:9092/movies/Batch212/Ordinary.World.2016.720p.BluRay.x264-[YTS.AG].mp4
http://167.114.174.132:9092/movies/Batch212/Southside.With.You.2016.720p.BluRay.x264-[YTS.AG].mp4
http://167.114.174.132:9092/movies/Batch212/Storks.2016.720p.BluRay.x264-[YTS.AG].mp4
http://167.114.174.132:9092/movies/Batch212/Sully.2016.720p.BluRay.x264-[YTS.AG].mp4
http://167.114.174.132:9092/movies/Batch213/For.The.Love.Of.Spock.2016.720p.BluRay.x264-[YTS.AG].mp4
http://167.114.174.132:9092/movies/Batch213/Krampus.The.Devil.Returns.2016.720p.BluRay.x264-[YTS.AG].mp4
http://167.114.174.132:9092/movies/Batch213/Snowden.2016.720p.BluRay.x264-[YTS.AG].mp4
http://167.114.174.132:9092/movies/Batch213/The.Fourth.Phase.2016.720p.BluRay.x264-[YTS.AG].mp4
http://167.114.174.132:9092/movies/Batch213/The.Magnificent.Seven.2016.720p.BluRay.x264-[YTS.AG].mp4
http://167.114.174.132:9092/movies/Batch214/31.2016.720p.BluRay.x264-[YTS.AG].mp4
http://167.114.174.132:9092/movies/Batch214/American.Honey.2016.720p.BluRay.x264-[YTS.AG].mp4
http://167.114.174.132:9092/movies/Batch214/Blair.Witch.2016.720p.BluRay.x264-[YTS.AG].mp4
http://167.114.174.132:9092/movies/Batch214/Denial.2016.720p.BluRay.x264-[YTS.AG].mp4
http://167.114.174.132:9092/movies/Batch214/Dog.Eat.Dog.2016.720p.BluRay.x264-[YTS.AG].mp4
http://167.114.174.132:9092/movies/Batch214/Fender.Bender.2016.720p.BluRay.x264-[YTS.AG].mp4
http://167.114.174.132:9092/movies/Batch214/I.Am.Not.A.Serial.Killer.2016.720p.BluRay.x264-[YTS.AG].mp4
http://167.114.174.132:9092/movies/Batch214/In.A.Valley.Of.Violence.2016.720p.BluRay.x264-[YTS.AG].mp4
http://167.114.174.132:9092/movies/Batch214/Middle.School.The.Worst.Years.Of.My.Life.2016.720p.BluRay.x264-[YTS.AG].mp4
http://167.114.174.132:9092/movies/Batch214/Train.To.Busan.2016.720p.BluRay.x264-[YTS.AG].mp4
http://167.114.174.132:9092/movies/Batch214/When.The.Bough.Breaks.2016.720p.BluRay.x264-[YTS.AG].mp4
http://167.114.174.132:9092/movies/Batch214/WHOAMI.mkv
http://167.114.174.132:9092/movies/batch215/4ll3nd3-dvdrlat-posteadorx.mp4
http://167.114.174.132:9092/movies/batch215/Collide.2016.720p.BluRay.x264-[YTS.AG].mp4
http://167.114.174.132:9092/movies/batch215/Deepwater.Horizon.2016.720p.BluRay.x264-[YTS.AG].mp4
http://167.114.174.132:9092/movies/batch215/Kevin.Hart.What.Now.2016.720p.BluRay.x264-[YTS.AG].mp4
http://167.114.174.132:9092/movies/batch215/Lets.Be.Evil.2016.720p.BluRay.x264-[YTS.AG].mp4
http://167.114.174.132:9092/movies/batch215/Max.Steel.2016.720p.BluRay.x264-[YTS.AG].mp4
http://167.114.174.132:9092/movies/batch215/The.Accountant.2016.720p.BluRay.x264-[YTS.AG].mp4
http://167.114.174.132:9092/movies/batch215/The.Birth.Of.A.Nation.2016.720p.BluRay.x264-[YTS.AG].mp4
http://167.114.174.132:9092/movies/batch216/3 Idiots 2009 720p BluRay x264 Hindi AAC - Ozlem.mp4
http://167.114.174.132:9092/movies/batch216/Baked.In.Brooklyn.2016.1080p.BluRay.x264-[YTS.AG].mp4
http://167.114.174.132:9092/movies/batch216/Death.Race.2050.2017.720p.BluRay.x264-[YTS.AG].mp4
http://167.114.174.132:9092/movies/batch216/Inferno.2016.720p.BluRay.x264-[YTS.AG].mp4
http://167.114.174.132:9092/movies/batch216/Keeping.Up.With.The.Joneses.2016.720p.BluRay.x264-[YTS.AG].mp4
http://167.114.174.132:9092/movies/batch216/Legend.of.the.Guardians.The.Owls.of.Ga.Hoole.2010.720p.BluRay.x264.YIFY.mp4
http://167.114.174.132:9092/movies/batch216/Minions.2015.720p.BluRay.x264.YIFY.[YTS.AG].mp4
http://167.114.174.132:9092/movies/batch216/Ouija.Origin.Of.Evil.2016.720p.BluRay.x264-[YTS.AG].mp4
http://167.114.174.132:9092/movies/batch216/Pandorum.2009.720p.BRRip.x264.YIFY.mkv
http://167.114.174.132:9092/movies/batch216/Phantasm.Ravager.2016.720p.BluRay.x264-[YTS.AG].mp4
http://167.114.174.132:9092/movies/batch216/Rupture.2016.720p.BluRay.x264-[YTS.AG].mp4
http://167.114.174.132:9092/movies/batch216/The.Girl.On.The.Train.2016.720p.BluRay.x264-[YTS.AG].mp4
http://167.114.174.132:9092/movies/batch216/The.Light.Between.Oceans.2016.720p.BluRay.x264-[YTS.AG].mp4
http://167.114.174.132:9092/movies/batch216/The.Mechanic.2011.BluRay.720p.BrRip.YIFY.mkv
http://167.114.174.132:9092/movies/batch216/USS.Indianapolis.Men.Of.Courage.2016.720p.BluRay.x264-[YTS.AG].mp4
http://167.114.174.132:9092/movies/BATCH217/About.Ray.2015.720p.BluRay.x264-[YTS.AG].mp4
http://167.114.174.132:9092/movies/BATCH217/Almost.Christmas.2016.720p.BluRay.x264-[YTS.AG].mp4
http://167.114.174.132:9092/movies/BATCH217/Billionaire.Ransom.2016.720p.BluRay.x264-[YTS.AG].mp4
http://167.114.174.132:9092/movies/BATCH217/Boo!.A.Madea.Halloween.2016.720p.BluRay.x264-[YTS.AG].mp4
http://167.114.174.132:9092/movies/BATCH217/Closet.Monster.2015.720p.BluRay.x264-[YTS.AG].mp4
http://167.114.174.132:9092/movies/BATCH217/Come.And.Find.Me.2016.720p.BluRay.x264-[YTS.AG].mp4
http://167.114.174.132:9092/movies/BATCH217/Gernika.2016.720p.BluRay.x264-[YTS.AG].mp4
http://167.114.174.132:9092/movies/BATCH217/Howard.Lovecraft.&.The.Frozen.Kingdom.2016.720p.BluRay.x264-[YTS.AG].mp4
http://167.114.174.132:9092/movies/BATCH217/Jack.Reacher.Never.Go.Back.2016.720p.BluRay.x264-[YTS.AG].mp4
http://167.114.174.132:9092/movies/BATCH217/Justice.League.Dark.2017.720p.BluRay.x264-[YTS.AG].mp4
http://167.114.174.132:9092/movies/BATCH217/Los Jefes (2015).mp4
http://167.114.174.132:9092/movies/BATCH217/Maigret's.Dead.Man.2016.720p.BluRay.x264-[YTS.AG].mp4
http://167.114.174.132:9092/movies/BATCH217/Masterminds.2016.720p.BluRay.x264-[YTS.AG].mp4
http://167.114.174.132:9092/movies/BATCH217/Operation.Avalanche.2016.720p.BluRay.x264-[YTS.AG].mp4
http://167.114.174.132:9092/movies/BATCH217/Queen.Of.Katwe.2016.720p.BluRay.x264-[YTS.AG].mp4
http://167.114.174.132:9092/movies/BATCH217/tengo__ganas_de_ti_pelicula_completa_en_espaol(descargaryoutube.com).mp4
http://167.114.174.132:9092/movies/BATCH217/The.Girl.With.All.The.Gifts.2016.720p.BluRay.x264-[YTS.AG].mp4
http://167.114.174.132:9092/movies/BATCH217/The.Hollow.Point.2016.720p.BluRay.x264-[YTS.AG].mp4
http://167.114.174.132:9092/movies/BATCH217/The.Monster.2016.720p.BluRay.x264-[YTS.AG].mp4
http://167.114.174.132:9092/movies/BATCH217/Trolls.2016.720p.BluRay.x264-[YTS.AG].mp4
http://167.114.174.132:9092/movies/batch218/American.Pastoral.2016.720p.BluRay.x264-[YTS.AG].mp4
http://167.114.174.132:9092/movies/batch218/Arrival.2016.720p.BluRay.x264-[YTS.AG].mp4
http://167.114.174.132:9092/movies/batch218/Billy.Lynns.Long.Halftime.Walk.2016.720p.BluRay.x264-[YTS.AG].mp4
http://167.114.174.132:9092/movies/batch218/Joyeux.Noel.2005.720p.BluRay.x264-[YTS.AG].mp4
http://167.114.174.132:9092/movies/batch218/The.9th.Life.Of.Louis.Drax.2016.720p.BluRay.x264-[YTS.AG].mp4
http://167.114.174.132:9092/movies/batch218/War.On.Everyone.2016.720p.BluRay.x264-[YTS.AG].mp4
http://167.114.174.132:9092/movies/Batch219/47 Ronin (2013)/47 Ronin (2013).mp4
http://167.114.174.132:9092/movies/Batch219/6WysSndwn/6WysSndwn.mp4
http://167.114.174.132:9092/movies/Batch219/88-021015/88-021015.mp4
http://167.114.174.132:9092/movies/Batch219/A Most Violent Year (2014)/A Most Violent Year (2014).mp4
http://167.114.174.132:9092/movies/Batch219/Absltn/Absltn.mp4
http://167.114.174.132:9092/movies/Batch219/Alien Outpost (2014)/Alien Outpost (2014).mp4
http://167.114.174.132:9092/movies/Batch219/Almost Human (2013)/Almost Human (2013).mp4
http://167.114.174.132:9092/movies/Batch219/Assassins Run (2013)/Assassins Run (2013).mp4
http://167.114.174.132:9092/movies/Batch219/AstrdFnlImpct/AstrdFnlImpct.mp4
http://167.114.174.132:9092/movies/Batch219/Attack on Titan Part 1 (2015)/Attack on Titan Part 1 (2015).mp4
http://167.114.174.132:9092/movies/Batch219/Attila (2013)/Attila (2013).mp4
http://167.114.174.132:9092/movies/Batch219/BchlrGms/BchlrGms.mp4
http://167.114.174.132:9092/movies/Batch219/BgGm072315/BgGm072315.mp4
http://167.114.174.132:9092/movies/Batch219/BlntFrcTrm/BlntFrcTrm.mp4
http://167.114.174.132:9092/movies/Batch219/Born to Race Fast Track (2014)/Born to Race Fast Track (2014).mp4
http://167.114.174.132:9092/movies/Batch219/BrdrngBdBhvr/BrdrngBdBhvr.mp4
http://167.114.174.132:9092/movies/Batch219/Brick Mansions (2014)/Brick Mansions (2014).mp4
http://167.114.174.132:9092/movies/Batch219/byntt/byntt.mp4
http://167.114.174.132:9092/movies/Batch219/Cartel Land (2015)/Cartel Land (2015).mp4
http://167.114.174.132:9092/movies/Batch219/Chain of Command (2015)/Chain of Command (2015).mp4
http://167.114.174.132:9092/movies/Batch219/Chinese Zodiac (2012)/Chinese Zodiac (2012).mp4
http://167.114.174.132:9092/movies/Batch219/CrchngTgrHddnDrgn/CrchngTgrHddnDrgn.mp4
http://167.114.174.132:9092/movies/Batch219/CrssngPnt/CrssngPnt.mp4
http://167.114.174.132:9092/movies/Batch219/Dawn of the Planet of the Apes (2014)/Dawn of the Planet of the Apes (2014).mp4
http://167.114.174.132:9092/movies/Batch219/Divergent (2014)/Divergent (2014).mp4
http://167.114.174.132:9092/movies/Batch219/DrgnBld060815/DrgnBld060815.mp4
http://167.114.174.132:9092/movies/Batch219/Drkwb/Drkwb.mp4
http://167.114.174.132:9092/movies/Batch219/Edge of Tomorrow (2014)/Edge of Tomorrow (2014).mp4
http://167.114.174.132:9092/movies/Batch219/Falcon Rising (2014)/Falcon Rising (2014).mp4
http://167.114.174.132:9092/movies/Batch219/Furious 7 (2015)/Furious 7 (2015).mp4
http://167.114.174.132:9092/movies/Batch219/Fury (2014)/Fury (2014).mp4
http://167.114.174.132:9092/movies/Batch219/Godzilla (2014)/Godzilla (2014).mp4
http://167.114.174.132:9092/movies/Batch219/Good People (2014)/Good People (2014).mp4
http://167.114.174.132:9092/movies/Batch219/Guardians of the Galaxy (2014)/Guardians of the Galaxy (2014).mp4
http://167.114.174.132:9092/movies/Batch219/Hercules (2014)/Hercules (2014).mp4
http://167.114.174.132:9092/movies/Batch219/Homefront (2013)/Homefront (2013).mp4
http://167.114.174.132:9092/movies/Batch219/I, Frankenstein (2014)/I, Frankenstein (2014).mp4
http://167.114.174.132:9092/movies/Batch219/IAmWrth/IAmWrth.mp4
http://167.114.174.132:9092/movies/Batch219/In the Blood (2014)/In the Blood (2014).mp4
http://167.114.174.132:9092/movies/Batch219/InOrdrDspprnc/InOrdrDspprnc.mp4
http://167.114.174.132:9092/movies/Batch219/Into the Storm (2014)/Into the Storm (2014).mp4
http://167.114.174.132:9092/movies/Batch219/Ip Man 3 (2015)/Ip Man 3 (2015).mp4
http://167.114.174.132:9092/movies/Batch219/JhnWck124/JhnWck124.mp4
http://167.114.174.132:9092/movies/Batch219/Kite (2014)/Kite (2014).mp4
http://167.114.174.132:9092/movies/Batch219/LA Apocalypse (2014)/LA Apocalypse (2014).mp4
http://167.114.174.132:9092/movies/Batch219/la/la.mp4
http://167.114.174.132:9092/movies/Batch219/LeftAtrasNew/leftAtrasnew.mp4
http://167.114.174.132:9092/movies/Batch219/Lone Survivor (2013)/Lone Survivor (2013).mp4
http://167.114.174.132:9092/movies/Batch219/Lucy (2014)/Lucy (2014).mp4
http://167.114.174.132:9092/movies/Batch219/Maleficent (2014)/Maleficent (2014).mp4
http://167.114.174.132:9092/movies/Batch219/MnStl2013/MnStl2013.mp4
http://167.114.174.132:9092/movies/Batch219/Mojin The Lost Legend (2015)/Mojin The Lost Legend (2015).mp4
http://167.114.174.132:9092/movies/Batch219/Monk Comes Down The Mountain (2015)/Monk Comes Down The Mountain (2015).mp4
http://167.114.174.132:9092/movies/Batch219/MornEstre/MornEstre.mp4
http://167.114.174.132:9092/movies/Batch219/MrcryPlns5216/MrcryPlns5216.mp4
http://167.114.174.132:9092/movies/Batch219/Mrdr/Mrdr.mp4
http://167.114.174.132:9092/movies/Batch219/Need for Speed (2014)/Need for Speed (2014).mp4
http://167.114.174.132:9092/movies/Batch219/Noah (2014)/Noah (2014).mp4
http://167.114.174.132:9092/movies/Batch219/Non Stop (2014)/Non Stop (2014).mp4
http://167.114.174.132:9092/movies/Batch219/NTrsDd/NTrsDd.mp4
http://167.114.174.132:9092/movies/Batch219/Once Upon a Time in Brooklyn (2013)/Once Upon a Time in Brooklyn (2013).mp4
http://167.114.174.132:9092/movies/Batch219/Open Windows (2014)/Open Windows (2014).mp4
http://167.114.174.132:9092/movies/Batch219/Plastic (2014)/Plastic (2014).mp4
http://167.114.174.132:9092/movies/Batch219/Point Break (2015)/Point Break (2015).mp4
http://167.114.174.132:9092/movies/Batch219/Pompeii (2014)/Pompeii (2014).mp4
http://167.114.174.132:9092/movies/Batch219/PrcsCrg/PrcsCrg.mp4
http://167.114.174.132:9092/movies/Batch219/Prdx/Prdx.mp4
http://167.114.174.132:9092/movies/Batch219/Puncture Wounds (2014)/Puncture Wounds (2014).mp4
http://167.114.174.132:9092/movies/Batch219/Ride Along (2014)/Ride Along (2014).mp4
http://167.114.174.132:9092/movies/Batch219/Rmpg/Rmpg.mp4
http://167.114.174.132:9092/movies/Batch219/RoboCop 2014 (2014)/RoboCop 2014 (2014).mp4
http://167.114.174.132:9092/movies/Batch219/Rsh/Rsh.mp4
http://167.114.174.132:9092/movies/Batch219/RsThLgnd/RsThLgnd.mp4
http://167.114.174.132:9092/movies/Batch219/Saat po long 2 (2015)/Saat po long 2 (2015).mp4
http://167.114.174.132:9092/movies/Batch219/Sabotage (2014)/Sabotage (2014).mp4
http://167.114.174.132:9092/movies/Batch219/SknTrd061415/SknTrd061415.mp4
http://167.114.174.132:9092/movies/Batch219/SpksGrtrGd092515/SpksGrtrGd092515.mp4
http://167.114.174.132:9092/movies/Batch219/Stretch (2014)/Stretch (2014).mp4
http://167.114.174.132:9092/movies/Batch219/Tapped Out (2014)/Tapped Out (2014).mp4
http://167.114.174.132:9092/movies/Batch219/TdAsnCnnctn/TdAsnCnnctn.mp4
http://167.114.174.132:9092/movies/Batch219/TdLstHst/TdLstHst.mp4
http://167.114.174.132:9092/movies/Batch219/TdLstSurvvrsTdWll072015/TdLstSurvvrsTdWll072015.mp4
http://167.114.174.132:9092/movies/Batch219/TdMskdSnt/TdMskdSnt.mp4
http://167.114.174.132:9092/movies/Batch219/ThdeLgndHrc/ThdeLgndHrc.mp4
http://167.114.174.132:9092/movies/Batch219/The Amazing Spider Man 2 (2014)/The Amazing Spider Man 2 (2014).mp4
http://167.114.174.132:9092/movies/Batch219/The Equalizer (2014)/The Equalizer (2014).mp4
http://167.114.174.132:9092/movies/Batch219/The Escort (2015) [YTS.AG]/The.Escort.2015.720p.BluRay.x264-[YTS.AG].mp4
http://167.114.174.132:9092/movies/Batch219/The Expendables 3 (2014)/The Expendables 3 (2014).mp4
http://167.114.174.132:9092/movies/Batch219/The Human Race (2013)/The Human Race (2013).mp4
http://167.114.174.132:9092/movies/Batch219/The Last Rescue (2015)/The Last Rescue (2015).mp4
http://167.114.174.132:9092/movies/Batch219/The Maze Runner (2014)/The Maze Runner (2014).mp4
http://167.114.174.132:9092/movies/Batch219/The November Man (2014)/The November Man (2014).mp4
http://167.114.174.132:9092/movies/Batch219/The Outsider (2014)/The Outsider (2014).mp4
http://167.114.174.132:9092/movies/Batch219/The Purge Anarchy (2014)/The Purge Anarchy (2014).mp4
http://167.114.174.132:9092/movies/Batch219/The Saratov Approach (2013)/The Saratov Approach (2013).mp4
http://167.114.174.132:9092/movies/Batch219/The Wave (2015)/The Wave (2015).mp4
http://167.114.174.132:9092/movies/Batch219/TheTrust/TheTrust.mkv
http://167.114.174.132:9092/movies/Batch219/TkknKzysRng/TkknKzysRng.mp4
http://167.114.174.132:9092/movies/Batch219/Tll/Tll.mp4
http://167.114.174.132:9092/movies/Batch219/TmRsh/TmRsh.mp4
http://167.114.174.132:9092/movies/Batch219/Tokarev (2014)/Tokarev (2014).mp4
http://167.114.174.132:9092/movies/Batch219/Transformers Age of Extinction (2014)/Transformers Age of Extinction (2014).mp4
http://167.114.174.132:9092/movies/Batch219/Trpl9/Trpl9.mp4
http://167.114.174.132:9092/movies/Batch219/Trrdctyl/Trrdctyl.mp4
http://167.114.174.132:9092/movies/Batch219/Vampire Academy (2014)/Vampire Academy (2014).mp4
http://167.114.174.132:9092/movies/Batch219/Vc030315/Vc030315.mp4
http://167.114.174.132:9092/movies/Batch219/VglntDrs/VglntDrs.mp4
http://167.114.174.132:9092/movies/Batch219/VNsh/VNsh.mp4
http://167.114.174.132:9092/movies/Batch219/Wlvs/Wlvs.mp4
http://167.114.174.132:9092/movies/Batch219/Wpnzd/Wpnzd.mp4
http://167.114.174.132:9092/movies/Batch219/WrldWrZ/WrldWrZ.mp4
http://167.114.174.132:9092/movies/Batch219/X Men Days of Future Past (2014)/X Men Days of Future Past (2014).mp4
http://167.114.174.132:9092/movies/Batch219/Zero Tolerance (2015)/Zero Tolerance (2015).mp4
http://167.114.174.132:9092/movies/Batch219/Zombeavers (2014)/Zombeavers (2014).mp4
http://167.114.174.132:9092/movies/Batch220/Allied (2016) [YTS.AG]/Allied.2016.720p.BluRay.x264-[YTS.AG].mp4
http://167.114.174.132:9092/movies/Batch220/Backgammon (2015) [YTS.AG]/Backgammon.2015.720p.BluRay.x264-[YTS.AG].mp4
http://167.114.174.132:9092/movies/Batch220/Campus Code (2015) [YTS.AG]/Campus.Code.2015.720p.BluRay.x264-[YTS.AG].mp4
http://167.114.174.132:9092/movies/Batch220/Doctor Strange (2016) [YTS.AG]/Doctor.Strange.2016.720p.BluRay.x264-[YTS.AG].mp4
http://167.114.174.132:9092/movies/Batch220/GNrth/GNrth.mp4
http://167.114.174.132:9092/movies/Batch220/Ming Of Harlem Twenty One Storeys In The Air (2014) [YTS.AG]/Ming.Of.Harlem.Twenty.One.Storeys.In.The.Air.2014.720p.BluRay.x264-[YTS.AG].mp4
http://167.114.174.132:9092/movies/Batch220/Moonlight (2016) [YTS.AG]/Moonlight.2016.720p.BluRay.x264-[YTS.AG].mp4
http://167.114.174.132:9092/movies/Batch220/Mythc5TdGdSlyr/Mythc5TdGdSlyr.mp4
http://167.114.174.132:9092/movies/Batch220/Nocturnal Animals (2016) [YTS.AG]/Nocturnal.Animals.2016.720p.BluRay.x264-[YTS.AG].mp4
http://167.114.174.132:9092/movies/Batch220/Rules Don't Apply (2016) [YTS.AG]/Rules.Don't.Apply.2016.720p.BluRay.x264-[YTS.AG].mp4
http://167.114.174.132:9092/movies/Batch220/ScrtsDcptn/ScrtsDcptn.mp4
http://167.114.174.132:9092/movies/Batch220/The Dream Children (2015) [YTS.AG]/The.Dream.Children.2015.720p.BluRay.x264-[YTS.AG].mp4
http://167.114.174.132:9092/movies/Batch220/UndrwrldBldWrs/UndrwrldBldWrs.mp4
http://167.114.174.132:9092/movies/Batch220/xXxRtrnXndrCg/xXxRtrnXndrCg.mp4
http://167.114.174.132:9092/movies/Batch221/100.Streets.2016.720p.BluRay.x264-[YTS.AG].mp4
http://167.114.174.132:9092/movies/Batch221/50 sombras mas oscuras (Pelicula completa) Audio latino 2017 (312p_30fps_H264-128kbit_AAC).mp4
http://167.114.174.132:9092/movies/Batch221/Fifty.Shades.Darker.2017.HC.720p.HDRiP.950MB.ShAaNiG.mkv
http://167.114.174.132:9092/movies/Batch221/King.Cobra.2016.720p.BluRay.x264-[YTS.AG].mp4
http://167.114.174.132:9092/movies/Batch221/Moana.2016.720p.BluRay.x264-[YTS.AG].mp4
http://167.114.174.132:9092/movies/Batch221/The.Eyes.Of.My.Mother.2016.720p.BluRay.x264-[YTS.AG].mp4
http://167.114.174.132:9092/movies/batch222/A.Street.Cat.Named.Bob.2016.720p.BluRay.x264-[YTS.AG].mp4
http://167.114.174.132:9092/movies/batch222/Collateral.Beauty.2016.720p.BluRay.x264-[YTS.AG].mp4
http://167.114.174.132:9092/movies/batch222/Fantastic.Beasts.And.Where.To.Find.Them.2016.720p.BluRay.x264-[YTS.AG].mp4
http://167.114.174.132:9092/movies/batch222/I,.Daniel.Blake.2016.720p.BluRay.x264-[YTS.AG].mp4
http://167.114.174.132:9092/movies/batch222/Jackie.2016.720p.BluRay.x264-[YTS.AG].mp4
http://167.114.174.132:9092/movies/batch222/The Burma Conspiracy 2011.720p.BRRip.x264.YIFY.mp4
http://167.114.174.132:9092/movies/batch222/The.Fourth.Kind.2009.720p.BluRay.x264.YIFY.mp4
http://167.114.174.132:9092/movies/batch223/A.Kind.Of.Murder.2016.720p.BluRay.x264-[YTS.AG].mp4
http://167.114.174.132:9092/movies/batch223/End.Of.A.Gun.2016.720p.BluRay.x264-[YTS.AG].mp4
http://167.114.174.132:9092/movies/batch223/La La Land 2016 DvDScr 750 MB - iExTV.mp4
http://167.114.174.132:9092/movies/batch223/La.La.Land.2016.576p.DVDScr.x264.AC3.HQ-.MRN.mkv
http://167.114.174.132:9092/movies/batch223/Passengers.2016.720p.BluRay.x264-[YTS.AG].mp4
http://167.114.174.132:9092/movies/batch223/Pet.2016.720p.BluRay.x264-[YTS.AG].mp4
http://167.114.174.132:9092/movies/batch223/The.Windmill.2016.720p.BluRay.x264-[YTS.AG].mp4
http://167.114.174.132:9092/movies/Batch224/2.Lava.2.Lantula!.2016.720p.BluRay.x264-[YTS.AG].mp4
http://167.114.174.132:9092/movies/Batch224/Miss.Sloane.2016.720p.BluRay.x264-[YTS.AG].mp4
http://167.114.174.132:9092/movies/Batch224/The.Disappointments.Room.2016.720p.BluRay.x264-[YTS.AG].mp4
http://167.114.174.132:9092/movies/batch225/Assassin's.Creed.2016.720p.BluRay.x264-[YTS.AG].mp4
http://167.114.174.132:9092/movies/batch225/Harry Potter And The Deathly Hallows Part 1.mkv
http://167.114.174.132:9092/movies/batch225/Harry_Potter_and_the_Chamber_of_Secrets_2002.mkv
http://167.114.174.132:9092/movies/batch225/Harry_Potter_and_the_Goblet_of_Fire_2005.mkv
http://167.114.174.132:9092/movies/batch225/Harry_Potter_and_the_Half_Blood_Prince_2009.mkv
http://167.114.174.132:9092/movies/batch225/Harry_Potter_and_the_Order_of_the_Phoenix_2007.mkv
http://167.114.174.132:9092/movies/batch225/Harry_Potter_and_the_Philosophers_Stone_2001.mkv
http://167.114.174.132:9092/movies/batch225/Harry_Potter_and_the_Prisoner_of_Azkaban_2004.mkv
http://167.114.174.132:9092/movies/batch225/Harry.Potter.And.The.Deathly.Hallows.Part.2.2011.720p.BrRip.264.YIFY.mkv-muxed.mp4
http://167.114.174.132:9092/movies/batch225/Harry.Potter.And.The.Deathly.Hallows.Part.2.2011.720p.BrRip.264.YIFY.mkv-muxed.srt
http://167.114.174.132:9092/movies/batch225/Incarnate.2016.720p.BluRay.x264-[YTS.AG].mp4
http://167.114.174.132:9092/movies/batch225/Live.By.Night.2016.720p.BluRay.x264-[YTS.AG].mp4
http://167.114.174.132:9092/movies/batch225/Office.Christmas.Party.2016.720p.BluRay.x264-[YTS.AG].mp4
http://167.114.174.132:9092/movies/batch225/Pirates.of.the.Caribbean.At.Worlds.End.2007.720p.BrRip.x264.Deceit.YIFY.mp4
http://167.114.174.132:9092/movies/batch225/Pirates.of.the.Caribbean.Curse.of.the.Black.Pearl.2003.720p.BrRip.x264.Deceit.YIFY.mp4
http://167.114.174.132:9092/movies/batch225/Pirates.of.the.Caribbean.Dead.Man's.Chest.2006.720p.BrRip.x264.Deceit.YIFY.mp4
http://167.114.174.132:9092/movies/batch225/Pirates.of.the.Caribbean.On.Stranger.Tides.2011.720p.BrRip.x264.Deceit.YIFY.mp4
http://167.114.174.132:9092/movies/batch225/Sing.2016.720p.BluRay.x264-[YTS.AG].mp4
http://167.114.174.132:9092/movies/batch225/The.Love.Witch.2016.720p.BluRay.x264-[YTS.AG].mp4
http://167.114.174.132:9092/movies/Batch226/Patriots.Day.2016.720p.BluRay.x264-[YTS.AG].mp4
http://167.114.174.132:9092/movies/Batch226/Rogue.One.2016.720p.BluRay.x264-[YTS.AG].mp4
http://167.114.174.132:9092/movies/Batch226/Silence.2016.720p.BluRay.x264-[YTS.AG].mp4
http://167.114.174.132:9092/movies/Batch227/Arsenal.2017.720p.BluRay.x264-[YTS.AG].mp4
http://167.114.174.132:9092/movies/Batch227/Arthur.&.Merlin.2015.720p.BluRay.x264-[YTS.AG].mp4
http://167.114.174.132:9092/movies/Batch227/Don't.Kill.It.2016.720p.BluRay.x264-[YTS.AG].mp4
http://167.114.174.132:9092/movies/Batch227/Hidden.Figures.2016.720p.BluRay.x264-[YTS.AG].mp4
http://167.114.174.132:9092/movies/Batch227/Paterson.2016.720p.BluRay.x264-[YTS.AG].mp4
http://167.114.174.132:9092/movies/Batch227/Resident.Evil.The.Final.Chapter.2016.720p.BluRay.x264-[YTS.AG].mp4
http://167.114.174.132:9092/movies/Batch228/Monster.Trucks.2016.720p.BluRay.x264-[YTS.AG].mp4
http://167.114.174.132:9092/movies/Batch228/The.Bye.Bye.Man.2017.720p.BluRay.x264-[YTS.AG].mp4
http://167.114.174.132:9092/movies/Batch228/Vengeance.A.Love.Story.2017.720p.BluRay.x264-[YTS.AG].mp4
http://167.114.174.132:9092/movies/Batch228/Warrior's.Gate.2016.720p.BluRay.x264-[YTS.AG].mp4
http://167.114.174.132:9092/movies/Batch229/Brimstone.2016.720p.BluRay.x264-[YTS.AG].mp4
http://167.114.174.132:9092/movies/Batch229/Cool.Runnings.1993.720p.BluRay.x264-[YTS.AG].mp4
http://167.114.174.132:9092/movies/Batch229/Leap!.2016.1080p.BluRay.x264-[YTS.AG].mp4
http://167.114.174.132:9092/movies/Batch229/Lion.2016.720p.BluRay.x264-[YTS.AG].mp4
http://167.114.174.132:9092/movies/Batch229/Mine.2016.720p.BluRay.x264-[YTS.AG].mp4
http://167.114.174.132:9092/movies/Batch229/Sleepless.2017.720p.BluRay.x264-[YTS.AG].mp4
http://167.114.174.132:9092/movies/Batch229/Split.2016.720p.BluRay.x264-[YTS.AG].mp4
http://167.114.174.132:9092/movies/Batch229/Teen.Titans.The.Judas.Contract.2017.720p.BluRay.x264-[YTS.AG].mp4
http://167.114.174.132:9092/movies/Batch229/The.Founder.2016.720p.BluRay.x264-[YTS.AG].mp4
http://167.114.174.132:9092/movies/Batch229/The.Horde.2016.720p.BluRay.x264-[YTS.AG].mp4
http://167.114.174.132:9092/movies/Batch229/The.Institute.2017.720p.BluRay.x264-[YTS.AG].mp4
http://167.114.174.132:9092/movies/Batch229/The.Marine.5.Battleground.2017.720p.BluRay.x264-[YTS.AG].mp4
http://167.114.174.132:9092/movies/Batch229/The.Matchbreaker.2016.720p.BluRay.x264-[YTS.AG].mp4
http://167.114.174.132:9092/movies/Batch229/The.Vessel.2016.720p.BluRay.x264-[YTS.AG].mp4
http://167.114.174.132:9092/movies/Batch229/Traceroute.2016.720p.BluRay.x264-[YTS.AG].mp4
http://167.114.174.132:9092/movies/Batch230/Fight.Valley.2016.720p.BluRay.x264-[YTS.AG].mp4
http://167.114.174.132:9092/movies/Batch230/Kicks.2016.720p.BluRay.x264-[YTS.AG].mp4
http://167.114.174.132:9092/movies/Batch230/Punching.Henry.2016.720p.BluRay.x264-[YTS.AG].mp4
http://167.114.174.132:9092/movies/Batch230/The.Autopsy.Of.Jane.Doe.2016.720p.BluRay.x264-[YTS.AG].mp4
http://167.114.174.132:9092/movies/Batch231/Gold.2016.720p.BluRay.x264-[YTS.AG].mp4
http://167.114.174.132:9092/movies/Batch231/Logan.2017.1080p.HC.HDRip.X264.AC3-EVO[EtHD].mp4
http://167.114.174.132:9092/movies/Batch231/Personal.Shopper.2016.720p.BluRay.x264-[YTS.AG].mp4
http://167.114.174.132:9092/movies/Batch231/Predator.1987.BrRip.720p.x264.YIFY.mkv
http://167.114.174.132:9092/movies/Batch231/Predator.2.1990.720p.BrRip.x264.bitloks.YIFY.mp4
http://167.114.174.132:9092/movies/Batch231/Rings.2017.720p.BluRay.x264-[YTS.AG].mp4
http://167.114.174.132:9092/movies/Batch231/Silicon.Cowboys.2016.720p.BluRay.x264-[YTS.AG].mp4
http://167.114.174.132:9092/movies/Batch231/The.Age.Of.Shadows.2016.720p.BluRay.x264-[YTS.AG].mp4
http://167.114.174.132:9092/movies/batch232/A.Dog's.Purpose.2017.720p.BluRay.x264-[YTS.AG].mp4
http://167.114.174.132:9092/movies/batch232/Hannibal.Rising.2007.720p.BluRay.x264.YIFY.mp4
http://167.114.174.132:9092/movies/batch232/K-911.1999.720p.BluRay.x264-[YTS.AG].mp4
http://167.114.174.132:9092/movies/batch232/Ride.The.High.Country.1962.720p.BluRay.x264-[YTS.AG].mp4
http://167.114.174.132:9092/movies/batch232/Thank.You.For.Smoking.Br.720p.YIFY.mkv
http://167.114.174.132:9092/movies/batch233/ALIEN 2 EL REGRESO (1986)  dual audio DVDRIP.mkv
http://167.114.174.132:9092/movies/batch233/Alien 2 Special Edition 1986.720p.BrRip.x264.YIFY.mp4
http://167.114.174.132:9092/movies/batch233/Alien 3 Special Edition 1992.720p.BrRip.x264.YIFY.mp4
http://167.114.174.132:9092/movies/batch233/Alien 4 Resurrection Special Edition 1997.720p.BrRip.x264.YIFY.mp4
http://167.114.174.132:9092/movies/batch233/Alien Director's Cut 1979.720p.BrRip.x264.YIFY.mp4
http://167.114.174.132:9092/movies/batch233/Alien.vs.Predator.2004.720p.BrRip.x264.YIFY.mp4
http://167.114.174.132:9092/movies/batch233/Aliens.Vs.Predator.Requiem.2007.1080p.BluRay.H264.AAC-RARBG.mp4
http://167.114.174.132:9092/movies/batch233/Aliens.vs.Predator.Requiem.2007.UNRATED.720p.BluRay.H264.AAC-RARBG.mp4
http://167.114.174.132:9092/movies/batch233/Avatar.ECE.2009.720p.BrRip.x264.bitloks.YIFY.mp4
http://167.114.174.132:9092/movies/batch233/Bird.On.A.Wire.1990.720p.BluRay.x264-[YTS.AG].mp4
http://167.114.174.132:9092/movies/batch233/Fallen.2016.720p.BluRay.x264-[YTS.AG].mp4
http://167.114.174.132:9092/movies/batch233/Godzilla.2014.720p.BluRay.x264.YIFY.mp4
http://167.114.174.132:9092/movies/batch233/Hacker.2016.720p.BluRay.x264-[YTS.AG].mp4
http://167.114.174.132:9092/movies/batch233/Jerry.Maguire.1996.BrRip.720p.x264.YIFY.mkv
http://167.114.174.132:9092/movies/batch233/Knowing.2009.720p.BrRip.x264.YIFY.mp4
http://167.114.174.132:9092/movies/batch233/Prometheus.2012.720p.BluRay.X264.YIFY.mp4
http://167.114.174.132:9092/movies/batch233/RARBG.com.mp4
http://167.114.174.132:9092/movies/batch233/Stratton.2017.720p.BluRay.x264-[YTS.AG].mp4
http://167.114.174.132:9092/movies/batch233/The.Scribbler.2014.720p.BluRay.x264-[YTS.AG].mp4
http://167.114.174.132:9092/movies/batch233/The.Void.2016.720p.BluRay.x264-[YTS.AG].mp4
http://167.114.174.132:9092/movies/batch233/Tron.Legacy.2010.Br.720p.YIFY.mkv
http://167.114.174.132:9092/movies/batch233/WALL-E.2008.720p.BrRip.x264.YIFY.mp4
http://167.114.174.132:9092/movies/batch234/AfterDeath.2015.720p.BluRay.x264-[YTS.AG].mp4
http://167.114.174.132:9092/movies/batch234/Fantasia.2000.1999.720p.BrRip.x264.YIFY.mp4
http://167.114.174.132:9092/movies/batch234/Fist.Fight.2017.720p.BluRay.x264-[YTS.AG].mp4
http://167.114.174.132:9092/movies/batch234/Get.Out.2017.720p.BluRay.x264-[YTS.AG].mp4
http://167.114.174.132:9092/movies/batch234/Max.2.White.House.Hero.2017.720p.BluRay.x264-[YTS.AG].mp4
http://167.114.174.132:9092/movies/batch234/Realive.2016.720p.BluRay.x264-[YTS.AG].mp4
http://167.114.174.132:9092/movies/batch234/Rock.Dog.2016.720p.BluRay.x264-[YTS.AG].mp4
http://167.114.174.132:9092/movies/batch234/The.Dish.2000.720p.BluRay.x264-[YTS.AG].mp4
http://167.114.174.132:9092/movies/batch234/The.Great.Wall.2016.720p.BluRay.x264-[YTS.AG].mp4
http://167.114.174.132:9092/movies/batch234/The.Shadow.Effect.2017.720p.BluRay.x264-[YTS.AG].mp4
http://167.114.174.132:9092/movies/batch234/The.Space.Between.Us.2017.720p.BluRay.x264-[YTS.AG].mp4
http://167.114.174.132:9092/movies/batch234/The.Young.And.Prodigious.T.S..Spivet.2013.720p.BluRay.x264-[YTS.AG].mp4
http://167.114.174.132:9092/movies/batch234/XX.2017.720p.BluRay.x264-[YTS.AG].mp4
http://167.114.174.132:9092/movies/Batch235/A.Cure.For.Wellness.2016.720p.BluRay.x264-[YTS.AG].mp4
http://167.114.174.132:9092/movies/Batch235/Aftermath.2017.720p.BluRay.x264-[YTS.AG].mp4
http://167.114.174.132:9092/movies/Batch235/Before.I.Fall.2017.720p.BluRay.x264-[YTS.AG].mp4
http://167.114.174.132:9092/movies/Batch235/Game.Of.Death.1978.720p.BluRay.x264-[YTS.AG].mp4
http://167.114.174.132:9092/movies/Batch235/John.Wick.Chapter.2.2017.720p.BluRay.x264-[YTS.AG].mp4
http://167.114.174.132:9092/movies/Batch235/Johnny.English.2003.720p.BrRip.264.YIFY.mp4
http://167.114.174.132:9092/movies/Batch235/King.Arthur.And.The.Knights.Of.The.Round.Table.2017.720p.BluRay.x264-[YTS.AG].mp4
http://167.114.174.132:9092/movies/Batch235/Off.Piste.2016.720p.BluRay.x264-[YTS.AG].mp4
http://167.114.174.132:9092/movies/Batch235/Peaceful.Warrior.2006.720p.BluRay.x264-[YTS.AG].mp4
http://167.114.174.132:9092/movies/Batch235/T2.Trainspotting.2017.720p.BluRay.x264-[YTS.AG].mp4
http://167.114.174.132:9092/movies/Batch235/Table.19.2017.720p.BluRay.x264-[YTS.AG].mp4
http://167.114.174.132:9092/movies/Batch235/The.Assignment.2016.720p.BluRay.x264-[YTS.AG].mp4
http://167.114.174.132:9092/movies/Batch235/The.Last.Face.2016.720p.BluRay.x264-[YTS.AG].mp4
http://167.114.174.132:9092/movies/Batch235/The.Last.Word.2017.720p.BluRay.x264-[YTS.AG].mp4
http://167.114.174.132:9092/movies/Batch235/The.LEGO.Batman.Movie.2017.720p.BluRay.x264-[YTS.AG].mp4
http://167.114.174.132:9092/movies/Batch235/The.Shack.2017.720p.BluRay.x264-[YTS.AG].mp4
http://167.114.174.132:9092/movies/Batch235/The.Ticket.2016.720p.BluRay.x264-[YTS.AG].mp4
http://167.114.174.132:9092/movies/Batch235/Transpecos.2016.720p.BluRay.x264-[YTS.AG].mp4
http://167.114.174.132:9092/movies/Batch235/Viking.Legacy.2016.720p.BluRay.x264-[YTS.AG].mp4
http://167.114.174.132:9092/movies/Batch235/Voice.From.The.Stone.2017.720p.BluRay.x264-[YTS.AG].mp4
http://167.114.174.132:9092/movies/Batch235/White.Girl.2016.720p.BluRay.x264-[YTS.AG].mp4
http://167.114.174.132:9092/movies/Batch236/A.Quiet.Passion.2016.720p.BluRay.x264-[YTS.AG].mp4
http://167.114.174.132:9092/movies/Batch236/Alien.Covenant.2017.720p.BluRay.x264-[YTS.AG].mp4
http://167.114.174.132:9092/movies/Batch236/Alone.In.Berlin.2016.720p.BluRay.x264-[YTS.AG].mp4
http://167.114.174.132:9092/movies/Batch236/Another.Evil.2016.720p.BluRay.x264-[YTS.AG].mp4
http://167.114.174.132:9092/movies/Batch236/Beauty.And.The.Beast.2017.720p.BluRay.x264-[YTS.AG].mp4
http://167.114.174.132:9092/movies/Batch236/Black.Butterfly.2017.720p.BluRay.x264-[YTS.AG].mp4
http://167.114.174.132:9092/movies/Batch236/Boyka.Undisputed.IV.2016.720p.BluRay.x264-[YTS.AG].mp4
http://167.114.174.132:9092/movies/Batch236/Buster's.Mal.Heart.2016.720p.BluRay.x264-[YTS.AG].mp4
http://167.114.174.132:9092/movies/Batch236/Charlie.Charlie.2016.720p.BluRay.x264-[YTS.AG].mp4
http://167.114.174.132:9092/movies/Batch236/Drone.2017.720p.BluRay.x264-[YTS.AG].mp4
http://167.114.174.132:9092/movies/Batch236/Eloise.2017.720p.BluRay.x264-[YTS.AG].mp4
http://167.114.174.132:9092/movies/Batch236/Extortion.2017.720p.BluRay.x264-[YTS.AG].mp4
http://167.114.174.132:9092/movies/Batch236/Free.Fire.2016.720p.BluRay.x264-[YTS.AG].mp4
http://167.114.174.132:9092/movies/Batch236/Get.The.Girl.2017.720p.BluRay.x264-[YTS.AG].mp4
http://167.114.174.132:9092/movies/Batch236/Ghost.In.The.Shell.2017.720p.BluRay.x264-[YTS.AG].mp4
http://167.114.174.132:9092/movies/Batch236/Ghost.In.The.Shell.Arise.Border.3.-.Ghost.Tears.2014.720p.BluRay.x264-[YTS.AG].mp4
http://167.114.174.132:9092/movies/Batch236/Ghost.In.The.Shell.Arise.Border.4.-.Ghost.Stands.Alone.2014.720p.BluRay.x264-[YTS.AG].mp4
http://167.114.174.132:9092/movies/Batch236/Gifted.2017.720p.BluRay.x264-[YTS.AG].mp4
http://167.114.174.132:9092/movies/Batch236/Going.In.Style.2017.720p.BluRay.x264-[YTS.AG].mp4
http://167.114.174.132:9092/movies/Batch236/How.To.Be.A.Latin.Lover.2017.720p.BluRay.x264-[YTS.AG].mp4
http://167.114.174.132:9092/movies/Batch236/Kong.Skull.Island.2017.1080p.BluRay.x264-[YTS.AG].mp4
http://167.114.174.132:9092/movies/Batch236/Lego.Scooby-Doo!.Blowout.Beach.Bash.2017.720p.BluRay.x264-[YTS.AG].mp4
http://167.114.174.132:9092/movies/Batch236/Let.Her.Out.2016.720p.BluRay.x264-[YTS.AG].mp4
http://167.114.174.132:9092/movies/Batch236/Moontrap.Target.Earth.2017.1080p.BluRay.x264-[YTS.AG].mp4
http://167.114.174.132:9092/movies/Batch236/My.Name.Is.Lenny.2017.720p.BluRay.x264-[YTS.AG].mp4
http://167.114.174.132:9092/movies/Batch236/Once.Upon.A.Time.In.Venice.2017.720p.BluRay.x264-[YTS.AG].mp4
http://167.114.174.132:9092/movies/Batch236/Phoenix.Forgotten.2017.720p.BluRay.x264-[YTS.AG].mp4
http://167.114.174.132:9092/movies/Batch236/Pilgrimage.2017.720p.BluRay.x264-[YTS.AG].mp4
http://167.114.174.132:9092/movies/Batch236/Resident.Evil.Vendetta.2017.720p.BluRay.x264-[YTS.AG].mp4
http://167.114.174.132:9092/movies/Batch236/S.W.A.T..Under.Siege.2017.720p.BluRay.x264-[YTS.AG].mp4
http://167.114.174.132:9092/movies/Batch236/Sex.Doll.2016.720p.BluRay.x264-[YTS.AG].mp4
http://167.114.174.132:9092/movies/Batch236/Shin.Godzilla.2016.720p.BluRay.x264-[YTS.AG].mp4
http://167.114.174.132:9092/movies/Batch236/Shot.Caller.2017.720p.BluRay.x264-[YTS.AG].mp4
http://167.114.174.132:9092/movies/Batch236/Smurfs.The.Lost.Village.2017.720p.BluRay.x264-[YTS.AG].mp4
http://167.114.174.132:9092/movies/Batch236/Snatched.2017.720p.BluRay.x264-[YTS.AG].mp4
http://167.114.174.132:9092/movies/Batch236/Song.To.Song.2017.720p.BluRay.x264-[YTS.AG].mp4
http://167.114.174.132:9092/movies/Batch236/The.Boss.Baby.2017.720p.BluRay.x264-[YTS.AG].mp4
http://167.114.174.132:9092/movies/Batch236/The.Curse.Of.Sleeping.Beauty.2016.720p.BluRay.x264-[YTS.AG].mp4
http://167.114.174.132:9092/movies/Batch236/The.Dinner.2017.720p.BluRay.x264-[YTS.AG].mp4
http://167.114.174.132:9092/movies/Batch236/The.Eagle.Huntress.2016.720p.BluRay.x264-[YTS.AG].mp4
http://167.114.174.132:9092/movies/Batch236/The.Exception.2016.720p.BluRay.x264-[YTS.AG].mp4
http://167.114.174.132:9092/movies/Batch236/The.Fate.Of.The.Furious.2017.720p.BluRay.x264-[YTS.AG].mp4
http://167.114.174.132:9092/movies/Batch236/The.Lost.City.Of.Z.2016.720p.BluRay.x264-[YTS.AG].mp4
http://167.114.174.132:9092/movies/Batch236/The.Promise.2016.720p.BluRay.x264-[YTS.AG].mp4
http://167.114.174.132:9092/movies/Batch236/The.Wall.2017.720p.BluRay.x264-[YTS.AG].mp4
http://167.114.174.132:9092/movies/Batch236/Tonight.She.Comes.2016.720p.BluRay.x264-[YTS.AG].mp4
http://167.114.174.132:9092/movies/Batch236/Unforgettable.2017.720p.BluRay.x264-[YTS.AG].mp4
http://167.114.174.132:9092/movies/Batch236/Viral.2016.720p.BluRay.x264-[YTS.AG].mp4
http://167.114.174.132:9092/movies/Batch236/Wakefield.2016.720p.BluRay.x264-[YTS.AG].mp4
http://167.114.174.132:9092/movies/Batch237/Baywatch.2017.720p.BluRay.x264-[YTS.AG].mp4
http://167.114.174.132:9092/movies/Batch237/Blind.2017.720p.BluRay.x264-[YTS.AG].mp4
http://167.114.174.132:9092/movies/Batch237/Guardians.Of.The.Galaxy.Vol..2.2017.720p.BluRay.x264-[YTS.AG].mp4
http://167.114.174.132:9092/movies/Batch237/Lady.Macbeth.2016.720p.BluRay.x264-[YTS.AG].mp4
http://167.114.174.132:9092/movies/Batch237/Security.2017.720p.BluRay.x264-[YTS.AG].mp4
http://167.114.174.132:9092/movies/Batch237/The.Ottoman.Lieutenant.2017.720p.BluRay.x264-[YTS.AG].mp4
http://167.114.174.132:9092/movies/Batch237/The.Transfiguration.2016.720p.BluRay.x264-[YTS.AG].mp4
http://167.114.174.132:9092/movies/Batch238/A.Dark.Song.2016.720p.BluRay.x264-[YTS.AG].mp4
http://167.114.174.132:9092/movies/Batch238/All.Eyez.On.Me.2017.720p.BluRay.x264-[YTS.AG].mp4
http://167.114.174.132:9092/movies/Batch238/Attack.Of.The.Killer.Donuts.2016.720p.BluRay.x264-[YTS.AG].mp4
http://167.114.174.132:9092/movies/Batch238/Batman.And.Harley.Quinn.2017.720p.BluRay.x264-[YTS.AG].mp4
http://167.114.174.132:9092/movies/Batch238/Blood.Orange.2016.720p.BluRay.x264-[YTS.AG].mp4
http://167.114.174.132:9092/movies/Batch238/Born.In.China.2016.720p.BluRay.x264-[YTS.AG].mp4
http://167.114.174.132:9092/movies/Batch238/Captain.Underpants.The.First.Epic.Movie.2017.720p.BluRay.x264-[YTS.AG].mp4
http://167.114.174.132:9092/movies/Batch238/Chronically.Metropolitan.2016.720p.BluRay.x264-[YTS.AG].mp4
http://167.114.174.132:9092/movies/Batch238/Dead.Again.In.Tombstone.2017.720p.BluRay.x264-[YTS.AG].mp4
http://167.114.174.132:9092/movies/Batch238/First.Kill.2017.720p.BluRay.x264-[YTS.AG].mp4
http://167.114.174.132:9092/movies/Batch238/Fun.Mom.Dinner.2017.720p.BluRay.x264-[YTS.AG].mp4
http://167.114.174.132:9092/movies/Batch238/It.Comes.At.Night.2017.720p.BluRay.x264-[YTS.AG].mp4
http://167.114.174.132:9092/movies/Batch238/Kidnap.2017.720p.BluRay.x264-[YTS.AG].mp4
http://167.114.174.132:9092/movies/Batch238/Kill.Switch.2017.720p.BluRay.x264-[YTS.AG].mp4
http://167.114.174.132:9092/movies/Batch238/Lowriders.2016.720p.BluRay.x264-[YTS.AG].mp4
http://167.114.174.132:9092/movies/Batch238/Megan.Leavey.2017.720p.BluRay.x264-[YTS.AG].mp4
http://167.114.174.132:9092/movies/Batch238/Pirates.Of.The.Caribbean.Dead.Men.Tell.No.Tales.2017.720p.BluRay.x264-[YTS.AG].mp4
http://167.114.174.132:9092/movies/Batch238/Risk.2016.720p.BluRay.x264-[YTS.AG].mp4
http://167.114.174.132:9092/movies/Batch238/Rough.Night.2017.720p.BluRay.x264-[YTS.AG].mp4
http://167.114.174.132:9092/movies/Batch238/The.Big.Sick.2017.720p.BluRay.x264-[YTS.AG].mp4
http://167.114.174.132:9092/movies/Batch238/The.Hero.2017.720p.BluRay.x264-[YTS.AG].mp4
http://167.114.174.132:9092/movies/Batch238/The.Mummy.2017.720p.BluRay.x264-[YTS.AG].mp4
http://167.114.174.132:9092/movies/Batch238/The.Osiris.Child.2016.720p.BluRay.x264-[YTS.AG].mp4
http://167.114.174.132:9092/movies/Batch238/Unlocked.2017.720p.BluRay.x264-[YTS.AG].mp4
http://167.114.174.132:9092/movies/Batch238/Wonder.Woman.2017.720p.BluRay.x264-[YTS.AG].mp4
http://167.114.174.132:9092/movies/Batch239/222.2017.720p.BluRay.x264-[YTS.AG].mp4
http://167.114.174.132:9092/movies/Batch239/47.Meters.Down.2017.720p.BluRay.x264-[YTS.AG].mp4
http://167.114.174.132:9092/movies/Batch239/6.Days.2017.720p.BluRay.x264-[YTS.AG].mp4
http://167.114.174.132:9092/movies/Batch239/68.Kill.2017.720p.BluRay.x264-[YTS.AG].mp4
http://167.114.174.132:9092/movies/Batch239/Ali.And.Nino.2016.720p.BluRay.x264-[YTS.AG].mp4
http://167.114.174.132:9092/movies/Batch239/Anomalous.2016.720p.BluRay.x264-[YTS.AG].mp4
http://167.114.174.132:9092/movies/Batch239/Armed.Response.2017.720p.BluRay.x264-[YTS.AG].mp4
http://167.114.174.132:9092/movies/Batch239/Atomica.2017.720p.BluRay.x264-[YTS.AG].mp4
http://167.114.174.132:9092/movies/Batch239/Berlin.Syndrome.2017.720p.BluRay.x264-[YTS.AG].mp4
http://167.114.174.132:9092/movies/Batch239/Boys.In.The.Trees.2016.720p.BluRay.x264-[YTS.AG].mp4
http://167.114.174.132:9092/movies/Batch239/Brigsby.Bear.2017.720p.BluRay.x264-[YTS.AG].mp4
http://167.114.174.132:9092/movies/Batch239/Cars.3.2017.720p.BluRay.x264-[YTS.AG].mp4
http://167.114.174.132:9092/movies/Batch239/Certain.Women.2016.720p.BluRay.x264-[YTS.AG].mp4
http://167.114.174.132:9092/movies/Batch239/Churchill.2017.720p.BluRay.x264-[YTS.AG].mp4
http://167.114.174.132:9092/movies/Batch239/Escape.Room.2017.720p.BluRay.x264-[YTS.AG].mp4
http://167.114.174.132:9092/movies/Batch239/Geo-Disaster.2017.720p.BluRay.x264-[YTS.AG].mp4
http://167.114.174.132:9092/movies/Batch239/Jungle.2017.720p.BluRay.x264-[YTS.AG].mp4
http://167.114.174.132:9092/movies/Batch239/Overdrive.2017.720p.BluRay.x264-[YTS.AG].mp4
http://167.114.174.132:9092/movies/Batch239/Revolt.2017.720p.BluRay.x264-[YTS.AG].mp4
http://167.114.174.132:9092/movies/Batch239/Shock.Wave.2017.720p.BluRay.x264-[YTS.AG].mp4
http://167.114.174.132:9092/movies/Batch239/Spider-Man.Homecoming.2017.720p.BluRay.x264-[YTS.AG].mp4
http://167.114.174.132:9092/movies/Batch239/The.Bad.Batch.2016.720p.BluRay.x264-[YTS.AG].mp4
http://167.114.174.132:9092/movies/Batch239/The.Book.Of.Henry.2017.720p.BluRay.x264-[YTS.AG].mp4
http://167.114.174.132:9092/movies/Batch239/The.Dark.Tower.2017.720p.BluRay.x264-[YTS.AG].mp4
http://167.114.174.132:9092/movies/Batch239/The.Emoji.Movie.2017.720p.BluRay.x264-[YTS.AG].mp4
http://167.114.174.132:9092/movies/Batch239/The.Evil.Within.2017.720p.BluRay.x264-[YTS.AG].mp4
http://167.114.174.132:9092/movies/Batch239/The.Glass.Castle.2017.720p.BluRay.x264-[YTS.AG].mp4
http://167.114.174.132:9092/movies/Batch239/The.Good.Catholic.2017.720p.BluRay.x264-[YTS.AG].mp4
http://167.114.174.132:9092/movies/Batch239/The.Nut.Job.2.Nutty.By.Nature.2017.720p.BluRay.x264-[YTS.AG].mp4
http://167.114.174.132:9092/movies/Batch239/The.Wizard.Of.Lies.2017.720p.BluRay.x264-[YTS.AG].mp4
http://167.114.174.132:9092/movies/Batch239/Transformers.The.Last.Knight.2017.720p.BluRay.x264-[YTS.AG].mp4
http://167.114.174.132:9092/movies/Batch239/Voyage.Of.Time.Life's.Journey.2016.720p.BluRay.x264-[YTS.AG].mp4
http://167.114.174.132:9092/movies/Batch240/Annabelle Creation [BluRay Screener][Español Castellano][2017].avi
http://167.114.174.132:9092/movies/Batch240/Blade Runner 2049 TS www.DESCARGASMIX.com.avi
http://167.114.174.132:9092/movies/Batch240/g30t0rm3nt4.2017.tshq.latino.mp4
http://167.114.174.132:9092/movies/Batch240/it.eso.2017.tshq.mp4
http://167.114.174.132:9092/movies/Batch240/La Guerra Del Planeta De Los Simios [BluRay Rip][AC3 2.0 Español Latino][2017].avi
http://167.114.174.132:9092/movies/Batch240/Los Del Tunel [DVD RIP][AC3 2.0 Español Castellano][2017].avi
http://167.114.174.132:9092/movies/Batch240/Operacion Cacahuete 2 [HDTS Screener][Español Latino][2017].avi
http://167.114.174.132:9092/movies/Batch240/Power Rangers [BluRay Screener Line][Español Castellano][2017].avi
http://167.114.174.132:9092/movies/Batch240/Singularity.2017.720p.WEB-DL.XviD.AC3-FGT.avi
http://167.114.174.132:9092/movies/Batch240/Stasis [BluRay Rip][AC3 2.0 Español Castellano][2017].avi
http://167.114.174.132:9092/movies/Batch240/th0r.r4gn4r0k.2017.tshq.latino.mp4
http://167.114.174.132:9092/movies/Batch241/Beta.Test.2016.720p.BluRay.x264-[YTS.AG].mp4
http://167.114.174.132:9092/movies/Batch241/coco_esp.mp4
http://167.114.174.132:9092/movies/Batch241/Coco.2017.720p.HDTC.X264-MerryChristmasNoVipRequired.mkv
http://167.114.174.132:9092/movies/Batch241/Cult.Of.Chucky.2017.720p.BluRay.x264-[YTS.AG].mp4
http://167.114.174.132:9092/movies/Batch241/Jungle.2017.720p.BluRay.x264-[YTS.AG].mp4
http://167.114.174.132:9092/movies/Batch241/Live.Action.Tokyo.Ghoul_AnimheroXD_.mp4
http://167.114.174.132:9092/movies/Batch241/Logan.Lucky.2017.720p.BluRay.x264-[YTS.AG].mp4
http://167.114.174.132:9092/movies/Batch241/Star.Wars.Episode.I.-.The.Phantom.Menace.1999.720p.BluRay.x264-[YTS.AG].mp4
http://167.114.174.132:9092/movies/Batch241/Star.Wars.Episode.II.-.Attack.Of.The.Clones.2002.720p.BluRay.x264-[YTS.AG].mp4
http://167.114.174.132:9092/movies/Batch241/Star.Wars.Episode.III.-.Revenge.Of.The.Sith.2005.720p.BluRay.x264-[YTS.AG].mp4
http://167.114.174.132:9092/movies/Batch241/Star.Wars.Episode.IV.-.A.New.Hope.1977.720p.BluRay.x264-[YTS.AG].mp4
http://167.114.174.132:9092/movies/Batch241/Super.Dark.Times.2017.720p.BluRay.x264-[YTS.AG].mp4
http://167.114.174.132:9092/movies/Batch241/Valerian.And.The.City.Of.A.Thousand.Planets.2017.720p.BluRay.x264-[YTS.AG].mp4
http://167.114.174.132:9092/movies/Batch241/War.For.The.Planet.Of.The.Apes.2017.720p.BluRay.x264-[YTS.AG].mp4
http://167.114.174.132:9092/movies/Batch241/Wish.Upon.2017.720p.BluRay.x264-[YTS.AG].mp4
http://167.114.174.132:9092/movies/Batch242/[AFLV] No Game No Life - Zero.mp4
http://167.114.174.132:9092/movies/Batch242/Live.Action.Tokyo.Ghoul_AnimheroXD_.mp4
